%!PS-Adobe-2.0 EPSF-2.0
%%Title: detector-insides.eps
%%Creator: fig2dev Version 3.2.3 Patchlevel 
%%CreationDate: Mon Jun 25 20:39:54 2001
%%For: zamboni@basm (Diego Zamboni)
%%BoundingBox: 0 0 290 75
%%Magnification: 1.0000
%%EndComments
/$F2psDict 200 dict def
$F2psDict begin
$F2psDict /mtrx matrix put
/col-1 {0 setgray} bind def
/col0 {0.000 0.000 0.000 srgb} bind def
/col1 {0.000 0.000 1.000 srgb} bind def
/col2 {0.000 1.000 0.000 srgb} bind def
/col3 {0.000 1.000 1.000 srgb} bind def
/col4 {1.000 0.000 0.000 srgb} bind def
/col5 {1.000 0.000 1.000 srgb} bind def
/col6 {1.000 1.000 0.000 srgb} bind def
/col7 {1.000 1.000 1.000 srgb} bind def
/col8 {0.000 0.000 0.560 srgb} bind def
/col9 {0.000 0.000 0.690 srgb} bind def
/col10 {0.000 0.000 0.820 srgb} bind def
/col11 {0.530 0.810 1.000 srgb} bind def
/col12 {0.000 0.560 0.000 srgb} bind def
/col13 {0.000 0.690 0.000 srgb} bind def
/col14 {0.000 0.820 0.000 srgb} bind def
/col15 {0.000 0.560 0.560 srgb} bind def
/col16 {0.000 0.690 0.690 srgb} bind def
/col17 {0.000 0.820 0.820 srgb} bind def
/col18 {0.560 0.000 0.000 srgb} bind def
/col19 {0.690 0.000 0.000 srgb} bind def
/col20 {0.820 0.000 0.000 srgb} bind def
/col21 {0.560 0.000 0.560 srgb} bind def
/col22 {0.690 0.000 0.690 srgb} bind def
/col23 {0.820 0.000 0.820 srgb} bind def
/col24 {0.500 0.190 0.000 srgb} bind def
/col25 {0.630 0.250 0.000 srgb} bind def
/col26 {0.750 0.380 0.000 srgb} bind def
/col27 {1.000 0.500 0.500 srgb} bind def
/col28 {1.000 0.630 0.630 srgb} bind def
/col29 {1.000 0.750 0.750 srgb} bind def
/col30 {1.000 0.880 0.880 srgb} bind def
/col31 {1.000 0.840 0.000 srgb} bind def

end
save
newpath 0 75 moveto 0 0 lineto 290 0 lineto 290 75 lineto closepath clip newpath
-71.0 105.0 translate
1 -1 scale

/cp {closepath} bind def
/ef {eofill} bind def
/gr {grestore} bind def
/gs {gsave} bind def
/sa {save} bind def
/rs {restore} bind def
/l {lineto} bind def
/m {moveto} bind def
/rm {rmoveto} bind def
/n {newpath} bind def
/s {stroke} bind def
/sh {show} bind def
/slc {setlinecap} bind def
/slj {setlinejoin} bind def
/slw {setlinewidth} bind def
/srgb {setrgbcolor} bind def
/rot {rotate} bind def
/sc {scale} bind def
/sd {setdash} bind def
/ff {findfont} bind def
/sf {setfont} bind def
/scf {scalefont} bind def
/sw {stringwidth} bind def
/tr {translate} bind def
/tnt {dup dup currentrgbcolor
  4 -2 roll dup 1 exch sub 3 -1 roll mul add
  4 -2 roll dup 1 exch sub 3 -1 roll mul add
  4 -2 roll dup 1 exch sub 3 -1 roll mul add srgb}
  bind def
/shd {dup dup currentrgbcolor 4 -2 roll mul 4 -2 roll mul
  4 -2 roll mul srgb} bind def
/$F2psBegin {$F2psDict begin /$F2psEnteredState save def} def
/$F2psEnd {$F2psEnteredState restore end} def

$F2psBegin
%%Page: 1 1
10 setmiterlimit
 0.06000 0.06000 sc
% Polyline
7.500 slw
n 1275 750 m 1200 750 1200 1650 75 arcto 4 {pop} repeat
  1200 1725 5925 1725 75 arcto 4 {pop} repeat
  6000 1725 6000 825 75 arcto 4 {pop} repeat
  6000 750 1275 750 75 arcto 4 {pop} repeat
 cp gs col0 s gr 
% Polyline
n 1350 795 m 1275 795 1275 1605 75 arcto 4 {pop} repeat
  1275 1680 3525 1680 75 arcto 4 {pop} repeat
  3600 1680 3600 870 75 arcto 4 {pop} repeat
  3600 795 1350 795 75 arcto 4 {pop} repeat
 cp gs col7 0.60 shd ef gr gs col0 s gr 
% Polyline
n 3825 795 m 3750 795 3750 1605 75 arcto 4 {pop} repeat
  3750 1680 5850 1680 75 arcto 4 {pop} repeat
  5925 1680 5925 870 75 arcto 4 {pop} repeat
  5925 795 3825 795 75 arcto 4 {pop} repeat
 cp gs col7 0.00 shd ef gr gs col0 s gr 
/Helvetica ff 210.00 scf sf
3600 675 m
gs 1 -1 sc (Embedded detector) dup sw pop 2 div neg 0 rm  col0 sh gr
% Polyline
60.000 slw
n 3600 1238 m
 3750 1238 l gs col7 0.00 shd ef gr gs col0 s gr 
/Helvetica ff 210.00 scf sf
2400 1193 m
gs 1 -1 sc (Internal sensor) dup sw pop 2 div neg 0 rm  col0 sh gr
/Helvetica ff 210.00 scf sf
4875 1193 m
gs 1 -1 sc (Logic for) dup sw pop 2 div neg 0 rm  col7 sh gr
/Helvetica ff 210.00 scf sf
2400 1425 m
gs 1 -1 sc (\(implicit or explicit\)) dup sw pop 2 div neg 0 rm  col0 sh gr
/Helvetica ff 210.00 scf sf
4875 1425 m
gs 1 -1 sc (detection) dup sw pop 2 div neg 0 rm  col7 sh gr
$F2psEnd
rs
