%!PS-Adobe-2.0
%%Title: http_load_cpu_withaverages.ps
%%Creator: gnuplot 3.7 patchlevel 0
%%CreationDate: Sat Jun 23 12:04:44 2001
%%DocumentFonts: (atend)
%%BoundingBox: 50 50 554 770
%%Orientation: Landscape
%%Pages: (atend)
%%EndComments
/gnudict 256 dict def
gnudict begin
/Color false def
/Solid false def
/gnulinewidth 5.000 def
/userlinewidth gnulinewidth def
/vshift -46 def
/dl {10 mul} def
/hpt_ 31.5 def
/vpt_ 31.5 def
/hpt hpt_ def
/vpt vpt_ def
/M {moveto} bind def
/L {lineto} bind def
/R {rmoveto} bind def
/V {rlineto} bind def
/vpt2 vpt 2 mul def
/hpt2 hpt 2 mul def
/Lshow { currentpoint stroke M
  0 vshift R show } def
/Rshow { currentpoint stroke M
  dup stringwidth pop neg vshift R show } def
/Cshow { currentpoint stroke M
  dup stringwidth pop -2 div vshift R show } def
/UP { dup vpt_ mul /vpt exch def hpt_ mul /hpt exch def
  /hpt2 hpt 2 mul def /vpt2 vpt 2 mul def } def
/DL { Color {setrgbcolor Solid {pop []} if 0 setdash }
 {pop pop pop Solid {pop []} if 0 setdash} ifelse } def
/BL { stroke gnulinewidth 2 mul setlinewidth } def
/AL { stroke gnulinewidth 2 div setlinewidth } def
/UL { gnulinewidth mul /userlinewidth exch def } def
/PL { stroke userlinewidth setlinewidth } def
/LTb { BL [] 0 0 0 DL } def
/LTa { AL [1 dl 2 dl] 0 setdash 0 0 0 setrgbcolor } def
/LT0 { PL [] 1 0 0 DL } def
/LT1 { PL [4 dl 2 dl] 0 1 0 DL } def
/LT2 { PL [2 dl 3 dl] 0 0 1 DL } def
/LT3 { PL [1 dl 1.5 dl] 1 0 1 DL } def
/LT4 { PL [5 dl 2 dl 1 dl 2 dl] 0 1 1 DL } def
/LT5 { PL [4 dl 3 dl 1 dl 3 dl] 1 1 0 DL } def
/LT6 { PL [2 dl 2 dl 2 dl 4 dl] 0 0 0 DL } def
/LT7 { PL [2 dl 2 dl 2 dl 2 dl 2 dl 4 dl] 1 0.3 0 DL } def
/LT8 { PL [2 dl 2 dl 2 dl 2 dl 2 dl 2 dl 2 dl 4 dl] 0.5 0.5 0.5 DL } def
/Pnt { stroke [] 0 setdash
   gsave 1 setlinecap M 0 0 V stroke grestore } def
/Dia { stroke [] 0 setdash 2 copy vpt add M
  hpt neg vpt neg V hpt vpt neg V
  hpt vpt V hpt neg vpt V closepath stroke
  Pnt } def
/Pls { stroke [] 0 setdash vpt sub M 0 vpt2 V
  currentpoint stroke M
  hpt neg vpt neg R hpt2 0 V stroke
  } def
/Box { stroke [] 0 setdash 2 copy exch hpt sub exch vpt add M
  0 vpt2 neg V hpt2 0 V 0 vpt2 V
  hpt2 neg 0 V closepath stroke
  Pnt } def
/Crs { stroke [] 0 setdash exch hpt sub exch vpt add M
  hpt2 vpt2 neg V currentpoint stroke M
  hpt2 neg 0 R hpt2 vpt2 V stroke } def
/TriU { stroke [] 0 setdash 2 copy vpt 1.12 mul add M
  hpt neg vpt -1.62 mul V
  hpt 2 mul 0 V
  hpt neg vpt 1.62 mul V closepath stroke
  Pnt  } def
/Star { 2 copy Pls Crs } def
/BoxF { stroke [] 0 setdash exch hpt sub exch vpt add M
  0 vpt2 neg V  hpt2 0 V  0 vpt2 V
  hpt2 neg 0 V  closepath fill } def
/TriUF { stroke [] 0 setdash vpt 1.12 mul add M
  hpt neg vpt -1.62 mul V
  hpt 2 mul 0 V
  hpt neg vpt 1.62 mul V closepath fill } def
/TriD { stroke [] 0 setdash 2 copy vpt 1.12 mul sub M
  hpt neg vpt 1.62 mul V
  hpt 2 mul 0 V
  hpt neg vpt -1.62 mul V closepath stroke
  Pnt  } def
/TriDF { stroke [] 0 setdash vpt 1.12 mul sub M
  hpt neg vpt 1.62 mul V
  hpt 2 mul 0 V
  hpt neg vpt -1.62 mul V closepath fill} def
/DiaF { stroke [] 0 setdash vpt add M
  hpt neg vpt neg V hpt vpt neg V
  hpt vpt V hpt neg vpt V closepath fill } def
/Pent { stroke [] 0 setdash 2 copy gsave
  translate 0 hpt M 4 {72 rotate 0 hpt L} repeat
  closepath stroke grestore Pnt } def
/PentF { stroke [] 0 setdash gsave
  translate 0 hpt M 4 {72 rotate 0 hpt L} repeat
  closepath fill grestore } def
/Circle { stroke [] 0 setdash 2 copy
  hpt 0 360 arc stroke Pnt } def
/CircleF { stroke [] 0 setdash hpt 0 360 arc fill } def
/C0 { BL [] 0 setdash 2 copy moveto vpt 90 450  arc } bind def
/C1 { BL [] 0 setdash 2 copy        moveto
       2 copy  vpt 0 90 arc closepath fill
               vpt 0 360 arc closepath } bind def
/C2 { BL [] 0 setdash 2 copy moveto
       2 copy  vpt 90 180 arc closepath fill
               vpt 0 360 arc closepath } bind def
/C3 { BL [] 0 setdash 2 copy moveto
       2 copy  vpt 0 180 arc closepath fill
               vpt 0 360 arc closepath } bind def
/C4 { BL [] 0 setdash 2 copy moveto
       2 copy  vpt 180 270 arc closepath fill
               vpt 0 360 arc closepath } bind def
/C5 { BL [] 0 setdash 2 copy moveto
       2 copy  vpt 0 90 arc
       2 copy moveto
       2 copy  vpt 180 270 arc closepath fill
               vpt 0 360 arc } bind def
/C6 { BL [] 0 setdash 2 copy moveto
      2 copy  vpt 90 270 arc closepath fill
              vpt 0 360 arc closepath } bind def
/C7 { BL [] 0 setdash 2 copy moveto
      2 copy  vpt 0 270 arc closepath fill
              vpt 0 360 arc closepath } bind def
/C8 { BL [] 0 setdash 2 copy moveto
      2 copy vpt 270 360 arc closepath fill
              vpt 0 360 arc closepath } bind def
/C9 { BL [] 0 setdash 2 copy moveto
      2 copy  vpt 270 450 arc closepath fill
              vpt 0 360 arc closepath } bind def
/C10 { BL [] 0 setdash 2 copy 2 copy moveto vpt 270 360 arc closepath fill
       2 copy moveto
       2 copy vpt 90 180 arc closepath fill
               vpt 0 360 arc closepath } bind def
/C11 { BL [] 0 setdash 2 copy moveto
       2 copy  vpt 0 180 arc closepath fill
       2 copy moveto
       2 copy  vpt 270 360 arc closepath fill
               vpt 0 360 arc closepath } bind def
/C12 { BL [] 0 setdash 2 copy moveto
       2 copy  vpt 180 360 arc closepath fill
               vpt 0 360 arc closepath } bind def
/C13 { BL [] 0 setdash  2 copy moveto
       2 copy  vpt 0 90 arc closepath fill
       2 copy moveto
       2 copy  vpt 180 360 arc closepath fill
               vpt 0 360 arc closepath } bind def
/C14 { BL [] 0 setdash 2 copy moveto
       2 copy  vpt 90 360 arc closepath fill
               vpt 0 360 arc } bind def
/C15 { BL [] 0 setdash 2 copy vpt 0 360 arc closepath fill
               vpt 0 360 arc closepath } bind def
/Rec   { newpath 4 2 roll moveto 1 index 0 rlineto 0 exch rlineto
       neg 0 rlineto closepath } bind def
/Square { dup Rec } bind def
/Bsquare { vpt sub exch vpt sub exch vpt2 Square } bind def
/S0 { BL [] 0 setdash 2 copy moveto 0 vpt rlineto BL Bsquare } bind def
/S1 { BL [] 0 setdash 2 copy vpt Square fill Bsquare } bind def
/S2 { BL [] 0 setdash 2 copy exch vpt sub exch vpt Square fill Bsquare } bind def
/S3 { BL [] 0 setdash 2 copy exch vpt sub exch vpt2 vpt Rec fill Bsquare } bind def
/S4 { BL [] 0 setdash 2 copy exch vpt sub exch vpt sub vpt Square fill Bsquare } bind def
/S5 { BL [] 0 setdash 2 copy 2 copy vpt Square fill
       exch vpt sub exch vpt sub vpt Square fill Bsquare } bind def
/S6 { BL [] 0 setdash 2 copy exch vpt sub exch vpt sub vpt vpt2 Rec fill Bsquare } bind def
/S7 { BL [] 0 setdash 2 copy exch vpt sub exch vpt sub vpt vpt2 Rec fill
       2 copy vpt Square fill
       Bsquare } bind def
/S8 { BL [] 0 setdash 2 copy vpt sub vpt Square fill Bsquare } bind def
/S9 { BL [] 0 setdash 2 copy vpt sub vpt vpt2 Rec fill Bsquare } bind def
/S10 { BL [] 0 setdash 2 copy vpt sub vpt Square fill 2 copy exch vpt sub exch vpt Square fill
       Bsquare } bind def
/S11 { BL [] 0 setdash 2 copy vpt sub vpt Square fill 2 copy exch vpt sub exch vpt2 vpt Rec fill
       Bsquare } bind def
/S12 { BL [] 0 setdash 2 copy exch vpt sub exch vpt sub vpt2 vpt Rec fill Bsquare } bind def
/S13 { BL [] 0 setdash 2 copy exch vpt sub exch vpt sub vpt2 vpt Rec fill
       2 copy vpt Square fill Bsquare } bind def
/S14 { BL [] 0 setdash 2 copy exch vpt sub exch vpt sub vpt2 vpt Rec fill
       2 copy exch vpt sub exch vpt Square fill Bsquare } bind def
/S15 { BL [] 0 setdash 2 copy Bsquare fill Bsquare } bind def
/D0 { gsave translate 45 rotate 0 0 S0 stroke grestore } bind def
/D1 { gsave translate 45 rotate 0 0 S1 stroke grestore } bind def
/D2 { gsave translate 45 rotate 0 0 S2 stroke grestore } bind def
/D3 { gsave translate 45 rotate 0 0 S3 stroke grestore } bind def
/D4 { gsave translate 45 rotate 0 0 S4 stroke grestore } bind def
/D5 { gsave translate 45 rotate 0 0 S5 stroke grestore } bind def
/D6 { gsave translate 45 rotate 0 0 S6 stroke grestore } bind def
/D7 { gsave translate 45 rotate 0 0 S7 stroke grestore } bind def
/D8 { gsave translate 45 rotate 0 0 S8 stroke grestore } bind def
/D9 { gsave translate 45 rotate 0 0 S9 stroke grestore } bind def
/D10 { gsave translate 45 rotate 0 0 S10 stroke grestore } bind def
/D11 { gsave translate 45 rotate 0 0 S11 stroke grestore } bind def
/D12 { gsave translate 45 rotate 0 0 S12 stroke grestore } bind def
/D13 { gsave translate 45 rotate 0 0 S13 stroke grestore } bind def
/D14 { gsave translate 45 rotate 0 0 S14 stroke grestore } bind def
/D15 { gsave translate 45 rotate 0 0 S15 stroke grestore } bind def
/DiaE { stroke [] 0 setdash vpt add M
  hpt neg vpt neg V hpt vpt neg V
  hpt vpt V hpt neg vpt V closepath stroke } def
/BoxE { stroke [] 0 setdash exch hpt sub exch vpt add M
  0 vpt2 neg V hpt2 0 V 0 vpt2 V
  hpt2 neg 0 V closepath stroke } def
/TriUE { stroke [] 0 setdash vpt 1.12 mul add M
  hpt neg vpt -1.62 mul V
  hpt 2 mul 0 V
  hpt neg vpt 1.62 mul V closepath stroke } def
/TriDE { stroke [] 0 setdash vpt 1.12 mul sub M
  hpt neg vpt 1.62 mul V
  hpt 2 mul 0 V
  hpt neg vpt -1.62 mul V closepath stroke } def
/PentE { stroke [] 0 setdash gsave
  translate 0 hpt M 4 {72 rotate 0 hpt L} repeat
  closepath stroke grestore } def
/CircE { stroke [] 0 setdash 
  hpt 0 360 arc stroke } def
/Opaque { gsave closepath 1 setgray fill grestore 0 setgray closepath } def
/DiaW { stroke [] 0 setdash vpt add M
  hpt neg vpt neg V hpt vpt neg V
  hpt vpt V hpt neg vpt V Opaque stroke } def
/BoxW { stroke [] 0 setdash exch hpt sub exch vpt add M
  0 vpt2 neg V hpt2 0 V 0 vpt2 V
  hpt2 neg 0 V Opaque stroke } def
/TriUW { stroke [] 0 setdash vpt 1.12 mul add M
  hpt neg vpt -1.62 mul V
  hpt 2 mul 0 V
  hpt neg vpt 1.62 mul V Opaque stroke } def
/TriDW { stroke [] 0 setdash vpt 1.12 mul sub M
  hpt neg vpt 1.62 mul V
  hpt 2 mul 0 V
  hpt neg vpt -1.62 mul V Opaque stroke } def
/PentW { stroke [] 0 setdash gsave
  translate 0 hpt M 4 {72 rotate 0 hpt L} repeat
  Opaque stroke grestore } def
/CircW { stroke [] 0 setdash 
  hpt 0 360 arc Opaque stroke } def
/BoxFill { gsave Rec 1 setgray fill grestore } def
/MFshow {{dup dup 0 get findfont exch 1 get scalefont setfont
     [ currentpoint ] exch dup 2 get 0 exch rmoveto dup dup 5 get exch 4 get
     {show} {stringwidth pop 0 rmoveto}ifelse dup 3 get
     {2 get neg 0 exch rmoveto pop} {pop aload pop moveto}ifelse} forall} bind def
/MFwidth {0 exch {dup 3 get{dup dup 0 get findfont exch 1 get scalefont setfont
      5 get stringwidth pop add}
    {pop} ifelse} forall} bind def
/MLshow { currentpoint stroke M
  0 exch R MFshow } bind def
/MRshow { currentpoint stroke M
  exch dup MFwidth neg 3 -1 roll R MFshow } def
/MCshow { currentpoint stroke M
  exch dup MFwidth -2 div 3 -1 roll R MFshow } def
end
%%EndProlog
%%Page: 1 1
gnudict begin
gsave
50 50 translate
0.100 0.100 scale
90 rotate
0 -5040 translate
0 setgray
newpath
(Helvetica) findfont 140 scalefont setfont
1.000 UL
LTb
546 420 M
63 0 V
6353 0 R
-63 0 V
 stroke
462 420 M
[ [(Helvetica) 140.0 0.0 true true (2)]
] -46.7 MRshow
546 977 M
63 0 V
6353 0 R
-63 0 V
 stroke
462 977 M
[ [(Helvetica) 140.0 0.0 true true (4)]
] -46.7 MRshow
546 1533 M
63 0 V
6353 0 R
-63 0 V
 stroke
462 1533 M
[ [(Helvetica) 140.0 0.0 true true (6)]
] -46.7 MRshow
546 2090 M
63 0 V
6353 0 R
-63 0 V
 stroke
462 2090 M
[ [(Helvetica) 140.0 0.0 true true (8)]
] -46.7 MRshow
546 2646 M
63 0 V
6353 0 R
-63 0 V
 stroke
462 2646 M
[ [(Helvetica) 140.0 0.0 true true (10)]
] -46.7 MRshow
546 3203 M
63 0 V
6353 0 R
-63 0 V
 stroke
462 3203 M
[ [(Helvetica) 140.0 0.0 true true (12)]
] -46.7 MRshow
546 3759 M
63 0 V
6353 0 R
-63 0 V
 stroke
462 3759 M
[ [(Helvetica) 140.0 0.0 true true (14)]
] -46.7 MRshow
546 4316 M
63 0 V
6353 0 R
-63 0 V
 stroke
462 4316 M
[ [(Helvetica) 140.0 0.0 true true (16)]
] -46.7 MRshow
546 4872 M
63 0 V
6353 0 R
-63 0 V
 stroke
462 4872 M
[ [(Helvetica) 140.0 0.0 true true (18)]
] -46.7 MRshow
546 420 M
0 63 V
0 4389 R
0 -63 V
 stroke
546 280 M
[ [(Helvetica) 140.0 0.0 true true (0)]
] -46.7 MCshow
1188 420 M
0 63 V
0 4389 R
0 -63 V
 stroke
1188 280 M
[ [(Helvetica) 140.0 0.0 true true (10)]
] -46.7 MCshow
1829 420 M
0 63 V
0 4389 R
0 -63 V
 stroke
1829 280 M
[ [(Helvetica) 140.0 0.0 true true (20)]
] -46.7 MCshow
2471 420 M
0 63 V
0 4389 R
0 -63 V
 stroke
2471 280 M
[ [(Helvetica) 140.0 0.0 true true (30)]
] -46.7 MCshow
3112 420 M
0 63 V
0 4389 R
0 -63 V
 stroke
3112 280 M
[ [(Helvetica) 140.0 0.0 true true (40)]
] -46.7 MCshow
3754 420 M
0 63 V
0 4389 R
0 -63 V
 stroke
3754 280 M
[ [(Helvetica) 140.0 0.0 true true (50)]
] -46.7 MCshow
4396 420 M
0 63 V
0 4389 R
0 -63 V
 stroke
4396 280 M
[ [(Helvetica) 140.0 0.0 true true (60)]
] -46.7 MCshow
5037 420 M
0 63 V
0 4389 R
0 -63 V
 stroke
5037 280 M
[ [(Helvetica) 140.0 0.0 true true (70)]
] -46.7 MCshow
5679 420 M
0 63 V
0 4389 R
0 -63 V
 stroke
5679 280 M
[ [(Helvetica) 140.0 0.0 true true (80)]
] -46.7 MCshow
6320 420 M
0 63 V
0 4389 R
0 -63 V
 stroke
6320 280 M
[ [(Helvetica) 140.0 0.0 true true (90)]
] -46.7 MCshow
6962 420 M
0 63 V
0 4389 R
0 -63 V
 stroke
6962 280 M
[ [(Helvetica) 140.0 0.0 true true (100)]
] -46.7 MCshow
1.000 UL
LTb
546 420 M
6416 0 V
0 4452 V
-6416 0 V
546 420 L
 stroke
140 2646 M
currentpoint gsave translate 90 rotate 0 0 moveto
[ [(Helvetica) 140.0 0.0 true true (CPU load \(%\))]
] -46.7 MCshow
grestore
3754 70 M
[ [(Helvetica) 140.0 0.0 true true (X \(number of simultaneous HTTP requests\))]
] -46.7 MCshow
1.000 UP
1.000 UL
LT0
6311 4739 M
[ [(Helvetica) 140.0 0.0 true true (NOESP)]
] -46.7 MRshow
867 927 Star
867 890 Star
867 885 Star
867 748 Star
867 765 Star
867 695 Star
867 1153 Star
867 821 Star
867 829 Star
867 675 Star
867 863 Star
867 1446 Star
867 951 Star
867 854 Star
867 764 Star
867 739 Star
867 1164 Star
867 946 Star
867 853 Star
867 855 Star
1188 953 Star
1188 1028 Star
1188 875 Star
1188 739 Star
1188 918 Star
1188 786 Star
1188 726 Star
1188 815 Star
1188 864 Star
1188 909 Star
1188 799 Star
1188 1104 Star
1188 889 Star
1188 606 Star
1188 566 Star
1188 655 Star
1188 700 Star
1188 1266 Star
1188 696 Star
1188 904 Star
1508 1124 Star
1508 982 Star
1508 993 Star
1508 730 Star
1508 1398 Star
1508 863 Star
1508 823 Star
1508 687 Star
1508 869 Star
1508 671 Star
1508 684 Star
1508 1081 Star
1508 726 Star
1508 973 Star
1508 671 Star
1508 985 Star
1508 877 Star
1508 984 Star
1508 822 Star
1508 713 Star
1829 544 Star
1829 723 Star
1829 1000 Star
1829 957 Star
1829 757 Star
1829 679 Star
1829 711 Star
1829 815 Star
1829 1158 Star
1829 948 Star
1829 1072 Star
1829 683 Star
1829 1061 Star
1829 1146 Star
1829 668 Star
1829 1093 Star
1829 712 Star
1829 937 Star
1829 833 Star
1829 879 Star
2150 1287 Star
2150 613 Star
2150 1079 Star
2150 899 Star
2150 1046 Star
2150 823 Star
2150 631 Star
2150 682 Star
2150 874 Star
2150 658 Star
2150 948 Star
2150 978 Star
2150 959 Star
2150 704 Star
2150 944 Star
2150 657 Star
2150 765 Star
2150 683 Star
2150 951 Star
2150 773 Star
2471 774 Star
2471 950 Star
2471 600 Star
2471 989 Star
2471 965 Star
2471 815 Star
2471 872 Star
2471 884 Star
2471 833 Star
2471 708 Star
2471 810 Star
2471 730 Star
2471 853 Star
2471 1193 Star
2471 729 Star
2471 946 Star
2471 878 Star
2471 1038 Star
2471 686 Star
2471 778 Star
2792 1231 Star
2792 1011 Star
2792 932 Star
2792 1000 Star
2792 920 Star
2792 966 Star
2792 742 Star
2792 853 Star
2792 1078 Star
2792 753 Star
2792 903 Star
2792 690 Star
2792 673 Star
2792 780 Star
2792 965 Star
2792 922 Star
2792 1001 Star
2792 813 Star
2792 900 Star
2792 801 Star
3112 911 Star
3112 638 Star
3112 785 Star
3112 1051 Star
3112 1101 Star
3112 779 Star
3112 846 Star
3112 867 Star
3112 908 Star
3112 942 Star
3112 982 Star
3112 891 Star
3112 904 Star
3112 823 Star
3112 1707 Star
3112 780 Star
3112 763 Star
3112 1290 Star
3112 758 Star
3112 983 Star
3433 1004 Star
3433 605 Star
3433 1080 Star
3433 814 Star
3433 712 Star
3433 849 Star
3433 741 Star
3433 679 Star
3433 1150 Star
3433 1075 Star
3433 908 Star
3433 1491 Star
3433 810 Star
3433 731 Star
3433 781 Star
3433 932 Star
3433 809 Star
3433 1243 Star
3433 1113 Star
3433 988 Star
3754 664 Star
3754 597 Star
3754 969 Star
3754 997 Star
3754 838 Star
3754 1026 Star
3754 956 Star
3754 726 Star
3754 764 Star
3754 761 Star
3754 1165 Star
3754 1119 Star
3754 955 Star
3754 823 Star
3754 1050 Star
3754 1263 Star
3754 974 Star
3754 778 Star
3754 1062 Star
3754 968 Star
4075 1038 Star
4075 934 Star
4075 1514 Star
4075 896 Star
4075 1069 Star
4075 1195 Star
4075 865 Star
4075 684 Star
4075 941 Star
4075 961 Star
4075 1031 Star
4075 871 Star
4075 1129 Star
4075 675 Star
4075 1203 Star
4075 1048 Star
4075 912 Star
4075 869 Star
4075 1114 Star
4075 1354 Star
4396 944 Star
4396 847 Star
4396 932 Star
4396 1077 Star
4396 1120 Star
4396 1104 Star
4396 826 Star
4396 1139 Star
4396 1028 Star
4396 1157 Star
4396 1069 Star
4396 799 Star
4396 1147 Star
4396 1129 Star
4396 1259 Star
4396 955 Star
4396 846 Star
4396 812 Star
4396 1004 Star
4396 1036 Star
4716 1334 Star
4716 978 Star
4716 1223 Star
4716 951 Star
4716 938 Star
4716 1300 Star
4716 1394 Star
4716 978 Star
4716 1263 Star
4716 1155 Star
4716 1084 Star
4716 1181 Star
4716 829 Star
4716 1010 Star
4716 1466 Star
4716 1037 Star
4716 843 Star
4716 818 Star
4716 926 Star
4716 1042 Star
5037 1430 Star
5037 1128 Star
5037 1167 Star
5037 1106 Star
5037 858 Star
5037 990 Star
5037 1115 Star
5037 936 Star
5037 1171 Star
5037 1112 Star
5037 1394 Star
5037 1027 Star
5037 1038 Star
5037 1080 Star
5037 1069 Star
5037 1373 Star
5037 1226 Star
5037 953 Star
5037 1884 Star
5037 1051 Star
5358 1091 Star
5358 1307 Star
5358 959 Star
5358 1113 Star
5358 1418 Star
5358 1302 Star
5358 1159 Star
5358 1298 Star
5358 1280 Star
5358 1097 Star
5358 1000 Star
5358 1427 Star
5358 1006 Star
5358 999 Star
5358 1686 Star
5358 1227 Star
5358 1873 Star
5358 1127 Star
5358 1272 Star
5358 1268 Star
5679 1304 Star
5679 1188 Star
5679 1104 Star
5679 1265 Star
5679 1421 Star
5679 1665 Star
5679 964 Star
5679 1345 Star
5679 1191 Star
5679 1353 Star
5679 1465 Star
5679 1262 Star
5679 1645 Star
5679 1169 Star
5679 1097 Star
5679 1431 Star
5679 1392 Star
5679 1285 Star
5679 1270 Star
5679 1379 Star
6000 1191 Star
6000 1330 Star
6000 1217 Star
6000 2245 Star
6000 1847 Star
6000 1576 Star
6000 1602 Star
6000 1263 Star
6000 1127 Star
6000 1768 Star
6000 1261 Star
6000 1010 Star
6000 1549 Star
6000 2080 Star
6000 1222 Star
6000 1589 Star
6000 1299 Star
6000 1198 Star
6000 1285 Star
6000 1763 Star
6320 1673 Star
6320 1470 Star
6320 1677 Star
6320 1431 Star
6320 1747 Star
6320 1418 Star
6320 1942 Star
6320 1282 Star
6320 1359 Star
6320 1297 Star
6320 1549 Star
6320 1754 Star
6320 1566 Star
6320 1299 Star
6320 1535 Star
6320 1619 Star
6320 2156 Star
6320 1980 Star
6320 1415 Star
6320 1382 Star
6641 1555 Star
6641 1463 Star
6641 1785 Star
6641 1350 Star
6641 1534 Star
6641 1462 Star
6641 1808 Star
6641 1389 Star
6641 1332 Star
6641 1574 Star
6641 2138 Star
6641 1535 Star
6641 1726 Star
6641 1479 Star
6641 1666 Star
6641 1602 Star
6641 1568 Star
6641 1781 Star
6641 1780 Star
6641 1746 Star
6962 1684 Star
6962 1534 Star
6962 1659 Star
6962 1367 Star
6962 1579 Star
6962 1798 Star
6962 1557 Star
6962 1826 Star
6962 1807 Star
6962 1629 Star
6962 1991 Star
6962 1784 Star
6962 1644 Star
6962 1749 Star
6962 1493 Star
6962 1474 Star
6962 1421 Star
6962 1835 Star
6962 1838 Star
6962 1293 Star
6594 4739 Star
1.000 UL
LT1
6311 4599 M
[ [(Helvetica) 140.0 0.0 true true (NOESP average)]
] -46.7 MRshow
6395 4599 M
399 0 V
867 891 M
321 -51 V
320 43 V
321 -14 V
321 -21 V
321 4 V
321 45 V
320 38 V
321 -9 V
321 -3 V
321 92 V
321 -4 V
320 76 V
321 68 V
321 90 V
321 65 V
321 161 V
320 107 V
321 36 V
321 34 V
1.000 UP
1.000 UL
LT2
6311 4459 M
[ [(Helvetica) 140.0 0.0 true true (ESP)]
] -46.7 MRshow
867 4052 Circle
867 3921 Circle
867 4005 Circle
867 4029 Circle
867 4031 Circle
867 4079 Circle
867 4180 Circle
867 4078 Circle
867 4157 Circle
867 4460 Circle
867 4507 Circle
867 4387 Circle
867 4123 Circle
867 4131 Circle
867 4016 Circle
867 4236 Circle
867 4269 Circle
867 4064 Circle
867 4141 Circle
867 4146 Circle
1188 3891 Circle
1188 4101 Circle
1188 3730 Circle
1188 4328 Circle
1188 3856 Circle
1188 4227 Circle
1188 3886 Circle
1188 3919 Circle
1188 4277 Circle
1188 4287 Circle
1188 3689 Circle
1188 3673 Circle
1188 4342 Circle
1188 4519 Circle
1188 4417 Circle
1188 3915 Circle
1188 3883 Circle
1188 4106 Circle
1188 3980 Circle
1188 3879 Circle
1508 4000 Circle
1508 4456 Circle
1508 3924 Circle
1508 3598 Circle
1508 3952 Circle
1508 4177 Circle
1508 3850 Circle
1508 3852 Circle
1508 3280 Circle
1508 4045 Circle
1508 3998 Circle
1508 3691 Circle
1508 3918 Circle
1508 4168 Circle
1508 3796 Circle
1508 3997 Circle
1508 4032 Circle
1508 4122 Circle
1508 3658 Circle
1508 4300 Circle
1829 4076 Circle
1829 3911 Circle
1829 3431 Circle
1829 3824 Circle
1829 3598 Circle
1829 3583 Circle
1829 3240 Circle
1829 4046 Circle
1829 4099 Circle
1829 3971 Circle
1829 3567 Circle
1829 3358 Circle
1829 3809 Circle
1829 4025 Circle
1829 3349 Circle
1829 3655 Circle
1829 4073 Circle
1829 3793 Circle
1829 4027 Circle
1829 3808 Circle
2150 3588 Circle
2150 4262 Circle
2150 4097 Circle
2150 3611 Circle
2150 3859 Circle
2150 3721 Circle
2150 3956 Circle
2150 4119 Circle
2150 4244 Circle
2150 3725 Circle
2150 3470 Circle
2150 3598 Circle
2150 3580 Circle
2150 3824 Circle
2150 3832 Circle
2150 3576 Circle
2150 3510 Circle
2150 3869 Circle
2150 4628 Circle
2150 3553 Circle
2471 3554 Circle
2471 3928 Circle
2471 4309 Circle
2471 4021 Circle
2471 3548 Circle
2471 3355 Circle
2471 3428 Circle
2471 3850 Circle
2471 3396 Circle
2471 3888 Circle
2471 3752 Circle
2471 3629 Circle
2471 3811 Circle
2471 3382 Circle
2471 3585 Circle
2471 3551 Circle
2471 3868 Circle
2471 3493 Circle
2471 3384 Circle
2471 3890 Circle
2792 3713 Circle
2792 3766 Circle
2792 3239 Circle
2792 3746 Circle
2792 3532 Circle
2792 3700 Circle
2792 3568 Circle
2792 3614 Circle
2792 3737 Circle
2792 3487 Circle
2792 3623 Circle
2792 3613 Circle
2792 3529 Circle
2792 3574 Circle
2792 3607 Circle
2792 3706 Circle
2792 3698 Circle
2792 3505 Circle
2792 3586 Circle
2792 3862 Circle
3112 3539 Circle
3112 3348 Circle
3112 3619 Circle
3112 3116 Circle
3112 3751 Circle
3112 3259 Circle
3112 3322 Circle
3112 3666 Circle
3112 3678 Circle
3112 3289 Circle
3112 3759 Circle
3112 3792 Circle
3112 3521 Circle
3112 3445 Circle
3112 3379 Circle
3112 3674 Circle
3112 3320 Circle
3112 3427 Circle
3112 3763 Circle
3112 3640 Circle
3433 3482 Circle
3433 3585 Circle
3433 3473 Circle
3433 4126 Circle
3433 3436 Circle
3433 3239 Circle
3433 3541 Circle
3433 3176 Circle
3433 3304 Circle
3433 3793 Circle
3433 3145 Circle
3433 3796 Circle
3433 3412 Circle
3433 3357 Circle
3433 3212 Circle
3433 3447 Circle
3433 3450 Circle
3433 3561 Circle
3433 3647 Circle
3433 3354 Circle
3754 3230 Circle
3754 3466 Circle
3754 3474 Circle
3754 3465 Circle
3754 3316 Circle
3754 3445 Circle
3754 3718 Circle
3754 3294 Circle
3754 3331 Circle
3754 3560 Circle
3754 3740 Circle
3754 3193 Circle
3754 3428 Circle
3754 3298 Circle
3754 3510 Circle
3754 3251 Circle
3754 3013 Circle
3754 3150 Circle
3754 3283 Circle
3754 3349 Circle
4075 3530 Circle
4075 3223 Circle
4075 3384 Circle
4075 3289 Circle
4075 3341 Circle
4075 2855 Circle
4075 3322 Circle
4075 3916 Circle
4075 3342 Circle
4075 3321 Circle
4075 3457 Circle
4075 3682 Circle
4075 3180 Circle
4075 3073 Circle
4075 3305 Circle
4075 3435 Circle
4075 3388 Circle
4075 3075 Circle
4075 3408 Circle
4075 3989 Circle
4396 3127 Circle
4396 3624 Circle
4396 2764 Circle
4396 3395 Circle
4396 3058 Circle
4396 3531 Circle
4396 3372 Circle
4396 2898 Circle
4396 3238 Circle
4396 3326 Circle
4396 3174 Circle
4396 3225 Circle
4396 3097 Circle
4396 3072 Circle
4396 3337 Circle
4396 3126 Circle
4396 3537 Circle
4396 3145 Circle
4396 3113 Circle
4396 3709 Circle
4716 3332 Circle
4716 3139 Circle
4716 3290 Circle
4716 3804 Circle
4716 3509 Circle
4716 3042 Circle
4716 3195 Circle
4716 3378 Circle
4716 3269 Circle
4716 3450 Circle
4716 2983 Circle
4716 3198 Circle
4716 3318 Circle
4716 3455 Circle
4716 3224 Circle
4716 2936 Circle
4716 2852 Circle
4716 2945 Circle
4716 3187 Circle
4716 3427 Circle
5037 3085 Circle
5037 3094 Circle
5037 3033 Circle
5037 3346 Circle
5037 2964 Circle
5037 3029 Circle
5037 3078 Circle
5037 2627 Circle
5037 3586 Circle
5037 3379 Circle
5037 2723 Circle
5037 3092 Circle
5037 2839 Circle
5037 3383 Circle
5037 3244 Circle
5037 3120 Circle
5037 3383 Circle
5037 3372 Circle
5037 3277 Circle
5037 3272 Circle
5358 2730 Circle
5358 2816 Circle
5358 2878 Circle
5358 2782 Circle
5358 2981 Circle
5358 3000 Circle
5358 2970 Circle
5358 3355 Circle
5358 3703 Circle
5358 3039 Circle
5358 2978 Circle
5358 2729 Circle
5358 3341 Circle
5358 3511 Circle
5358 3000 Circle
5358 2933 Circle
5358 3032 Circle
5358 3103 Circle
5358 3288 Circle
5358 3286 Circle
5679 2893 Circle
5679 2691 Circle
5679 3261 Circle
5679 3310 Circle
5679 3257 Circle
5679 3034 Circle
5679 3629 Circle
5679 3354 Circle
5679 3031 Circle
5679 2925 Circle
5679 2863 Circle
5679 3278 Circle
5679 3279 Circle
5679 3045 Circle
5679 3020 Circle
5679 2937 Circle
5679 3098 Circle
5679 3275 Circle
5679 3069 Circle
5679 2715 Circle
6000 3483 Circle
6000 3204 Circle
6000 2807 Circle
6000 3171 Circle
6000 3077 Circle
6000 3104 Circle
6000 2843 Circle
6000 3077 Circle
6000 2788 Circle
6000 3124 Circle
6000 3096 Circle
6000 2731 Circle
6000 2556 Circle
6000 2795 Circle
6000 3027 Circle
6000 3169 Circle
6000 3012 Circle
6000 3449 Circle
6000 3218 Circle
6000 3206 Circle
6320 3106 Circle
6320 2648 Circle
6320 3177 Circle
6320 3075 Circle
6320 3168 Circle
6320 2840 Circle
6320 3133 Circle
6320 3013 Circle
6320 2906 Circle
6320 2999 Circle
6320 3434 Circle
6320 3058 Circle
6320 2790 Circle
6320 3138 Circle
6320 2387 Circle
6320 2704 Circle
6320 2964 Circle
6320 3180 Circle
6320 3088 Circle
6320 2669 Circle
6641 2912 Circle
6641 2767 Circle
6641 2800 Circle
6641 2887 Circle
6641 3170 Circle
6641 2921 Circle
6641 2680 Circle
6641 3028 Circle
6641 2928 Circle
6641 2702 Circle
6641 2974 Circle
6641 2840 Circle
6641 2652 Circle
6641 2859 Circle
6641 3321 Circle
6641 3025 Circle
6641 3160 Circle
6641 2965 Circle
6641 3205 Circle
6641 2820 Circle
6962 2804 Circle
6962 3021 Circle
6962 3169 Circle
6962 2580 Circle
6962 3029 Circle
6962 2718 Circle
6962 2676 Circle
6962 3044 Circle
6962 3105 Circle
6962 2812 Circle
6962 2886 Circle
6962 2646 Circle
6962 2856 Circle
6962 2268 Circle
6962 3005 Circle
6962 2482 Circle
6962 2650 Circle
6962 2839 Circle
6962 2860 Circle
6962 2812 Circle
6594 4459 Circle
1.000 UL
LT3
6311 4319 M
[ [(Helvetica) 140.0 0.0 true true (ESP average)]
] -46.7 MRshow
6395 4319 M
399 0 V
867 4151 M
321 -106 V
320 -104 V
321 -179 V
321 69 V
321 -150 V
321 -61 V
320 -105 V
321 -38 V
321 -101 V
321 0 V
321 -133 V
320 4 V
321 -101 V
321 -73 V
321 25 V
321 -51 V
320 -73 V
321 -43 V
321 -118 V
stroke
grestore
end
showpage
%%Trailer
%%DocumentFonts: Helvetica
%%Pages: 1
