%!PS-Adobe-2.0
%%Title: krsul_counts_esp-detexp.ps
%%Creator: gnuplot 3.7 patchlevel 0
%%CreationDate: Mon Jul  2 03:45:43 2001
%%DocumentFonts: (atend)
%%BoundingBox: 50 50 554 770
%%Orientation: Landscape
%%Pages: (atend)
%%EndComments
/gnudict 256 dict def
gnudict begin
/Color false def
/Solid false def
/gnulinewidth 5.000 def
/userlinewidth gnulinewidth def
/vshift -46 def
/dl {10 mul} def
/hpt_ 31.5 def
/vpt_ 31.5 def
/hpt hpt_ def
/vpt vpt_ def
/M {moveto} bind def
/L {lineto} bind def
/R {rmoveto} bind def
/V {rlineto} bind def
/vpt2 vpt 2 mul def
/hpt2 hpt 2 mul def
/Lshow { currentpoint stroke M
  0 vshift R show } def
/Rshow { currentpoint stroke M
  dup stringwidth pop neg vshift R show } def
/Cshow { currentpoint stroke M
  dup stringwidth pop -2 div vshift R show } def
/UP { dup vpt_ mul /vpt exch def hpt_ mul /hpt exch def
  /hpt2 hpt 2 mul def /vpt2 vpt 2 mul def } def
/DL { Color {setrgbcolor Solid {pop []} if 0 setdash }
 {pop pop pop Solid {pop []} if 0 setdash} ifelse } def
/BL { stroke gnulinewidth 2 mul setlinewidth } def
/AL { stroke gnulinewidth 2 div setlinewidth } def
/UL { gnulinewidth mul /userlinewidth exch def } def
/PL { stroke userlinewidth setlinewidth } def
/LTb { BL [] 0 0 0 DL } def
/LTa { AL [1 dl 2 dl] 0 setdash 0 0 0 setrgbcolor } def
/LT0 { PL [] 1 0 0 DL } def
/LT1 { PL [4 dl 2 dl] 0 1 0 DL } def
/LT2 { PL [2 dl 3 dl] 0 0 1 DL } def
/LT3 { PL [1 dl 1.5 dl] 1 0 1 DL } def
/LT4 { PL [5 dl 2 dl 1 dl 2 dl] 0 1 1 DL } def
/LT5 { PL [4 dl 3 dl 1 dl 3 dl] 1 1 0 DL } def
/LT6 { PL [2 dl 2 dl 2 dl 4 dl] 0 0 0 DL } def
/LT7 { PL [2 dl 2 dl 2 dl 2 dl 2 dl 4 dl] 1 0.3 0 DL } def
/LT8 { PL [2 dl 2 dl 2 dl 2 dl 2 dl 2 dl 2 dl 4 dl] 0.5 0.5 0.5 DL } def
/Pnt { stroke [] 0 setdash
   gsave 1 setlinecap M 0 0 V stroke grestore } def
/Dia { stroke [] 0 setdash 2 copy vpt add M
  hpt neg vpt neg V hpt vpt neg V
  hpt vpt V hpt neg vpt V closepath stroke
  Pnt } def
/Pls { stroke [] 0 setdash vpt sub M 0 vpt2 V
  currentpoint stroke M
  hpt neg vpt neg R hpt2 0 V stroke
  } def
/Box { stroke [] 0 setdash 2 copy exch hpt sub exch vpt add M
  0 vpt2 neg V hpt2 0 V 0 vpt2 V
  hpt2 neg 0 V closepath stroke
  Pnt } def
/Crs { stroke [] 0 setdash exch hpt sub exch vpt add M
  hpt2 vpt2 neg V currentpoint stroke M
  hpt2 neg 0 R hpt2 vpt2 V stroke } def
/TriU { stroke [] 0 setdash 2 copy vpt 1.12 mul add M
  hpt neg vpt -1.62 mul V
  hpt 2 mul 0 V
  hpt neg vpt 1.62 mul V closepath stroke
  Pnt  } def
/Star { 2 copy Pls Crs } def
/BoxF { stroke [] 0 setdash exch hpt sub exch vpt add M
  0 vpt2 neg V  hpt2 0 V  0 vpt2 V
  hpt2 neg 0 V  closepath fill } def
/TriUF { stroke [] 0 setdash vpt 1.12 mul add M
  hpt neg vpt -1.62 mul V
  hpt 2 mul 0 V
  hpt neg vpt 1.62 mul V closepath fill } def
/TriD { stroke [] 0 setdash 2 copy vpt 1.12 mul sub M
  hpt neg vpt 1.62 mul V
  hpt 2 mul 0 V
  hpt neg vpt -1.62 mul V closepath stroke
  Pnt  } def
/TriDF { stroke [] 0 setdash vpt 1.12 mul sub M
  hpt neg vpt 1.62 mul V
  hpt 2 mul 0 V
  hpt neg vpt -1.62 mul V closepath fill} def
/DiaF { stroke [] 0 setdash vpt add M
  hpt neg vpt neg V hpt vpt neg V
  hpt vpt V hpt neg vpt V closepath fill } def
/Pent { stroke [] 0 setdash 2 copy gsave
  translate 0 hpt M 4 {72 rotate 0 hpt L} repeat
  closepath stroke grestore Pnt } def
/PentF { stroke [] 0 setdash gsave
  translate 0 hpt M 4 {72 rotate 0 hpt L} repeat
  closepath fill grestore } def
/Circle { stroke [] 0 setdash 2 copy
  hpt 0 360 arc stroke Pnt } def
/CircleF { stroke [] 0 setdash hpt 0 360 arc fill } def
/C0 { BL [] 0 setdash 2 copy moveto vpt 90 450  arc } bind def
/C1 { BL [] 0 setdash 2 copy        moveto
       2 copy  vpt 0 90 arc closepath fill
               vpt 0 360 arc closepath } bind def
/C2 { BL [] 0 setdash 2 copy moveto
       2 copy  vpt 90 180 arc closepath fill
               vpt 0 360 arc closepath } bind def
/C3 { BL [] 0 setdash 2 copy moveto
       2 copy  vpt 0 180 arc closepath fill
               vpt 0 360 arc closepath } bind def
/C4 { BL [] 0 setdash 2 copy moveto
       2 copy  vpt 180 270 arc closepath fill
               vpt 0 360 arc closepath } bind def
/C5 { BL [] 0 setdash 2 copy moveto
       2 copy  vpt 0 90 arc
       2 copy moveto
       2 copy  vpt 180 270 arc closepath fill
               vpt 0 360 arc } bind def
/C6 { BL [] 0 setdash 2 copy moveto
      2 copy  vpt 90 270 arc closepath fill
              vpt 0 360 arc closepath } bind def
/C7 { BL [] 0 setdash 2 copy moveto
      2 copy  vpt 0 270 arc closepath fill
              vpt 0 360 arc closepath } bind def
/C8 { BL [] 0 setdash 2 copy moveto
      2 copy vpt 270 360 arc closepath fill
              vpt 0 360 arc closepath } bind def
/C9 { BL [] 0 setdash 2 copy moveto
      2 copy  vpt 270 450 arc closepath fill
              vpt 0 360 arc closepath } bind def
/C10 { BL [] 0 setdash 2 copy 2 copy moveto vpt 270 360 arc closepath fill
       2 copy moveto
       2 copy vpt 90 180 arc closepath fill
               vpt 0 360 arc closepath } bind def
/C11 { BL [] 0 setdash 2 copy moveto
       2 copy  vpt 0 180 arc closepath fill
       2 copy moveto
       2 copy  vpt 270 360 arc closepath fill
               vpt 0 360 arc closepath } bind def
/C12 { BL [] 0 setdash 2 copy moveto
       2 copy  vpt 180 360 arc closepath fill
               vpt 0 360 arc closepath } bind def
/C13 { BL [] 0 setdash  2 copy moveto
       2 copy  vpt 0 90 arc closepath fill
       2 copy moveto
       2 copy  vpt 180 360 arc closepath fill
               vpt 0 360 arc closepath } bind def
/C14 { BL [] 0 setdash 2 copy moveto
       2 copy  vpt 90 360 arc closepath fill
               vpt 0 360 arc } bind def
/C15 { BL [] 0 setdash 2 copy vpt 0 360 arc closepath fill
               vpt 0 360 arc closepath } bind def
/Rec   { newpath 4 2 roll moveto 1 index 0 rlineto 0 exch rlineto
       neg 0 rlineto closepath } bind def
/Square { dup Rec } bind def
/Bsquare { vpt sub exch vpt sub exch vpt2 Square } bind def
/S0 { BL [] 0 setdash 2 copy moveto 0 vpt rlineto BL Bsquare } bind def
/S1 { BL [] 0 setdash 2 copy vpt Square fill Bsquare } bind def
/S2 { BL [] 0 setdash 2 copy exch vpt sub exch vpt Square fill Bsquare } bind def
/S3 { BL [] 0 setdash 2 copy exch vpt sub exch vpt2 vpt Rec fill Bsquare } bind def
/S4 { BL [] 0 setdash 2 copy exch vpt sub exch vpt sub vpt Square fill Bsquare } bind def
/S5 { BL [] 0 setdash 2 copy 2 copy vpt Square fill
       exch vpt sub exch vpt sub vpt Square fill Bsquare } bind def
/S6 { BL [] 0 setdash 2 copy exch vpt sub exch vpt sub vpt vpt2 Rec fill Bsquare } bind def
/S7 { BL [] 0 setdash 2 copy exch vpt sub exch vpt sub vpt vpt2 Rec fill
       2 copy vpt Square fill
       Bsquare } bind def
/S8 { BL [] 0 setdash 2 copy vpt sub vpt Square fill Bsquare } bind def
/S9 { BL [] 0 setdash 2 copy vpt sub vpt vpt2 Rec fill Bsquare } bind def
/S10 { BL [] 0 setdash 2 copy vpt sub vpt Square fill 2 copy exch vpt sub exch vpt Square fill
       Bsquare } bind def
/S11 { BL [] 0 setdash 2 copy vpt sub vpt Square fill 2 copy exch vpt sub exch vpt2 vpt Rec fill
       Bsquare } bind def
/S12 { BL [] 0 setdash 2 copy exch vpt sub exch vpt sub vpt2 vpt Rec fill Bsquare } bind def
/S13 { BL [] 0 setdash 2 copy exch vpt sub exch vpt sub vpt2 vpt Rec fill
       2 copy vpt Square fill Bsquare } bind def
/S14 { BL [] 0 setdash 2 copy exch vpt sub exch vpt sub vpt2 vpt Rec fill
       2 copy exch vpt sub exch vpt Square fill Bsquare } bind def
/S15 { BL [] 0 setdash 2 copy Bsquare fill Bsquare } bind def
/D0 { gsave translate 45 rotate 0 0 S0 stroke grestore } bind def
/D1 { gsave translate 45 rotate 0 0 S1 stroke grestore } bind def
/D2 { gsave translate 45 rotate 0 0 S2 stroke grestore } bind def
/D3 { gsave translate 45 rotate 0 0 S3 stroke grestore } bind def
/D4 { gsave translate 45 rotate 0 0 S4 stroke grestore } bind def
/D5 { gsave translate 45 rotate 0 0 S5 stroke grestore } bind def
/D6 { gsave translate 45 rotate 0 0 S6 stroke grestore } bind def
/D7 { gsave translate 45 rotate 0 0 S7 stroke grestore } bind def
/D8 { gsave translate 45 rotate 0 0 S8 stroke grestore } bind def
/D9 { gsave translate 45 rotate 0 0 S9 stroke grestore } bind def
/D10 { gsave translate 45 rotate 0 0 S10 stroke grestore } bind def
/D11 { gsave translate 45 rotate 0 0 S11 stroke grestore } bind def
/D12 { gsave translate 45 rotate 0 0 S12 stroke grestore } bind def
/D13 { gsave translate 45 rotate 0 0 S13 stroke grestore } bind def
/D14 { gsave translate 45 rotate 0 0 S14 stroke grestore } bind def
/D15 { gsave translate 45 rotate 0 0 S15 stroke grestore } bind def
/DiaE { stroke [] 0 setdash vpt add M
  hpt neg vpt neg V hpt vpt neg V
  hpt vpt V hpt neg vpt V closepath stroke } def
/BoxE { stroke [] 0 setdash exch hpt sub exch vpt add M
  0 vpt2 neg V hpt2 0 V 0 vpt2 V
  hpt2 neg 0 V closepath stroke } def
/TriUE { stroke [] 0 setdash vpt 1.12 mul add M
  hpt neg vpt -1.62 mul V
  hpt 2 mul 0 V
  hpt neg vpt 1.62 mul V closepath stroke } def
/TriDE { stroke [] 0 setdash vpt 1.12 mul sub M
  hpt neg vpt 1.62 mul V
  hpt 2 mul 0 V
  hpt neg vpt -1.62 mul V closepath stroke } def
/PentE { stroke [] 0 setdash gsave
  translate 0 hpt M 4 {72 rotate 0 hpt L} repeat
  closepath stroke grestore } def
/CircE { stroke [] 0 setdash 
  hpt 0 360 arc stroke } def
/Opaque { gsave closepath 1 setgray fill grestore 0 setgray closepath } def
/DiaW { stroke [] 0 setdash vpt add M
  hpt neg vpt neg V hpt vpt neg V
  hpt vpt V hpt neg vpt V Opaque stroke } def
/BoxW { stroke [] 0 setdash exch hpt sub exch vpt add M
  0 vpt2 neg V hpt2 0 V 0 vpt2 V
  hpt2 neg 0 V Opaque stroke } def
/TriUW { stroke [] 0 setdash vpt 1.12 mul add M
  hpt neg vpt -1.62 mul V
  hpt 2 mul 0 V
  hpt neg vpt 1.62 mul V Opaque stroke } def
/TriDW { stroke [] 0 setdash vpt 1.12 mul sub M
  hpt neg vpt 1.62 mul V
  hpt 2 mul 0 V
  hpt neg vpt -1.62 mul V Opaque stroke } def
/PentW { stroke [] 0 setdash gsave
  translate 0 hpt M 4 {72 rotate 0 hpt L} repeat
  Opaque stroke grestore } def
/CircW { stroke [] 0 setdash 
  hpt 0 360 arc Opaque stroke } def
/BoxFill { gsave Rec 1 setgray fill grestore } def
/MFshow {{dup dup 0 get findfont exch 1 get scalefont setfont
     [ currentpoint ] exch dup 2 get 0 exch rmoveto dup dup 5 get exch 4 get
     {show} {stringwidth pop 0 rmoveto}ifelse dup 3 get
     {2 get neg 0 exch rmoveto pop} {pop aload pop moveto}ifelse} forall} bind def
/MFwidth {0 exch {dup 3 get{dup dup 0 get findfont exch 1 get scalefont setfont
      5 get stringwidth pop add}
    {pop} ifelse} forall} bind def
/MLshow { currentpoint stroke M
  0 exch R MFshow } bind def
/MRshow { currentpoint stroke M
  exch dup MFwidth neg 3 -1 roll R MFshow } def
/MCshow { currentpoint stroke M
  exch dup MFwidth -2 div 3 -1 roll R MFshow } def
end
%%EndProlog
%%Page: 1 1
gnudict begin
gsave
50 50 translate
0.100 0.100 scale
90 rotate
0 -5040 translate
0 setgray
newpath
(Helvetica) findfont 140 scalefont setfont
1.000 UL
LTb
546 632 M
63 0 V
6353 0 R
-63 0 V
 stroke
462 632 M
[ [(Helvetica) 140.0 0.0 true true (0)]
] -46.7 MRshow
546 1056 M
63 0 V
6353 0 R
-63 0 V
 stroke
462 1056 M
[ [(Helvetica) 140.0 0.0 true true (2)]
] -46.7 MRshow
546 1480 M
63 0 V
6353 0 R
-63 0 V
 stroke
462 1480 M
[ [(Helvetica) 140.0 0.0 true true (4)]
] -46.7 MRshow
546 1904 M
63 0 V
6353 0 R
-63 0 V
 stroke
462 1904 M
[ [(Helvetica) 140.0 0.0 true true (6)]
] -46.7 MRshow
546 2328 M
63 0 V
6353 0 R
-63 0 V
 stroke
462 2328 M
[ [(Helvetica) 140.0 0.0 true true (8)]
] -46.7 MRshow
546 2752 M
63 0 V
6353 0 R
-63 0 V
 stroke
462 2752 M
[ [(Helvetica) 140.0 0.0 true true (10)]
] -46.7 MRshow
546 3176 M
63 0 V
6353 0 R
-63 0 V
 stroke
462 3176 M
[ [(Helvetica) 140.0 0.0 true true (12)]
] -46.7 MRshow
546 3600 M
63 0 V
6353 0 R
-63 0 V
 stroke
462 3600 M
[ [(Helvetica) 140.0 0.0 true true (14)]
] -46.7 MRshow
546 4024 M
63 0 V
6353 0 R
-63 0 V
 stroke
462 4024 M
[ [(Helvetica) 140.0 0.0 true true (16)]
] -46.7 MRshow
546 4448 M
63 0 V
6353 0 R
-63 0 V
 stroke
462 4448 M
[ [(Helvetica) 140.0 0.0 true true (18)]
] -46.7 MRshow
546 4872 M
63 0 V
6353 0 R
-63 0 V
 stroke
462 4872 M
[ [(Helvetica) 140.0 0.0 true true (20)]
] -46.7 MRshow
923 420 M
0 63 V
0 4389 R
0 -63 V
 stroke
923 280 M
[ [(Helvetica) 140.0 0.0 true true (0)]
] -46.7 MCshow
1678 420 M
0 63 V
0 4389 R
0 -63 V
 stroke
1678 280 M
[ [(Helvetica) 140.0 0.0 true true (2)]
] -46.7 MCshow
2433 420 M
0 63 V
0 4389 R
0 -63 V
 stroke
2433 280 M
[ [(Helvetica) 140.0 0.0 true true (4)]
] -46.7 MCshow
3188 420 M
0 63 V
0 4389 R
0 -63 V
 stroke
3188 280 M
[ [(Helvetica) 140.0 0.0 true true (6)]
] -46.7 MCshow
3943 420 M
0 63 V
0 4389 R
0 -63 V
 stroke
3943 280 M
[ [(Helvetica) 140.0 0.0 true true (8)]
] -46.7 MCshow
4698 420 M
0 63 V
0 4389 R
0 -63 V
 stroke
4698 280 M
[ [(Helvetica) 140.0 0.0 true true (10)]
] -46.7 MCshow
5452 420 M
0 63 V
0 4389 R
0 -63 V
 stroke
5452 280 M
[ [(Helvetica) 140.0 0.0 true true (12)]
] -46.7 MCshow
6207 420 M
0 63 V
0 4389 R
0 -63 V
 stroke
6207 280 M
[ [(Helvetica) 140.0 0.0 true true (14)]
] -46.7 MCshow
6962 420 M
0 63 V
0 4389 R
0 -63 V
 stroke
6962 280 M
[ [(Helvetica) 140.0 0.0 true true (16)]
] -46.7 MCshow
1.000 UL
LTb
546 420 M
6416 0 V
0 4452 V
-6416 0 V
546 420 L
 stroke
140 2646 M
currentpoint gsave translate 90 rotate 0 0 moveto
[ [(Helvetica) 140.0 0.0 true true (Percentage in the set of applicable attacks of the detection test \(%\))]
] -46.7 MCshow
grestore
3754 70 M
[ [(Helvetica) 140.0 0.0 true true (Percentage in the original ESP detectors \(%\))]
] -46.7 MCshow
3474 1003 M
[ [(Times) 80.0 0.0 true true (1)]
] -26.7 MCshow
1688 1003 M
[ [(Times) 80.0 0.0 true true (2-10-2-1)]
] -26.7 MCshow
1688 738 M
[ [(Times) 80.0 0.0 true true (2-10-2-4)]
] -26.7 MCshow
923 2063 M
[ [(Times) 80.0 0.0 true true (2-11-1-1)]
] -26.7 MCshow
1944 738 M
[ [(Times) 80.0 0.0 true true (2-12-1-2)]
] -26.7 MCshow
3728 4448 M
[ [(Times) 80.0 0.0 true true (2-12-2-1)]
] -26.7 MCshow
3728 3918 M
[ [(Times) 80.0 0.0 true true (2-12-2-2)]
] -26.7 MCshow
6279 3653 M
[ [(Times) 80.0 0.0 true true (2-2-1-1)]
] -26.7 MCshow
2709 2063 M
[ [(Times) 80.0 0.0 true true (2-2-1-3)]
] -26.7 MCshow
1944 1268 M
[ [(Times) 80.0 0.0 true true (2-2-1-4)]
] -26.7 MCshow
2963 1533 M
[ [(Times) 80.0 0.0 true true (2-3-2-1)]
] -26.7 MCshow
923 1533 M
[ [(Times) 80.0 0.0 true true (2-4-1-1)]
] -26.7 MCshow
4239 2063 M
[ [(Times) 80.0 0.0 true true (2-5-1-1)]
] -26.7 MCshow
2709 738 M
[ [(Times) 80.0 0.0 true true (2-6-1-1)]
] -26.7 MCshow
1179 1003 M
[ [(Times) 80.0 0.0 true true (2-7-1-4)]
] -26.7 MCshow
2453 738 M
[ [(Times) 80.0 0.0 true true (2-7-1-5)]
] -26.7 MCshow
3474 4713 M
[ [(Times) 80.0 0.0 true true (3)]
] -26.7 MCshow
3728 738 M
[ [(Times) 80.0 0.0 true true (4)]
] -26.7 MCshow
1.000 UP
1.000 UL
LT0
3474 897 Pls
923 897 Pls
1179 632 Pls
1179 632 Pls
1688 897 Pls
1433 632 Pls
1179 632 Pls
1688 632 Pls
1179 632 Pls
923 1957 Pls
923 897 Pls
1433 632 Pls
1944 632 Pls
3728 4342 Pls
3728 3812 Pls
6279 3547 Pls
1433 632 Pls
2709 1957 Pls
1944 1162 Pls
2963 1427 Pls
1179 632 Pls
923 1427 Pls
1179 632 Pls
1179 632 Pls
4239 1957 Pls
2709 632 Pls
1179 632 Pls
1179 897 Pls
2453 632 Pls
1179 632 Pls
1179 632 Pls
1179 632 Pls
923 897 Pls
923 897 Pls
1179 632 Pls
3474 4607 Pls
3728 632 Pls
1.000 UL
LTa
6311 4739 M
[ [(Helvetica) 140.0 0.0 true true (Identity)]
] -46.7 MRshow
6395 4739 M
399 0 V
546 420 M
58 33 V
58 32 V
58 33 V
58 32 V
58 33 V
57 32 V
58 33 V
58 32 V
58 33 V
58 32 V
58 33 V
58 32 V
58 33 V
58 32 V
58 33 V
57 32 V
58 33 V
58 32 V
58 33 V
58 33 V
58 32 V
58 33 V
58 32 V
58 33 V
58 32 V
58 33 V
57 32 V
58 33 V
58 32 V
58 33 V
58 32 V
58 33 V
58 32 V
58 33 V
58 32 V
58 33 V
57 32 V
58 33 V
58 33 V
58 32 V
58 33 V
58 32 V
58 33 V
58 32 V
58 33 V
58 32 V
57 33 V
58 32 V
58 33 V
58 32 V
58 33 V
58 32 V
58 33 V
58 32 V
58 33 V
58 32 V
58 33 V
57 33 V
58 32 V
58 33 V
58 32 V
58 33 V
58 32 V
58 33 V
58 32 V
58 33 V
58 32 V
57 33 V
58 32 V
58 33 V
58 32 V
58 33 V
58 32 V
58 33 V
58 32 V
58 33 V
58 32 V
58 33 V
57 33 V
58 32 V
58 33 V
58 32 V
58 33 V
58 32 V
58 33 V
58 32 V
58 33 V
58 32 V
57 33 V
58 32 V
58 33 V
58 32 V
58 33 V
58 32 V
58 33 V
58 32 V
58 33 V
58 33 V
58 32 V
1.000 UL
LT0
6311 4599 M
[ [(Helvetica) 140.0 0.0 true true (Linear regression)]
] -46.7 MRshow
6395 4599 M
399 0 V
589 420 M
15 9 V
58 34 V
58 34 V
58 34 V
58 34 V
57 35 V
58 34 V
58 34 V
58 34 V
58 34 V
58 34 V
58 35 V
58 34 V
58 34 V
58 34 V
57 34 V
58 34 V
58 35 V
58 34 V
58 34 V
58 34 V
58 34 V
58 35 V
58 34 V
58 34 V
58 34 V
57 34 V
58 34 V
58 35 V
58 34 V
58 34 V
58 34 V
58 34 V
58 34 V
58 35 V
58 34 V
57 34 V
58 34 V
58 34 V
58 34 V
58 35 V
58 34 V
58 34 V
58 34 V
58 34 V
58 35 V
57 34 V
58 34 V
58 34 V
58 34 V
58 34 V
58 35 V
58 34 V
58 34 V
58 34 V
58 34 V
58 34 V
57 35 V
58 34 V
58 34 V
58 34 V
58 34 V
58 34 V
58 35 V
58 34 V
58 34 V
58 34 V
57 34 V
58 35 V
58 34 V
58 34 V
58 34 V
58 34 V
58 34 V
58 35 V
58 34 V
58 34 V
58 34 V
57 34 V
58 34 V
58 35 V
58 34 V
58 34 V
58 34 V
58 34 V
58 34 V
58 35 V
58 34 V
57 34 V
58 34 V
58 34 V
58 35 V
58 34 V
58 34 V
58 34 V
58 34 V
58 34 V
58 35 V
58 34 V
stroke
grestore
end
showpage
%%Trailer
%%DocumentFonts: Times Helvetica
%%Pages: 1
