%!PS-Adobe-2.0 EPSF-2.0
%%Title: many-to-one.eps
%%Creator: fig2dev Version 3.2.3 Patchlevel 
%%CreationDate: Mon Jun 25 20:44:44 2001
%%For: zamboni@basm (Diego Zamboni)
%%BoundingBox: 0 0 230 92
%%Magnification: 1.0000
%%EndComments
/$F2psDict 200 dict def
$F2psDict begin
$F2psDict /mtrx matrix put
/col-1 {0 setgray} bind def
/col0 {0.000 0.000 0.000 srgb} bind def
/col1 {0.000 0.000 1.000 srgb} bind def
/col2 {0.000 1.000 0.000 srgb} bind def
/col3 {0.000 1.000 1.000 srgb} bind def
/col4 {1.000 0.000 0.000 srgb} bind def
/col5 {1.000 0.000 1.000 srgb} bind def
/col6 {1.000 1.000 0.000 srgb} bind def
/col7 {1.000 1.000 1.000 srgb} bind def
/col8 {0.000 0.000 0.560 srgb} bind def
/col9 {0.000 0.000 0.690 srgb} bind def
/col10 {0.000 0.000 0.820 srgb} bind def
/col11 {0.530 0.810 1.000 srgb} bind def
/col12 {0.000 0.560 0.000 srgb} bind def
/col13 {0.000 0.690 0.000 srgb} bind def
/col14 {0.000 0.820 0.000 srgb} bind def
/col15 {0.000 0.560 0.560 srgb} bind def
/col16 {0.000 0.690 0.690 srgb} bind def
/col17 {0.000 0.820 0.820 srgb} bind def
/col18 {0.560 0.000 0.000 srgb} bind def
/col19 {0.690 0.000 0.000 srgb} bind def
/col20 {0.820 0.000 0.000 srgb} bind def
/col21 {0.560 0.000 0.560 srgb} bind def
/col22 {0.690 0.000 0.690 srgb} bind def
/col23 {0.820 0.000 0.820 srgb} bind def
/col24 {0.500 0.190 0.000 srgb} bind def
/col25 {0.630 0.250 0.000 srgb} bind def
/col26 {0.750 0.380 0.000 srgb} bind def
/col27 {1.000 0.500 0.500 srgb} bind def
/col28 {1.000 0.630 0.630 srgb} bind def
/col29 {1.000 0.750 0.750 srgb} bind def
/col30 {1.000 0.880 0.880 srgb} bind def
/col31 {1.000 0.840 0.000 srgb} bind def

end
save
newpath 0 92 moveto 0 0 lineto 230 0 lineto 230 92 lineto closepath clip newpath
-71.0 181.0 translate
1 -1 scale

/cp {closepath} bind def
/ef {eofill} bind def
/gr {grestore} bind def
/gs {gsave} bind def
/sa {save} bind def
/rs {restore} bind def
/l {lineto} bind def
/m {moveto} bind def
/rm {rmoveto} bind def
/n {newpath} bind def
/s {stroke} bind def
/sh {show} bind def
/slc {setlinecap} bind def
/slj {setlinejoin} bind def
/slw {setlinewidth} bind def
/srgb {setrgbcolor} bind def
/rot {rotate} bind def
/sc {scale} bind def
/sd {setdash} bind def
/ff {findfont} bind def
/sf {setfont} bind def
/scf {scalefont} bind def
/sw {stringwidth} bind def
/tr {translate} bind def
/tnt {dup dup currentrgbcolor
  4 -2 roll dup 1 exch sub 3 -1 roll mul add
  4 -2 roll dup 1 exch sub 3 -1 roll mul add
  4 -2 roll dup 1 exch sub 3 -1 roll mul add srgb}
  bind def
/shd {dup dup currentrgbcolor 4 -2 roll mul 4 -2 roll mul
  4 -2 roll mul srgb} bind def
/$F2psBegin {$F2psDict begin /$F2psEnteredState save def} def
/$F2psEnd {$F2psEnteredState restore end} def

$F2psBegin
%%Page: 1 1
10 setmiterlimit
 0.06000 0.06000 sc
% Polyline
7.500 slw
n 1260 1500 m 1200 1500 1200 1890 60 arcto 4 {pop} repeat
  1200 1950 2640 1950 60 arcto 4 {pop} repeat
  2700 1950 2700 1560 60 arcto 4 {pop} repeat
  2700 1500 1260 1500 60 arcto 4 {pop} repeat
 cp gs col7 0.60 shd ef gr gs col0 s gr 
% Polyline
n 1260 2025 m 1200 2025 1200 2415 60 arcto 4 {pop} repeat
  1200 2475 2640 2475 60 arcto 4 {pop} repeat
  2700 2475 2700 2085 60 arcto 4 {pop} repeat
  2700 2025 1260 2025 60 arcto 4 {pop} repeat
 cp gs col7 0.60 shd ef gr gs col0 s gr 
% Polyline
n 1260 2550 m 1200 2550 1200 2940 60 arcto 4 {pop} repeat
  1200 3000 2640 3000 60 arcto 4 {pop} repeat
  2700 3000 2700 2610 60 arcto 4 {pop} repeat
  2700 2550 1260 2550 60 arcto 4 {pop} repeat
 cp gs col7 0.60 shd ef gr gs col0 s gr 
/Helvetica ff 210.00 scf sf
1950 1807 m
gs 1 -1 sc (Sensor) dup sw pop 2 div neg 0 rm  col0 sh gr
/Helvetica ff 210.00 scf sf
1950 2332 m
gs 1 -1 sc (Sensor) dup sw pop 2 div neg 0 rm  col0 sh gr
/Helvetica ff 210.00 scf sf
1950 2857 m
gs 1 -1 sc (Sensor) dup sw pop 2 div neg 0 rm  col0 sh gr
% Polyline
45.000 slw
n 3668 2070 m 3593 2070 3593 2355 75 arcto 4 {pop} repeat
  3593 2430 4882 2430 75 arcto 4 {pop} repeat
  4957 2430 4957 2145 75 arcto 4 {pop} repeat
  4957 2070 3668 2070 75 arcto 4 {pop} repeat
 cp gs col7 0.00 shd ef gr gs col0 s gr 
/Helvetica ff 195.00 scf sf
4275 2325 m
gs 1 -1 sc (Detector) dup sw pop 2 div neg 0 rm  col7 sh gr
% Polyline
7.500 slw
gs  clippath
3597 2283 m 3628 2231 l 3497 2155 l 3586 2242 l 3467 2207 l cp
eoclip
n 2700 1725 m
 3600 2250 l gs col7 0.00 shd ef gr gs col0 s gr gr

% arrowhead
n 3467 2207 m 3586 2242 l 3497 2155 l  col0 s
% Polyline
gs  clippath
3615 2280 m 3615 2220 l 3463 2220 l 3583 2250 l 3463 2280 l cp
eoclip
n 2700 2250 m
 3600 2250 l gs col7 0.00 shd ef gr gs col0 s gr gr

% arrowhead
n 3463 2280 m 3583 2250 l 3463 2220 l  col0 s
% Polyline
gs  clippath
3628 2268 m 3597 2216 l 3467 2292 l 3586 2258 l 3497 2344 l cp
eoclip
n 2700 2775 m
 3600 2250 l gs col7 0.00 shd ef gr gs col0 s gr gr

% arrowhead
n 3497 2344 m 3586 2258 l 3467 2292 l  col0 s
$F2psEnd
rs
