%!PS-Adobe-2.0
%%Title: netperf_cpu_withaverages.ps
%%Creator: gnuplot 3.7 patchlevel 0
%%CreationDate: Tue Jun 26 04:14:45 2001
%%DocumentFonts: (atend)
%%BoundingBox: 50 50 554 770
%%Orientation: Landscape
%%Pages: (atend)
%%EndComments
/gnudict 256 dict def
gnudict begin
/Color false def
/Solid false def
/gnulinewidth 5.000 def
/userlinewidth gnulinewidth def
/vshift -46 def
/dl {10 mul} def
/hpt_ 31.5 def
/vpt_ 31.5 def
/hpt hpt_ def
/vpt vpt_ def
/M {moveto} bind def
/L {lineto} bind def
/R {rmoveto} bind def
/V {rlineto} bind def
/vpt2 vpt 2 mul def
/hpt2 hpt 2 mul def
/Lshow { currentpoint stroke M
  0 vshift R show } def
/Rshow { currentpoint stroke M
  dup stringwidth pop neg vshift R show } def
/Cshow { currentpoint stroke M
  dup stringwidth pop -2 div vshift R show } def
/UP { dup vpt_ mul /vpt exch def hpt_ mul /hpt exch def
  /hpt2 hpt 2 mul def /vpt2 vpt 2 mul def } def
/DL { Color {setrgbcolor Solid {pop []} if 0 setdash }
 {pop pop pop Solid {pop []} if 0 setdash} ifelse } def
/BL { stroke gnulinewidth 2 mul setlinewidth } def
/AL { stroke gnulinewidth 2 div setlinewidth } def
/UL { gnulinewidth mul /userlinewidth exch def } def
/PL { stroke userlinewidth setlinewidth } def
/LTb { BL [] 0 0 0 DL } def
/LTa { AL [1 dl 2 dl] 0 setdash 0 0 0 setrgbcolor } def
/LT0 { PL [] 1 0 0 DL } def
/LT1 { PL [4 dl 2 dl] 0 1 0 DL } def
/LT2 { PL [2 dl 3 dl] 0 0 1 DL } def
/LT3 { PL [1 dl 1.5 dl] 1 0 1 DL } def
/LT4 { PL [5 dl 2 dl 1 dl 2 dl] 0 1 1 DL } def
/LT5 { PL [4 dl 3 dl 1 dl 3 dl] 1 1 0 DL } def
/LT6 { PL [2 dl 2 dl 2 dl 4 dl] 0 0 0 DL } def
/LT7 { PL [2 dl 2 dl 2 dl 2 dl 2 dl 4 dl] 1 0.3 0 DL } def
/LT8 { PL [2 dl 2 dl 2 dl 2 dl 2 dl 2 dl 2 dl 4 dl] 0.5 0.5 0.5 DL } def
/Pnt { stroke [] 0 setdash
   gsave 1 setlinecap M 0 0 V stroke grestore } def
/Dia { stroke [] 0 setdash 2 copy vpt add M
  hpt neg vpt neg V hpt vpt neg V
  hpt vpt V hpt neg vpt V closepath stroke
  Pnt } def
/Pls { stroke [] 0 setdash vpt sub M 0 vpt2 V
  currentpoint stroke M
  hpt neg vpt neg R hpt2 0 V stroke
  } def
/Box { stroke [] 0 setdash 2 copy exch hpt sub exch vpt add M
  0 vpt2 neg V hpt2 0 V 0 vpt2 V
  hpt2 neg 0 V closepath stroke
  Pnt } def
/Crs { stroke [] 0 setdash exch hpt sub exch vpt add M
  hpt2 vpt2 neg V currentpoint stroke M
  hpt2 neg 0 R hpt2 vpt2 V stroke } def
/TriU { stroke [] 0 setdash 2 copy vpt 1.12 mul add M
  hpt neg vpt -1.62 mul V
  hpt 2 mul 0 V
  hpt neg vpt 1.62 mul V closepath stroke
  Pnt  } def
/Star { 2 copy Pls Crs } def
/BoxF { stroke [] 0 setdash exch hpt sub exch vpt add M
  0 vpt2 neg V  hpt2 0 V  0 vpt2 V
  hpt2 neg 0 V  closepath fill } def
/TriUF { stroke [] 0 setdash vpt 1.12 mul add M
  hpt neg vpt -1.62 mul V
  hpt 2 mul 0 V
  hpt neg vpt 1.62 mul V closepath fill } def
/TriD { stroke [] 0 setdash 2 copy vpt 1.12 mul sub M
  hpt neg vpt 1.62 mul V
  hpt 2 mul 0 V
  hpt neg vpt -1.62 mul V closepath stroke
  Pnt  } def
/TriDF { stroke [] 0 setdash vpt 1.12 mul sub M
  hpt neg vpt 1.62 mul V
  hpt 2 mul 0 V
  hpt neg vpt -1.62 mul V closepath fill} def
/DiaF { stroke [] 0 setdash vpt add M
  hpt neg vpt neg V hpt vpt neg V
  hpt vpt V hpt neg vpt V closepath fill } def
/Pent { stroke [] 0 setdash 2 copy gsave
  translate 0 hpt M 4 {72 rotate 0 hpt L} repeat
  closepath stroke grestore Pnt } def
/PentF { stroke [] 0 setdash gsave
  translate 0 hpt M 4 {72 rotate 0 hpt L} repeat
  closepath fill grestore } def
/Circle { stroke [] 0 setdash 2 copy
  hpt 0 360 arc stroke Pnt } def
/CircleF { stroke [] 0 setdash hpt 0 360 arc fill } def
/C0 { BL [] 0 setdash 2 copy moveto vpt 90 450  arc } bind def
/C1 { BL [] 0 setdash 2 copy        moveto
       2 copy  vpt 0 90 arc closepath fill
               vpt 0 360 arc closepath } bind def
/C2 { BL [] 0 setdash 2 copy moveto
       2 copy  vpt 90 180 arc closepath fill
               vpt 0 360 arc closepath } bind def
/C3 { BL [] 0 setdash 2 copy moveto
       2 copy  vpt 0 180 arc closepath fill
               vpt 0 360 arc closepath } bind def
/C4 { BL [] 0 setdash 2 copy moveto
       2 copy  vpt 180 270 arc closepath fill
               vpt 0 360 arc closepath } bind def
/C5 { BL [] 0 setdash 2 copy moveto
       2 copy  vpt 0 90 arc
       2 copy moveto
       2 copy  vpt 180 270 arc closepath fill
               vpt 0 360 arc } bind def
/C6 { BL [] 0 setdash 2 copy moveto
      2 copy  vpt 90 270 arc closepath fill
              vpt 0 360 arc closepath } bind def
/C7 { BL [] 0 setdash 2 copy moveto
      2 copy  vpt 0 270 arc closepath fill
              vpt 0 360 arc closepath } bind def
/C8 { BL [] 0 setdash 2 copy moveto
      2 copy vpt 270 360 arc closepath fill
              vpt 0 360 arc closepath } bind def
/C9 { BL [] 0 setdash 2 copy moveto
      2 copy  vpt 270 450 arc closepath fill
              vpt 0 360 arc closepath } bind def
/C10 { BL [] 0 setdash 2 copy 2 copy moveto vpt 270 360 arc closepath fill
       2 copy moveto
       2 copy vpt 90 180 arc closepath fill
               vpt 0 360 arc closepath } bind def
/C11 { BL [] 0 setdash 2 copy moveto
       2 copy  vpt 0 180 arc closepath fill
       2 copy moveto
       2 copy  vpt 270 360 arc closepath fill
               vpt 0 360 arc closepath } bind def
/C12 { BL [] 0 setdash 2 copy moveto
       2 copy  vpt 180 360 arc closepath fill
               vpt 0 360 arc closepath } bind def
/C13 { BL [] 0 setdash  2 copy moveto
       2 copy  vpt 0 90 arc closepath fill
       2 copy moveto
       2 copy  vpt 180 360 arc closepath fill
               vpt 0 360 arc closepath } bind def
/C14 { BL [] 0 setdash 2 copy moveto
       2 copy  vpt 90 360 arc closepath fill
               vpt 0 360 arc } bind def
/C15 { BL [] 0 setdash 2 copy vpt 0 360 arc closepath fill
               vpt 0 360 arc closepath } bind def
/Rec   { newpath 4 2 roll moveto 1 index 0 rlineto 0 exch rlineto
       neg 0 rlineto closepath } bind def
/Square { dup Rec } bind def
/Bsquare { vpt sub exch vpt sub exch vpt2 Square } bind def
/S0 { BL [] 0 setdash 2 copy moveto 0 vpt rlineto BL Bsquare } bind def
/S1 { BL [] 0 setdash 2 copy vpt Square fill Bsquare } bind def
/S2 { BL [] 0 setdash 2 copy exch vpt sub exch vpt Square fill Bsquare } bind def
/S3 { BL [] 0 setdash 2 copy exch vpt sub exch vpt2 vpt Rec fill Bsquare } bind def
/S4 { BL [] 0 setdash 2 copy exch vpt sub exch vpt sub vpt Square fill Bsquare } bind def
/S5 { BL [] 0 setdash 2 copy 2 copy vpt Square fill
       exch vpt sub exch vpt sub vpt Square fill Bsquare } bind def
/S6 { BL [] 0 setdash 2 copy exch vpt sub exch vpt sub vpt vpt2 Rec fill Bsquare } bind def
/S7 { BL [] 0 setdash 2 copy exch vpt sub exch vpt sub vpt vpt2 Rec fill
       2 copy vpt Square fill
       Bsquare } bind def
/S8 { BL [] 0 setdash 2 copy vpt sub vpt Square fill Bsquare } bind def
/S9 { BL [] 0 setdash 2 copy vpt sub vpt vpt2 Rec fill Bsquare } bind def
/S10 { BL [] 0 setdash 2 copy vpt sub vpt Square fill 2 copy exch vpt sub exch vpt Square fill
       Bsquare } bind def
/S11 { BL [] 0 setdash 2 copy vpt sub vpt Square fill 2 copy exch vpt sub exch vpt2 vpt Rec fill
       Bsquare } bind def
/S12 { BL [] 0 setdash 2 copy exch vpt sub exch vpt sub vpt2 vpt Rec fill Bsquare } bind def
/S13 { BL [] 0 setdash 2 copy exch vpt sub exch vpt sub vpt2 vpt Rec fill
       2 copy vpt Square fill Bsquare } bind def
/S14 { BL [] 0 setdash 2 copy exch vpt sub exch vpt sub vpt2 vpt Rec fill
       2 copy exch vpt sub exch vpt Square fill Bsquare } bind def
/S15 { BL [] 0 setdash 2 copy Bsquare fill Bsquare } bind def
/D0 { gsave translate 45 rotate 0 0 S0 stroke grestore } bind def
/D1 { gsave translate 45 rotate 0 0 S1 stroke grestore } bind def
/D2 { gsave translate 45 rotate 0 0 S2 stroke grestore } bind def
/D3 { gsave translate 45 rotate 0 0 S3 stroke grestore } bind def
/D4 { gsave translate 45 rotate 0 0 S4 stroke grestore } bind def
/D5 { gsave translate 45 rotate 0 0 S5 stroke grestore } bind def
/D6 { gsave translate 45 rotate 0 0 S6 stroke grestore } bind def
/D7 { gsave translate 45 rotate 0 0 S7 stroke grestore } bind def
/D8 { gsave translate 45 rotate 0 0 S8 stroke grestore } bind def
/D9 { gsave translate 45 rotate 0 0 S9 stroke grestore } bind def
/D10 { gsave translate 45 rotate 0 0 S10 stroke grestore } bind def
/D11 { gsave translate 45 rotate 0 0 S11 stroke grestore } bind def
/D12 { gsave translate 45 rotate 0 0 S12 stroke grestore } bind def
/D13 { gsave translate 45 rotate 0 0 S13 stroke grestore } bind def
/D14 { gsave translate 45 rotate 0 0 S14 stroke grestore } bind def
/D15 { gsave translate 45 rotate 0 0 S15 stroke grestore } bind def
/DiaE { stroke [] 0 setdash vpt add M
  hpt neg vpt neg V hpt vpt neg V
  hpt vpt V hpt neg vpt V closepath stroke } def
/BoxE { stroke [] 0 setdash exch hpt sub exch vpt add M
  0 vpt2 neg V hpt2 0 V 0 vpt2 V
  hpt2 neg 0 V closepath stroke } def
/TriUE { stroke [] 0 setdash vpt 1.12 mul add M
  hpt neg vpt -1.62 mul V
  hpt 2 mul 0 V
  hpt neg vpt 1.62 mul V closepath stroke } def
/TriDE { stroke [] 0 setdash vpt 1.12 mul sub M
  hpt neg vpt 1.62 mul V
  hpt 2 mul 0 V
  hpt neg vpt -1.62 mul V closepath stroke } def
/PentE { stroke [] 0 setdash gsave
  translate 0 hpt M 4 {72 rotate 0 hpt L} repeat
  closepath stroke grestore } def
/CircE { stroke [] 0 setdash 
  hpt 0 360 arc stroke } def
/Opaque { gsave closepath 1 setgray fill grestore 0 setgray closepath } def
/DiaW { stroke [] 0 setdash vpt add M
  hpt neg vpt neg V hpt vpt neg V
  hpt vpt V hpt neg vpt V Opaque stroke } def
/BoxW { stroke [] 0 setdash exch hpt sub exch vpt add M
  0 vpt2 neg V hpt2 0 V 0 vpt2 V
  hpt2 neg 0 V Opaque stroke } def
/TriUW { stroke [] 0 setdash vpt 1.12 mul add M
  hpt neg vpt -1.62 mul V
  hpt 2 mul 0 V
  hpt neg vpt 1.62 mul V Opaque stroke } def
/TriDW { stroke [] 0 setdash vpt 1.12 mul sub M
  hpt neg vpt 1.62 mul V
  hpt 2 mul 0 V
  hpt neg vpt -1.62 mul V Opaque stroke } def
/PentW { stroke [] 0 setdash gsave
  translate 0 hpt M 4 {72 rotate 0 hpt L} repeat
  Opaque stroke grestore } def
/CircW { stroke [] 0 setdash 
  hpt 0 360 arc Opaque stroke } def
/BoxFill { gsave Rec 1 setgray fill grestore } def
/MFshow {{dup dup 0 get findfont exch 1 get scalefont setfont
     [ currentpoint ] exch dup 2 get 0 exch rmoveto dup dup 5 get exch 4 get
     {show} {stringwidth pop 0 rmoveto}ifelse dup 3 get
     {2 get neg 0 exch rmoveto pop} {pop aload pop moveto}ifelse} forall} bind def
/MFwidth {0 exch {dup 3 get{dup dup 0 get findfont exch 1 get scalefont setfont
      5 get stringwidth pop add}
    {pop} ifelse} forall} bind def
/MLshow { currentpoint stroke M
  0 exch R MFshow } bind def
/MRshow { currentpoint stroke M
  exch dup MFwidth neg 3 -1 roll R MFshow } def
/MCshow { currentpoint stroke M
  exch dup MFwidth -2 div 3 -1 roll R MFshow } def
end
%%EndProlog
%%Page: 1 1
gnudict begin
gsave
50 50 translate
0.100 0.100 scale
90 rotate
0 -5040 translate
0 setgray
newpath
(Helvetica) findfont 140 scalefont setfont
1.000 UL
LTb
546 420 M
63 0 V
6353 0 R
-63 0 V
 stroke
462 420 M
[ [(Helvetica) 140.0 0.0 true true (0)]
] -46.7 MRshow
546 825 M
63 0 V
6353 0 R
-63 0 V
 stroke
462 825 M
[ [(Helvetica) 140.0 0.0 true true (2)]
] -46.7 MRshow
546 1229 M
63 0 V
6353 0 R
-63 0 V
 stroke
462 1229 M
[ [(Helvetica) 140.0 0.0 true true (4)]
] -46.7 MRshow
546 1634 M
63 0 V
6353 0 R
-63 0 V
 stroke
462 1634 M
[ [(Helvetica) 140.0 0.0 true true (6)]
] -46.7 MRshow
546 2039 M
63 0 V
6353 0 R
-63 0 V
 stroke
462 2039 M
[ [(Helvetica) 140.0 0.0 true true (8)]
] -46.7 MRshow
546 2444 M
63 0 V
6353 0 R
-63 0 V
 stroke
462 2444 M
[ [(Helvetica) 140.0 0.0 true true (10)]
] -46.7 MRshow
546 2848 M
63 0 V
6353 0 R
-63 0 V
 stroke
462 2848 M
[ [(Helvetica) 140.0 0.0 true true (12)]
] -46.7 MRshow
546 3253 M
63 0 V
6353 0 R
-63 0 V
 stroke
462 3253 M
[ [(Helvetica) 140.0 0.0 true true (14)]
] -46.7 MRshow
546 3658 M
63 0 V
6353 0 R
-63 0 V
 stroke
462 3658 M
[ [(Helvetica) 140.0 0.0 true true (16)]
] -46.7 MRshow
546 4063 M
63 0 V
6353 0 R
-63 0 V
 stroke
462 4063 M
[ [(Helvetica) 140.0 0.0 true true (18)]
] -46.7 MRshow
546 4467 M
63 0 V
6353 0 R
-63 0 V
 stroke
462 4467 M
[ [(Helvetica) 140.0 0.0 true true (20)]
] -46.7 MRshow
546 4872 M
63 0 V
6353 0 R
-63 0 V
 stroke
462 4872 M
[ [(Helvetica) 140.0 0.0 true true (22)]
] -46.7 MRshow
546 420 M
0 63 V
0 4389 R
0 -63 V
 stroke
546 280 M
[ [(Helvetica) 140.0 0.0 true true (0)]
] -46.7 MCshow
1188 420 M
0 63 V
0 4389 R
0 -63 V
 stroke
1188 280 M
[ [(Helvetica) 140.0 0.0 true true (10)]
] -46.7 MCshow
1829 420 M
0 63 V
0 4389 R
0 -63 V
 stroke
1829 280 M
[ [(Helvetica) 140.0 0.0 true true (20)]
] -46.7 MCshow
2471 420 M
0 63 V
0 4389 R
0 -63 V
 stroke
2471 280 M
[ [(Helvetica) 140.0 0.0 true true (30)]
] -46.7 MCshow
3112 420 M
0 63 V
0 4389 R
0 -63 V
 stroke
3112 280 M
[ [(Helvetica) 140.0 0.0 true true (40)]
] -46.7 MCshow
3754 420 M
0 63 V
0 4389 R
0 -63 V
 stroke
3754 280 M
[ [(Helvetica) 140.0 0.0 true true (50)]
] -46.7 MCshow
4396 420 M
0 63 V
0 4389 R
0 -63 V
 stroke
4396 280 M
[ [(Helvetica) 140.0 0.0 true true (60)]
] -46.7 MCshow
5037 420 M
0 63 V
0 4389 R
0 -63 V
 stroke
5037 280 M
[ [(Helvetica) 140.0 0.0 true true (70)]
] -46.7 MCshow
5679 420 M
0 63 V
0 4389 R
0 -63 V
 stroke
5679 280 M
[ [(Helvetica) 140.0 0.0 true true (80)]
] -46.7 MCshow
6320 420 M
0 63 V
0 4389 R
0 -63 V
 stroke
6320 280 M
[ [(Helvetica) 140.0 0.0 true true (90)]
] -46.7 MCshow
6962 420 M
0 63 V
0 4389 R
0 -63 V
 stroke
6962 280 M
[ [(Helvetica) 140.0 0.0 true true (100)]
] -46.7 MCshow
1.000 UL
LTb
546 420 M
6416 0 V
0 4452 V
-6416 0 V
546 420 L
 stroke
140 2646 M
currentpoint gsave translate 90 rotate 0 0 moveto
[ [(Helvetica) 140.0 0.0 true true (CPU load \(%\))]
] -46.7 MCshow
grestore
3754 70 M
[ [(Helvetica) 140.0 0.0 true true (X \(Bandwidth in Mbps\))]
] -46.7 MCshow
1.000 UP
1.000 UL
LT0
6311 973 M
[ [(Helvetica) 140.0 0.0 true true (NOESP)]
] -46.7 MRshow
867 776 Star
867 832 Star
867 809 Star
867 849 Star
867 817 Star
867 664 Star
867 665 Star
867 831 Star
867 801 Star
867 727 Star
867 821 Star
867 717 Star
867 873 Star
867 890 Star
867 866 Star
867 681 Star
867 748 Star
867 818 Star
867 747 Star
867 872 Star
1188 1133 Star
1188 1152 Star
1188 1063 Star
1188 1061 Star
1188 1167 Star
1188 986 Star
1188 1109 Star
1188 1146 Star
1188 1166 Star
1188 1135 Star
1188 974 Star
1188 937 Star
1188 1040 Star
1188 1091 Star
1188 1089 Star
1188 979 Star
1188 1053 Star
1188 1000 Star
1188 1121 Star
1188 1107 Star
1508 1315 Star
1508 1215 Star
1508 1184 Star
1508 1330 Star
1508 1340 Star
1508 1163 Star
1508 1369 Star
1508 1296 Star
1508 1353 Star
1508 1388 Star
1508 1371 Star
1508 1140 Star
1508 1399 Star
1508 1397 Star
1508 1430 Star
1508 1280 Star
1508 1227 Star
1508 1276 Star
1508 1235 Star
1508 1292 Star
1829 1570 Star
1829 1602 Star
1829 1314 Star
1829 1684 Star
1829 1615 Star
1829 1590 Star
1829 1546 Star
1829 1635 Star
1829 1386 Star
1829 1479 Star
1829 1444 Star
1829 1471 Star
1829 1494 Star
1829 1484 Star
1829 1784 Star
1829 1507 Star
1829 1268 Star
1829 1836 Star
1829 1372 Star
1829 1585 Star
2150 1734 Star
2150 1564 Star
2150 1823 Star
2150 1664 Star
2150 1413 Star
2150 1878 Star
2150 1521 Star
2150 1667 Star
2150 1719 Star
2150 1496 Star
2150 1727 Star
2150 1653 Star
2150 1505 Star
2150 1707 Star
2150 1497 Star
2150 1687 Star
2150 1664 Star
2150 1624 Star
2150 1495 Star
2150 1505 Star
2471 1537 Star
2471 1966 Star
2471 1883 Star
2471 1772 Star
2471 1756 Star
2471 1906 Star
2471 1616 Star
2471 1837 Star
2471 1884 Star
2471 2034 Star
2471 1634 Star
2471 2004 Star
2471 1871 Star
2471 1672 Star
2471 1727 Star
2471 1689 Star
2471 1824 Star
2471 1751 Star
2471 1701 Star
2471 1900 Star
2792 1969 Star
2792 2171 Star
2792 1962 Star
2792 1830 Star
2792 2085 Star
2792 1864 Star
2792 1982 Star
2792 2102 Star
2792 2005 Star
2792 1839 Star
2792 2131 Star
2792 2076 Star
2792 1641 Star
2792 1885 Star
2792 1964 Star
2792 1892 Star
2792 1968 Star
2792 1926 Star
2792 2001 Star
2792 2032 Star
3112 2012 Star
3112 1895 Star
3112 2339 Star
3112 2194 Star
3112 2412 Star
3112 2214 Star
3112 1944 Star
3112 2072 Star
3112 2047 Star
3112 2167 Star
3112 2081 Star
3112 2031 Star
3112 1968 Star
3112 2102 Star
3112 2176 Star
3112 2270 Star
3112 1932 Star
3112 2216 Star
3112 2076 Star
3112 2227 Star
3433 2380 Star
3433 2147 Star
3433 2402 Star
3433 2368 Star
3433 2423 Star
3433 2232 Star
3433 2271 Star
3433 2243 Star
3433 2275 Star
3433 1978 Star
3433 2303 Star
3433 2039 Star
3433 2403 Star
3433 2319 Star
3433 2229 Star
3433 2370 Star
3433 2097 Star
3433 2226 Star
3433 2324 Star
3433 1870 Star
3754 2146 Star
3754 2371 Star
3754 2261 Star
3754 2088 Star
3754 2354 Star
3754 2362 Star
3754 2001 Star
3754 2273 Star
3754 2291 Star
3754 2722 Star
3754 2539 Star
3754 2543 Star
3754 2541 Star
3754 2162 Star
3754 2812 Star
3754 2243 Star
3754 2083 Star
3754 2035 Star
3754 2053 Star
3754 2507 Star
4075 2454 Star
4075 2725 Star
4075 2518 Star
4075 2615 Star
4075 2291 Star
4075 2652 Star
4075 2549 Star
4075 2408 Star
4075 2532 Star
4075 2440 Star
4075 2344 Star
4075 2603 Star
4075 2736 Star
4075 2493 Star
4075 2397 Star
4075 2567 Star
4075 2579 Star
4075 2234 Star
4075 2452 Star
4075 2244 Star
4396 2716 Star
4396 2519 Star
4396 2683 Star
4396 2531 Star
4396 2785 Star
4396 2668 Star
4396 2893 Star
4396 2485 Star
4396 2246 Star
4396 2806 Star
4396 2612 Star
4396 2906 Star
4396 2573 Star
4396 2596 Star
4396 2698 Star
4396 2716 Star
4396 2760 Star
4396 2596 Star
4396 2879 Star
4396 2726 Star
4716 2879 Star
4716 2788 Star
4716 2782 Star
4716 2624 Star
4716 2686 Star
4716 2552 Star
4716 2719 Star
4716 2579 Star
4716 2663 Star
4716 2872 Star
4716 2436 Star
4716 2760 Star
4716 2568 Star
4716 2606 Star
4716 2591 Star
4716 2743 Star
4716 2814 Star
4716 2362 Star
4716 2848 Star
4716 2707 Star
5037 2962 Star
5037 2780 Star
5037 2987 Star
5037 2703 Star
5037 3038 Star
5037 2834 Star
5037 2916 Star
5037 2829 Star
5037 2957 Star
5037 2893 Star
5037 2896 Star
5037 2774 Star
5037 2856 Star
5037 2737 Star
5037 2693 Star
5037 2744 Star
5037 2779 Star
5037 2767 Star
5037 2764 Star
5037 2834 Star
5358 3031 Star
5358 2822 Star
5358 2599 Star
5358 2832 Star
5358 2900 Star
5358 3051 Star
5358 3025 Star
5358 2907 Star
5358 3074 Star
5358 2577 Star
5358 2888 Star
5358 2960 Star
5358 2885 Star
5358 2795 Star
5358 3249 Star
5358 3013 Star
5358 2970 Star
5358 2939 Star
5358 2723 Star
5358 2614 Star
5679 2993 Star
5679 3070 Star
5679 2909 Star
5679 2812 Star
5679 2850 Star
5679 2615 Star
5679 3153 Star
5679 3081 Star
5679 2903 Star
5679 2710 Star
5679 2975 Star
5679 2777 Star
5679 2779 Star
5679 3046 Star
5679 2921 Star
5679 2888 Star
5679 2898 Star
5679 2887 Star
5679 3107 Star
5679 2895 Star
6000 2767 Star
6000 2688 Star
6000 2571 Star
6000 2538 Star
6000 2609 Star
6000 2496 Star
6000 2531 Star
6000 2494 Star
6000 2732 Star
6000 2585 Star
6000 2593 Star
6000 2771 Star
6000 2729 Star
6000 2586 Star
6000 2769 Star
6000 2393 Star
6000 2567 Star
6000 2813 Star
6000 2558 Star
6000 2649 Star
6320 2547 Star
6320 2998 Star
6320 2757 Star
6320 3121 Star
6320 2588 Star
6320 2764 Star
6320 2858 Star
6320 2788 Star
6320 2925 Star
6320 2874 Star
6320 2703 Star
6320 2813 Star
6320 2715 Star
6320 2775 Star
6320 2602 Star
6320 2642 Star
6320 2863 Star
6320 2688 Star
6320 2684 Star
6320 2943 Star
6641 2859 Star
6641 3151 Star
6641 3000 Star
6641 2636 Star
6641 2754 Star
6641 2698 Star
6641 2791 Star
6641 2821 Star
6641 2997 Star
6641 2955 Star
6641 2845 Star
6641 3237 Star
6641 2989 Star
6641 2859 Star
6641 3087 Star
6641 2940 Star
6641 2631 Star
6641 3139 Star
6641 2493 Star
6641 2912 Star
6962 3007 Star
6962 3346 Star
6962 3221 Star
6962 3013 Star
6962 3228 Star
6962 3343 Star
6962 3073 Star
6962 3243 Star
6962 3390 Star
6962 3164 Star
6962 2944 Star
6962 3465 Star
6962 3164 Star
6962 3165 Star
6962 3261 Star
6962 3255 Star
6962 3310 Star
6962 3392 Star
6962 3305 Star
6962 3150 Star
6594 973 Star
1.000 UL
LT1
6311 833 M
[ [(Helvetica) 140.0 0.0 true true (NOESP average)]
] -46.7 MRshow
6395 833 M
399 0 V
867 790 M
321 286 V
320 224 V
321 233 V
321 94 V
321 171 V
321 168 V
320 153 V
321 126 V
321 74 V
321 173 V
321 178 V
320 9 V
321 158 V
321 56 V
321 21 V
321 -292 V
320 160 V
321 108 V
321 332 V
1.000 UP
1.000 UL
LT2
6311 693 M
[ [(Helvetica) 140.0 0.0 true true (ESP)]
] -46.7 MRshow
867 860 Circle
867 845 Circle
867 717 Circle
867 717 Circle
867 749 Circle
867 896 Circle
867 799 Circle
867 708 Circle
867 695 Circle
867 858 Circle
867 686 Circle
867 820 Circle
867 901 Circle
867 856 Circle
867 770 Circle
867 686 Circle
867 699 Circle
867 777 Circle
867 770 Circle
867 827 Circle
1188 1070 Circle
1188 1090 Circle
1188 948 Circle
1188 978 Circle
1188 1129 Circle
1188 1182 Circle
1188 906 Circle
1188 999 Circle
1188 971 Circle
1188 1044 Circle
1188 1044 Circle
1188 955 Circle
1188 1150 Circle
1188 1025 Circle
1188 1161 Circle
1188 1008 Circle
1188 1068 Circle
1188 991 Circle
1188 1018 Circle
1188 904 Circle
1508 1298 Circle
1508 1430 Circle
1508 1436 Circle
1508 1232 Circle
1508 1270 Circle
1508 1557 Circle
1508 1298 Circle
1508 1233 Circle
1508 1453 Circle
1508 1333 Circle
1508 1342 Circle
1508 1271 Circle
1508 1255 Circle
1508 1292 Circle
1508 1269 Circle
1508 1286 Circle
1508 1413 Circle
1508 1334 Circle
1508 1417 Circle
1508 1240 Circle
1829 1795 Circle
1829 1481 Circle
1829 1718 Circle
1829 1507 Circle
1829 1532 Circle
1829 1597 Circle
1829 1711 Circle
1829 1723 Circle
1829 1579 Circle
1829 1799 Circle
1829 1711 Circle
1829 1469 Circle
1829 1451 Circle
1829 1798 Circle
1829 1947 Circle
1829 1464 Circle
1829 1516 Circle
1829 1762 Circle
1829 1413 Circle
1829 1684 Circle
2150 2081 Circle
2150 2064 Circle
2150 1654 Circle
2150 2229 Circle
2150 1741 Circle
2150 1947 Circle
2150 1893 Circle
2150 1788 Circle
2150 1790 Circle
2150 2126 Circle
2150 1967 Circle
2150 2218 Circle
2150 1917 Circle
2150 2251 Circle
2150 1543 Circle
2150 1827 Circle
2150 1878 Circle
2150 1965 Circle
2150 1733 Circle
2150 1644 Circle
2471 2124 Circle
2471 2022 Circle
2471 2297 Circle
2471 2184 Circle
2471 2098 Circle
2471 2284 Circle
2471 2299 Circle
2471 2241 Circle
2471 2158 Circle
2471 2089 Circle
2471 2081 Circle
2471 2182 Circle
2471 2520 Circle
2471 1914 Circle
2471 2152 Circle
2471 1897 Circle
2471 1954 Circle
2471 2279 Circle
2471 1966 Circle
2471 1950 Circle
2792 2462 Circle
2792 2273 Circle
2792 2418 Circle
2792 2160 Circle
2792 2105 Circle
2792 2289 Circle
2792 2343 Circle
2792 2446 Circle
2792 2321 Circle
2792 2036 Circle
2792 2531 Circle
2792 2204 Circle
2792 2143 Circle
2792 2285 Circle
2792 2054 Circle
2792 2446 Circle
2792 2120 Circle
2792 2173 Circle
2792 2029 Circle
2792 2389 Circle
3112 2905 Circle
3112 2676 Circle
3112 2591 Circle
3112 2674 Circle
3112 2455 Circle
3112 2520 Circle
3112 2493 Circle
3112 2745 Circle
3112 2928 Circle
3112 2825 Circle
3112 2514 Circle
3112 2387 Circle
3112 2635 Circle
3112 2449 Circle
3112 2580 Circle
3112 2610 Circle
3112 2602 Circle
3112 2651 Circle
3112 2948 Circle
3112 2553 Circle
3433 2713 Circle
3433 2814 Circle
3433 2777 Circle
3433 2526 Circle
3433 2836 Circle
3433 2851 Circle
3433 2610 Circle
3433 2838 Circle
3433 2604 Circle
3433 2953 Circle
3433 2807 Circle
3433 2790 Circle
3433 3092 Circle
3433 2657 Circle
3433 2854 Circle
3433 2853 Circle
3433 2951 Circle
3433 2803 Circle
3433 2908 Circle
3433 2793 Circle
3754 2943 Circle
3754 2866 Circle
3754 3129 Circle
3754 3165 Circle
3754 3101 Circle
3754 3224 Circle
3754 3143 Circle
3754 3079 Circle
3754 3239 Circle
3754 2985 Circle
3754 3171 Circle
3754 2914 Circle
3754 3306 Circle
3754 3016 Circle
3754 3077 Circle
3754 2852 Circle
3754 3050 Circle
3754 3078 Circle
3754 2793 Circle
3754 3266 Circle
4075 3455 Circle
4075 3402 Circle
4075 3269 Circle
4075 3346 Circle
4075 3384 Circle
4075 3077 Circle
4075 3190 Circle
4075 3405 Circle
4075 3292 Circle
4075 3165 Circle
4075 3466 Circle
4075 3417 Circle
4075 3384 Circle
4075 3341 Circle
4075 3285 Circle
4075 3649 Circle
4075 3324 Circle
4075 3500 Circle
4075 3308 Circle
4075 3602 Circle
4396 3431 Circle
4396 3270 Circle
4396 3421 Circle
4396 3571 Circle
4396 3428 Circle
4396 3691 Circle
4396 3515 Circle
4396 3353 Circle
4396 3468 Circle
4396 3745 Circle
4396 3631 Circle
4396 3679 Circle
4396 3773 Circle
4396 3592 Circle
4396 3384 Circle
4396 3535 Circle
4396 3599 Circle
4396 3557 Circle
4396 3659 Circle
4396 3534 Circle
4716 3765 Circle
4716 3598 Circle
4716 3485 Circle
4716 3633 Circle
4716 3846 Circle
4716 3660 Circle
4716 3687 Circle
4716 3719 Circle
4716 3735 Circle
4716 3818 Circle
4716 3523 Circle
4716 3586 Circle
4716 3458 Circle
4716 3598 Circle
4716 3731 Circle
4716 3704 Circle
4716 3712 Circle
4716 3804 Circle
4716 3639 Circle
4716 3723 Circle
5037 4107 Circle
5037 4016 Circle
5037 3701 Circle
5037 3596 Circle
5037 3786 Circle
5037 3963 Circle
5037 3926 Circle
5037 3993 Circle
5037 4018 Circle
5037 3755 Circle
5037 3874 Circle
5037 3784 Circle
5037 3693 Circle
5037 3873 Circle
5037 3685 Circle
5037 3892 Circle
5037 3806 Circle
5037 4145 Circle
5037 3888 Circle
5037 3831 Circle
5358 4087 Circle
5358 4076 Circle
5358 3943 Circle
5358 3894 Circle
5358 3757 Circle
5358 3627 Circle
5358 4234 Circle
5358 3958 Circle
5358 3688 Circle
5358 3786 Circle
5358 4058 Circle
5358 4108 Circle
5358 3860 Circle
5358 3683 Circle
5358 3852 Circle
5358 3859 Circle
5358 4208 Circle
5358 3927 Circle
5358 3782 Circle
5358 3912 Circle
5679 4037 Circle
5679 4022 Circle
5679 3818 Circle
5679 3838 Circle
5679 3798 Circle
5679 3887 Circle
5679 3904 Circle
5679 3739 Circle
5679 3711 Circle
5679 4078 Circle
5679 3994 Circle
5679 3877 Circle
5679 4010 Circle
5679 3752 Circle
5679 3807 Circle
5679 3815 Circle
5679 4011 Circle
5679 4053 Circle
5679 3844 Circle
5679 3839 Circle
6000 3955 Circle
6000 4150 Circle
6000 3683 Circle
6000 4203 Circle
6000 3814 Circle
6000 3892 Circle
6000 3962 Circle
6000 4008 Circle
6000 3916 Circle
6000 3709 Circle
6000 3749 Circle
6000 3861 Circle
6000 3898 Circle
6000 4171 Circle
6000 4074 Circle
6000 4020 Circle
6000 3909 Circle
6000 4230 Circle
6000 4168 Circle
6000 4034 Circle
6320 4064 Circle
6320 4179 Circle
6320 4124 Circle
6320 4021 Circle
6320 4153 Circle
6320 3967 Circle
6320 3876 Circle
6320 4015 Circle
6320 4137 Circle
6320 4103 Circle
6320 3854 Circle
6320 3928 Circle
6320 4009 Circle
6320 4029 Circle
6320 4115 Circle
6320 3956 Circle
6320 3964 Circle
6320 3702 Circle
6320 4130 Circle
6320 4189 Circle
6641 3965 Circle
6641 4180 Circle
6641 4332 Circle
6641 3889 Circle
6641 4011 Circle
6641 4323 Circle
6641 4064 Circle
6641 4005 Circle
6641 4176 Circle
6641 3789 Circle
6641 4576 Circle
6641 4149 Circle
6641 4166 Circle
6641 4385 Circle
6641 4084 Circle
6641 4018 Circle
6641 4497 Circle
6641 4244 Circle
6641 4227 Circle
6641 4097 Circle
6962 4200 Circle
6962 4013 Circle
6962 4091 Circle
6962 4266 Circle
6962 4050 Circle
6962 3972 Circle
6962 4198 Circle
6962 4448 Circle
6962 4168 Circle
6962 4135 Circle
6962 4346 Circle
6962 4203 Circle
6962 4248 Circle
6962 4448 Circle
6962 4363 Circle
6962 4264 Circle
6962 4408 Circle
6962 4233 Circle
6962 4384 Circle
6962 4124 Circle
6594 693 Circle
1.000 UL
LT3
6311 553 M
[ [(Helvetica) 140.0 0.0 true true (ESP average)]
] -46.7 MRshow
6395 553 M
399 0 V
867 782 M
321 250 V
320 301 V
321 300 V
321 280 V
321 222 V
321 126 V
320 376 V
321 164 V
321 269 V
321 293 V
321 179 V
320 129 V
321 196 V
321 48 V
321 -23 V
321 78 V
320 56 V
321 133 V
321 69 V
stroke
grestore
end
showpage
%%Trailer
%%DocumentFonts: Helvetica
%%Pages: 1
