%!PS-Adobe-2.0 EPSF-2.0
%%Title: test-setup.eps
%%Creator: fig2dev Version 3.2.3 Patchlevel 
%%CreationDate: Tue Jun 19 00:24:56 2001
%%For: zamboni@basm (Diego Zamboni)
%%BoundingBox: 0 0 587 164
%%Magnification: 1.0000
%%EndComments
/MyAppDict 100 dict dup begin def
/$F2psDict 200 dict def
$F2psDict begin
$F2psDict /mtrx matrix put
/col-1 {0 setgray} bind def
/col0 {0.000 0.000 0.000 srgb} bind def
/col1 {0.000 0.000 1.000 srgb} bind def
/col2 {0.000 1.000 0.000 srgb} bind def
/col3 {0.000 1.000 1.000 srgb} bind def
/col4 {1.000 0.000 0.000 srgb} bind def
/col5 {1.000 0.000 1.000 srgb} bind def
/col6 {1.000 1.000 0.000 srgb} bind def
/col7 {1.000 1.000 1.000 srgb} bind def
/col8 {0.000 0.000 0.560 srgb} bind def
/col9 {0.000 0.000 0.690 srgb} bind def
/col10 {0.000 0.000 0.820 srgb} bind def
/col11 {0.530 0.810 1.000 srgb} bind def
/col12 {0.000 0.560 0.000 srgb} bind def
/col13 {0.000 0.690 0.000 srgb} bind def
/col14 {0.000 0.820 0.000 srgb} bind def
/col15 {0.000 0.560 0.560 srgb} bind def
/col16 {0.000 0.690 0.690 srgb} bind def
/col17 {0.000 0.820 0.820 srgb} bind def
/col18 {0.560 0.000 0.000 srgb} bind def
/col19 {0.690 0.000 0.000 srgb} bind def
/col20 {0.820 0.000 0.000 srgb} bind def
/col21 {0.560 0.000 0.560 srgb} bind def
/col22 {0.690 0.000 0.690 srgb} bind def
/col23 {0.820 0.000 0.820 srgb} bind def
/col24 {0.500 0.190 0.000 srgb} bind def
/col25 {0.630 0.250 0.000 srgb} bind def
/col26 {0.750 0.380 0.000 srgb} bind def
/col27 {1.000 0.500 0.500 srgb} bind def
/col28 {1.000 0.630 0.630 srgb} bind def
/col29 {1.000 0.750 0.750 srgb} bind def
/col30 {1.000 0.880 0.880 srgb} bind def
/col31 {1.000 0.840 0.000 srgb} bind def
/col32 {0.557 0.561 0.557 srgb} bind def
/col33 {0.557 0.561 0.557 srgb} bind def
/col34 {0.557 0.561 0.557 srgb} bind def
/col35 {0.502 0.502 0.502 srgb} bind def
/col36 {0.251 0.251 0.251 srgb} bind def
/col37 {0.502 0.502 0.502 srgb} bind def
/col38 {0.251 0.251 0.251 srgb} bind def
/col39 {0.251 0.251 0.251 srgb} bind def
/col40 {0.251 0.251 0.251 srgb} bind def
/col41 {0.502 0.502 0.502 srgb} bind def
/col42 {0.753 0.753 0.753 srgb} bind def
/col43 {0.878 0.878 0.878 srgb} bind def
/col44 {0.251 0.251 0.251 srgb} bind def
/col45 {0.502 0.502 0.502 srgb} bind def
/col46 {0.753 0.753 0.753 srgb} bind def
/col47 {0.878 0.878 0.878 srgb} bind def
/col48 {0.251 0.251 0.251 srgb} bind def
/col49 {0.502 0.502 0.502 srgb} bind def
/col50 {0.753 0.753 0.753 srgb} bind def
/col51 {0.878 0.878 0.878 srgb} bind def
/col52 {0.557 0.561 0.557 srgb} bind def
/col53 {0.251 0.251 0.251 srgb} bind def
/col54 {0.502 0.502 0.502 srgb} bind def
/col55 {0.753 0.753 0.753 srgb} bind def
/col56 {0.878 0.878 0.878 srgb} bind def
/col57 {0.667 0.667 0.667 srgb} bind def
/col58 {0.333 0.333 0.333 srgb} bind def
/col59 {0.251 0.251 0.251 srgb} bind def
/col60 {0.502 0.502 0.502 srgb} bind def
/col61 {0.753 0.753 0.753 srgb} bind def
/col62 {0.502 0.502 0.502 srgb} bind def
/col63 {0.753 0.753 0.753 srgb} bind def
/col64 {0.878 0.878 0.878 srgb} bind def
/col65 {0.776 0.718 0.592 srgb} bind def
/col66 {0.937 0.973 1.000 srgb} bind def
/col67 {0.863 0.796 0.651 srgb} bind def
/col68 {0.502 0.502 0.502 srgb} bind def
/col69 {0.753 0.753 0.753 srgb} bind def
/col70 {0.878 0.878 0.878 srgb} bind def
/col71 {0.557 0.557 0.557 srgb} bind def
/col72 {0.267 0.267 0.267 srgb} bind def
/col73 {0.557 0.557 0.557 srgb} bind def
/col74 {0.557 0.557 0.557 srgb} bind def
/col75 {0.557 0.557 0.557 srgb} bind def
/col76 {0.267 0.267 0.267 srgb} bind def
/col77 {0.667 0.667 0.667 srgb} bind def
/col78 {0.557 0.557 0.557 srgb} bind def
/col79 {0.267 0.267 0.267 srgb} bind def
/col80 {0.667 0.667 0.667 srgb} bind def
/col81 {0.333 0.333 0.333 srgb} bind def
/col82 {0.557 0.557 0.557 srgb} bind def
/col83 {0.267 0.267 0.267 srgb} bind def
/col84 {0.753 0.753 0.753 srgb} bind def
/col85 {0.878 0.878 0.878 srgb} bind def
/col86 {0.557 0.557 0.557 srgb} bind def
/col87 {0.267 0.267 0.267 srgb} bind def
/col88 {0.557 0.557 0.557 srgb} bind def
/col89 {0.267 0.267 0.267 srgb} bind def
/col90 {0.557 0.557 0.557 srgb} bind def
/col91 {0.267 0.267 0.267 srgb} bind def
/col92 {0.502 0.502 0.502 srgb} bind def
/col93 {0.753 0.753 0.753 srgb} bind def
/col94 {0.878 0.878 0.878 srgb} bind def
/col95 {0.753 0.753 0.753 srgb} bind def
/col96 {0.878 0.878 0.878 srgb} bind def

end
save
newpath 0 164 moveto 0 0 lineto 587 0 lineto 587 164 lineto closepath clip newpath
-58.0 388.0 translate
1 -1 scale
.9 .9 scale % to make patterns same scale as in xfig

% This junk string is used by the show operators
/PATsstr 1 string def
/PATawidthshow { 	% cx cy cchar rx ry string
  % Loop over each character in the string
  {  % cx cy cchar rx ry char
    % Show the character
    dup				% cx cy cchar rx ry char char
    PATsstr dup 0 4 -1 roll put	% cx cy cchar rx ry char (char)
    false charpath		% cx cy cchar rx ry char
    /clip load PATdraw
    % Move past the character (charpath modified the
    % current point)
    currentpoint			% cx cy cchar rx ry char x y
    newpath
    moveto			% cx cy cchar rx ry char
    % Reposition by cx,cy if the character in the string is cchar
    3 index eq {			% cx cy cchar rx ry
      4 index 4 index rmoveto
    } if
    % Reposition all characters by rx ry
    2 copy rmoveto		% cx cy cchar rx ry
  } forall
  pop pop pop pop pop		% -
  currentpoint
  newpath
  moveto
} bind def
/PATcg {
  7 dict dup begin
    /lw currentlinewidth def
    /lc currentlinecap def
    /lj currentlinejoin def
    /ml currentmiterlimit def
    /ds [ currentdash ] def
    /cc [ currentrgbcolor ] def
    /cm matrix currentmatrix def
  end
} bind def
% PATdraw - calculates the boundaries of the object and
% fills it with the current pattern
/PATdraw {			% proc
  save exch
    PATpcalc			% proc nw nh px py
    5 -1 roll exec		% nw nh px py
    newpath
    PATfill			% -
  restore
} bind def
% PATfill - performs the tiling for the shape
/PATfill { % nw nh px py PATfill -
  PATDict /CurrentPattern get dup begin
    setfont
    % Set the coordinate system to Pattern Space
    PatternGState PATsg
    % Set the color for uncolored pattezns
    PaintType 2 eq { PATDict /PColor get PATsc } if
    % Create the string for showing
    3 index string		% nw nh px py str
    % Loop for each of the pattern sources
    0 1 Multi 1 sub {		% nw nh px py str source
	% Move to the starting location
	3 index 3 index		% nw nh px py str source px py
	moveto			% nw nh px py str source
	% For multiple sources, set the appropriate color
	Multi 1 ne { dup PC exch get PATsc } if
	% Set the appropriate string for the source
	0 1 7 index 1 sub { 2 index exch 2 index put } for pop
	% Loop over the number of vertical cells
	3 index 		% nw nh px py str nh
	{			% nw nh px py str
	  currentpoint		% nw nh px py str cx cy
	  2 index show		% nw nh px py str cx cy
	  YStep add moveto	% nw nh px py str
	} repeat		% nw nh px py str
    } for
    5 { pop } repeat
  end
} bind def

% PATkshow - kshow with the current pattezn
/PATkshow {			% proc string
  exch bind			% string proc
  1 index 0 get			% string proc char
  % Loop over all but the last character in the string
  0 1 4 index length 2 sub {
				% string proc char idx
    % Find the n+1th character in the string
    3 index exch 1 add get	% string proe char char+1
    exch 2 copy			% strinq proc char+1 char char+1 char
    % Now show the nth character
    PATsstr dup 0 4 -1 roll put	% string proc chr+1 chr chr+1 (chr)
    false charpath		% string proc char+1 char char+1
    /clip load PATdraw
    % Move past the character (charpath modified the current point)
    currentpoint newpath moveto
    % Execute the user proc (should consume char and char+1)
    mark 3 1 roll		% string proc char+1 mark char char+1
    4 index exec		% string proc char+1 mark...
    cleartomark			% string proc char+1
  } for
  % Now display the last character
  PATsstr dup 0 4 -1 roll put	% string proc (char+1)
  false charpath		% string proc
  /clip load PATdraw
  neewath
  pop pop			% -
} bind def
% PATmp - the makepattern equivalent
/PATmp {			% patdict patmtx PATmp patinstance
  exch dup length 7 add		% We will add 6 new entries plus 1 FID
  dict copy			% Create a new dictionary
  begin
    % Matrix to install when painting the pattern
    TilingType PATtcalc
    /PatternGState PATcg def
    PatternGState /cm 3 -1 roll put
    % Check for multi pattern sources (Level 1 fast color patterns)
    currentdict /Multi known not { /Multi 1 def } if
    % Font dictionary definitions
    /FontType 3 def
    % Create a dummy encoding vector
    /Encoding 256 array def
    3 string 0 1 255 {
      Encoding exch dup 3 index cvs cvn put } for pop
    /FontMatrix matrix def
    /FontBBox BBox def
    /BuildChar {
	mark 3 1 roll		% mark dict char
	exch begin
	Multi 1 ne {PaintData exch get}{pop} ifelse  % mark [paintdata]
	  PaintType 2 eq Multi 1 ne or
	  { XStep 0 FontBBox aload pop setcachedevice }
	  { XStep 0 setcharwidth } ifelse
	  currentdict		% mark [paintdata] dict
	  /PaintProc load	% mark [paintdata] dict paintproc
	end
	gsave
	  false PATredef exec true PATredef
	grestore
	cleartomark		% -
    } bind def
    currentdict
  end				% newdict
  /foo exch			% /foo newlict
  definefont			% newfont
} bind def
% PATpcalc - calculates the starting point and width/height
% of the tile fill for the shape
/PATpcalc {	% - PATpcalc nw nh px py
  PATDict /CurrentPattern get begin
    gsave
	% Set up the coordinate system to Pattern Space
	% and lock down pattern
	PatternGState /cm get setmatrix
	BBox aload pop pop pop translate
	% Determine the bounding box of the shape
	pathbbox			% llx lly urx ury
    grestore
    % Determine (nw, nh) the # of cells to paint width and height
    PatHeight div ceiling		% llx lly urx qh
    4 1 roll				% qh llx lly urx
    PatWidth div ceiling		% qh llx lly qw
    4 1 roll				% qw qh llx lly
    PatHeight div floor			% qw qh llx ph
    4 1 roll				% ph qw qh llx
    PatWidth div floor			% ph qw qh pw
    4 1 roll				% pw ph qw qh
    2 index sub cvi abs			% pw ph qs qh-ph
    exch 3 index sub cvi abs exch	% pw ph nw=qw-pw nh=qh-ph
    % Determine the starting point of the pattern fill
    %(px, py)
    4 2 roll				% nw nh pw ph
    PatHeight mul			% nw nh pw py
    exch				% nw nh py pw
    PatWidth mul exch			% nw nh px py
  end
} bind def

% Save the original routines so that we can use them later on
/oldfill	/fill load def
/oldeofill	/eofill load def
/oldstroke	/stroke load def
/oldshow	/show load def
/oldashow	/ashow load def
/oldwidthshow	/widthshow load def
/oldawidthshow	/awidthshow load def
/oldkshow	/kshow load def

% These defs are necessary so that subsequent procs don't bind in
% the originals
/fill	   { oldfill } bind def
/eofill	   { oldeofill } bind def
/stroke	   { oldstroke } bind def
/show	   { oldshow } bind def
/ashow	   { oldashow } bind def
/widthshow { oldwidthshow } bind def
/awidthshow { oldawidthshow } bind def
/kshow 	   { oldkshow } bind def
/PATredef {
  MyAppDict begin
    {
    /fill { /clip load PATdraw newpath } bind def
    /eofill { /eoclip load PATdraw newpath } bind def
    /stroke { PATstroke } bind def
    /show { 0 0 null 0 0 6 -1 roll PATawidthshow } bind def
    /ashow { 0 0 null 6 3 roll PATawidthshow }
    bind def
    /widthshow { 0 0 3 -1 roll PATawidthshow }
    bind def
    /awidthshow { PATawidthshow } bind def
    /kshow { PATkshow } bind def
  } {
    /fill   { oldfill } bind def
    /eofill { oldeofill } bind def
    /stroke { oldstroke } bind def
    /show   { oldshow } bind def
    /ashow  { oldashow } bind def
    /widthshow { oldwidthshow } bind def
    /awidthshow { oldawidthshow } bind def
    /kshow  { oldkshow } bind def
    } ifelse
  end
} bind def
false PATredef
% Conditionally define setcmykcolor if not available
/setcmykcolor where { pop } {
  /setcmykcolor {
    1 sub 4 1 roll
    3 {
	3 index add neg dup 0 lt { pop 0 } if 3 1 roll
    } repeat
    setrgbcolor - pop
  } bind def
} ifelse
/PATsc {		% colorarray
  aload length		% c1 ... cn length
    dup 1 eq { pop setgray } { 3 eq { setrgbcolor } { setcmykcolor
  } ifelse } ifelse
} bind def
/PATsg {		% dict
  begin
    lw setlinewidth
    lc setlinecap
    lj setlinejoin
    ml setmiterlimit
    ds aload pop setdash
    cc aload pop setrgbcolor
    cm setmatrix
  end
} bind def

/PATDict 3 dict def
/PATsp {
  true PATredef
  PATDict begin
    /CurrentPattern exch def
    % If it's an uncolored pattern, save the color
    CurrentPattern /PaintType get 2 eq {
      /PColor exch def
    } if
    /CColor [ currentrgbcolor ] def
  end
} bind def
% PATstroke - stroke with the current pattern
/PATstroke {
  countdictstack
  save
  mark
  {
    currentpoint strokepath moveto
    PATpcalc				% proc nw nh px py
    clip newpath PATfill
    } stopped {
	(*** PATstroke Warning: Path is too complex, stroking
	  with gray) =
    cleartomark
    restore
    countdictstack exch sub dup 0 gt
	{ { end } repeat } { pop } ifelse
    gsave 0.5 setgray oldstroke grestore
  } { pop restore pop } ifelse
  newpath
} bind def
/PATtcalc {		% modmtx tilingtype PATtcalc tilematrix
  % Note: tiling types 2 and 3 are not supported
  gsave
    exch concat					% tilingtype
    matrix currentmatrix exch			% cmtx tilingtype
    % Tiling type 1 and 3: constant spacing
    2 ne {
	% Distort the pattern so that it occupies
	% an integral number of device pixels
	dup 4 get exch dup 5 get exch		% tx ty cmtx
	XStep 0 dtransform
	round exch round exch			% tx ty cmtx dx.x dx.y
	XStep div exch XStep div exch		% tx ty cmtx a b
	0 YStep dtransform
	round exch round exch			% tx ty cmtx a b dy.x dy.y
	YStep div exch YStep div exch		% tx ty cmtx a b c d
	7 -3 roll astore			% { a b c d tx ty }
    } if
  grestore
} bind def
/PATusp {
  false PATredef
  PATDict begin
    CColor PATsc
  end
} bind def

% horizontal lines
11 dict begin
/PaintType 1 def
/PatternType 1 def
/TilingType 1 def
/BBox [0 0 1 1] def
/XStep 1 def
/YStep 1 def
/PatWidth 1 def
/PatHeight 1 def
/Multi 2 def
/PaintData [
  { clippath } bind
  { 16 8 true [ 16 0 0 -8 0 8 ]
	{< ffff000000000000ffff000000000000>}
     imagemask } bind
] def
/PaintProc {
	pop
	exec fill
} def
currentdict
end
/P9 exch def
1.1111 1.1111 scale %restore scale

/cp {closepath} bind def
/ef {eofill} bind def
/gr {grestore} bind def
/gs {gsave} bind def
/sa {save} bind def
/rs {restore} bind def
/l {lineto} bind def
/m {moveto} bind def
/rm {rmoveto} bind def
/n {newpath} bind def
/s {stroke} bind def
/sh {show} bind def
/slc {setlinecap} bind def
/slj {setlinejoin} bind def
/slw {setlinewidth} bind def
/srgb {setrgbcolor} bind def
/rot {rotate} bind def
/sc {scale} bind def
/sd {setdash} bind def
/ff {findfont} bind def
/sf {setfont} bind def
/scf {scalefont} bind def
/sw {stringwidth} bind def
/tr {translate} bind def
/tnt {dup dup currentrgbcolor
  4 -2 roll dup 1 exch sub 3 -1 roll mul add
  4 -2 roll dup 1 exch sub 3 -1 roll mul add
  4 -2 roll dup 1 exch sub 3 -1 roll mul add srgb}
  bind def
/shd {dup dup currentrgbcolor 4 -2 roll mul 4 -2 roll mul
  4 -2 roll mul srgb} bind def
 /DrawEllipse {
	/endangle exch def
	/startangle exch def
	/yrad exch def
	/xrad exch def
	/y exch def
	/x exch def
	/savematrix mtrx currentmatrix def
	x y tr xrad yrad sc 0 0 1 startangle endangle arc
	closepath
	savematrix setmatrix
	} def

/$F2psBegin {$F2psDict begin /$F2psEnteredState save def} def
/$F2psEnd {$F2psEnteredState restore end} def

$F2psBegin
%%Page: 1 1
10 setmiterlimit
 0.06000 0.06000 sc
% Polyline
2 slj
7.500 slw
n 7725 5700 m 7500 5700 l 7500 5661 l 7725 5661 l
 cp gs col53 1.00 shd ef gr gs col0 s gr 
% Polyline
n 8550 5700 m 8325 5700 l 8325 5661 l 8550 5661 l
 cp gs col53 1.00 shd ef gr gs col0 s gr 
% Polyline
n 8550 5657 m 7500 5657 l 7500 3750 l 8550 3750 l
 cp gs col56 1.00 shd ef gr gs col0 s gr 
% Polyline
n 10500 5625 m 8850 5625 l 8625 6000 l 8625 6075 l 10725 6075 l 10725 6000 l

 cp gs col56 1.00 shd ef gr gs col0 s gr 
% Polyline
n 10125 5550 m 9225 5550 l 9225 5625 l 10125 5625 l
 cp gs col54 1.00 shd ef gr gs col0 s gr 
% Polyline
n 10050 5475 m 9300 5475 l 9300 5550 l 10050 5550 l
 cp gs col54 1.00 shd ef gr gs col0 s gr 
% Polyline
n 10575 3975 m 8775 3975 l 8775 5475 l 10575 5475 l
 cp gs col56 1.00 shd ef gr gs col0 s gr 
% Polyline
0 slj
1 slc
n 4650 4500 m 6900 4500 l 6900 4800 l 4650 4800 l
 cp gs col69 1.00 shd ef gr gs col0 s gr 
% Ellipse
n 5803 4650 22 22 0 360 DrawEllipse gs col0 s gr

% Polyline
1 slj
0 slc
0.000 slw
n 9150 4125 m 9300 4125 l 9300 5325 l 9150 5325 l
 cp gs col53 0.10 tnt ef gr 
7.500 slw
% Ellipse
n 5497 4650 22 22 0 360 DrawEllipse gs col0 s gr

% Polyline
0 slj
1 slc
n 5526 4613 m 5527 4620 l 5528 4629 l 5529 4639 l 5531 4650 l 5533 4660 l
 5536 4670 l 5538 4679 l 5541 4686 l 5544 4693 l 5548 4698 l
 5553 4701 l 5558 4703 l 5561 4704 l 5562 4704 l 5563 4704 l
 5567 4704 l 5578 4704 l 5597 4704 l 5621 4704 l 5650 4704 l
 5679 4704 l 5703 4704 l 5722 4704 l 5733 4704 l 5737 4704 l
 5738 4704 l 5739 4704 l 5742 4703 l 5747 4701 l 5752 4698 l
 5756 4693 l 5759 4686 l 5762 4679 l 5764 4670 l 5767 4660 l
 5769 4650 l 5771 4639 l 5772 4629 l 5773 4620 l 5774 4613 l
 5773 4608 l 5772 4604 l 5770 4600 l 5767 4598 l 5764 4596 l
 5761 4595 l 5759 4595 l 5758 4595 l 5755 4595 l 5746 4595 l
 5730 4595 l 5708 4595 l 5681 4595 l 5650 4595 l 5619 4595 l
 5592 4595 l 5570 4595 l 5554 4595 l 5545 4595 l 5542 4595 l
 5541 4595 l 5539 4595 l 5536 4596 l 5533 4598 l 5530 4600 l
 5528 4604 l 5527 4608 l
 cp gs col70 1.00 shd ef gr gs col0 s gr 
0.000 slw
% Ellipse
n 4800 4612 19 19 0 360 DrawEllipse gs col14 1.00 shd ef gr 
% Ellipse
n 4800 4687 19 19 0 360 DrawEllipse gs col14 1.00 shd ef gr 
% Ellipse
n 5400 4612 19 19 0 360 DrawEllipse gs col14 1.00 shd ef gr 
% Ellipse
n 5400 4687 19 19 0 360 DrawEllipse gs col14 1.00 shd ef gr 
% Polyline
1 slj
0 slc
n 10200 4125 m 10350 4125 l 10350 5325 l 10200 5325 l
 cp gs col53 0.65 tnt ef gr 
% Polyline
n 9000 4125 m 9150 4125 l 9150 5325 l 9000 5325 l
 cp gs col53 1.00 shd ef gr 
% Polyline
2 slj
1 slc
15.000 slw
n 8475 5325 m
 8025 5325 l gs col54 s gr 
% Polyline
n 8475 5250 m
 8025 5250 l gs col54 s gr 
% Polyline
n 8475 5175 m
 8025 5175 l gs col54 s gr 
% Polyline
n 8475 5100 m
 8025 5100 l gs col54 s gr 
% Polyline
n 8475 5025 m
 8025 5025 l gs col54 s gr 
% Polyline
n 8475 4950 m
 8025 4950 l gs col54 s gr 
% Polyline
n 8475 4875 m
 8025 4875 l gs col54 s gr 
% Arc
7.500 slw
0 slc
n 7712.0 4650.0 75.0 45.0 -135.0 arc
gs col54 s gr

% Arc
n 7712.0 4650.0 75.0 45.0 -135.0 arcn
gs col7 s gr

% Polyline
n 8475 4425 m 8475 3900 l
 7575 3900 l gs col54 s gr 
% Polyline
n 8475 4425 m 7875 4425 l 7875 4200 l 7575 4200 l
 7575 3900 l gs col7 s gr 
% Polyline
n 8400 4050 m 7650 4050 l
 7650 3933 l gs col54 s gr 
% Polyline
n 8400 4050 m 8400 3933 l
 7650 3933 l gs col7 s gr 
% Polyline
0.000 slw
n 7805 4134 m 7854 4134 l 7854 4107 l 7805 4107 l
 cp gs col55 1.00 shd ef gr 
% Polyline
n 7800 4121 m 7875 4121 l
 cp gs col7 1.00 shd ef gr 
% Polyline
1 slj
n 10050 4125 m 10200 4125 l 10200 5325 l 10050 5325 l
 cp gs col53 0.65 tnt ef gr 
% Polyline
2 slj
n 8144 4103 m 8107 4103 l 8107 4139 l 8144 4139 l
 cp gs col53 1.00 shd ef gr 
% Polyline
n 8182 4103 m 8144 4103 l 8144 4139 l 8182 4139 l
 cp gs col55 1.00 shd ef gr 
% Polyline
7.500 slw
n 7756 4140 m 7680 4140 l
 7680 4102 l gs col54 s gr 
% Polyline
n 7756 4140 m 7756 4102 l
 7680 4102 l gs col7 s gr 
% Polyline
n 8034 4387 m 8034 4350 l
 7953 4350 l gs col7 s gr 
% Ellipse
n 6172 4650 22 22 0 360 DrawEllipse gs col0 s gr

% Ellipse
n 6786 4650 22 22 0 360 DrawEllipse gs col0 s gr

% Polyline
0 slj
1 slc
n 6201 4613 m 6202 4620 l 6203 4629 l 6204 4639 l 6206 4650 l 6208 4660 l
 6211 4670 l 6213 4679 l 6216 4686 l 6219 4693 l 6223 4698 l
 6228 4701 l 6233 4703 l 6236 4704 l 6237 4704 l 6240 4704 l
 6248 4704 l 6261 4704 l 6281 4704 l 6308 4704 l 6342 4704 l
 6382 4704 l 6426 4704 l 6473 4704 l 6520 4704 l 6564 4704 l
 6604 4704 l 6638 4704 l 6665 4704 l 6685 4704 l 6698 4704 l
 6706 4704 l 6709 4704 l 6710 4704 l 6715 4703 l 6722 4701 l
 6729 4698 l 6735 4693 l 6739 4686 l 6743 4679 l 6747 4670 l
 6750 4660 l 6754 4650 l 6757 4639 l 6759 4629 l 6760 4620 l
 6761 4613 l 6761 4609 l 6760 4605 l 6758 4602 l 6756 4600 l
 6753 4598 l 6749 4597 l 6746 4596 l 6743 4595 l 6742 4595 l
 6739 4595 l 6733 4595 l 6722 4595 l 6704 4595 l 6681 4595 l
 6650 4595 l 6614 4595 l 6572 4595 l 6526 4595 l 6479 4595 l
 6432 4595 l 6386 4595 l 6344 4595 l 6308 4595 l 6277 4595 l
 6254 4595 l 6236 4595 l 6225 4595 l 6219 4595 l 6216 4595 l
 6214 4595 l 6211 4596 l 6208 4598 l 6205 4600 l 6203 4604 l
 6202 4608 l
 cp gs col70 1.00 shd ef gr gs col0 s gr 
% Ellipse
n 4897 4650 22 22 0 360 DrawEllipse gs col0 s gr

% Ellipse
n 5203 4650 22 22 0 360 DrawEllipse gs col0 s gr

% Polyline
2 slj
0 slc
0.000 slw
n 8182 4103 m 8219 4103 l 8219 4139 l 8182 4139 l
 cp gs col55 1.00 shd ef gr 
% Polyline
1 slc
15.000 slw
n 8475 5475 m
 8025 5475 l gs col54 s gr 
% Polyline
0 slc
7.500 slw
n 8276 4387 m 8075 4387 l 8075 4312 l 7913 4312 l
 7913 4274 l gs col7 s gr 
% Polyline
n 8438 4312 m
 8276 4312 l gs col7 s gr 
% Polyline
n 8075 4237 m
 8075 4274 l gs col7 s gr 
% Polyline
n 8075 4274 m
 7913 4274 l gs col54 s gr 
% Polyline
n 8276 4387 m 8276 4312 l
 8075 4312 l gs col54 s gr 
% Polyline
n 8438 4312 m 8438 4274 l 8276 4274 l 8276 4237 l
 8075 4237 l gs col54 s gr 
% Polyline
n 10725 6000 m 10725 6075 l 8625 6075 l
 8625 6000 l gs col55 1.00 shd ef gr gs col0 s gr 
% Polyline
0 slj
1 slc
n 4926 4613 m 4927 4620 l 4928 4629 l 4929 4639 l 4931 4650 l 4933 4660 l
 4936 4670 l 4938 4679 l 4941 4686 l 4944 4693 l 4948 4698 l
 4953 4701 l 4958 4703 l 4961 4704 l 4962 4704 l 4963 4704 l
 4967 4704 l 4978 4704 l 4997 4704 l 5021 4704 l 5050 4704 l
 5079 4704 l 5103 4704 l 5122 4704 l 5133 4704 l 5137 4704 l
 5138 4704 l 5139 4704 l 5142 4703 l 5147 4701 l 5152 4698 l
 5156 4693 l 5159 4686 l 5162 4679 l 5164 4670 l 5167 4660 l
 5169 4650 l 5171 4639 l 5172 4629 l 5173 4620 l 5174 4613 l
 5173 4608 l 5172 4604 l 5170 4600 l 5167 4598 l 5164 4596 l
 5161 4595 l 5159 4595 l 5158 4595 l 5155 4595 l 5146 4595 l
 5130 4595 l 5108 4595 l 5081 4595 l 5050 4595 l 5019 4595 l
 4992 4595 l 4970 4595 l 4954 4595 l 4945 4595 l 4942 4595 l
 4941 4595 l 4939 4595 l 4936 4596 l 4933 4598 l 4930 4600 l
 4928 4604 l 4927 4608 l
 cp gs col70 1.00 shd ef gr gs col0 s gr 
% Polyline
1 slj
0 slc
0.000 slw
n 9450 4125 m 9675 4125 l 9675 5325 l 9450 5325 l
 cp gs col53 0.30 tnt ef gr 
% Polyline
0 slj
7.500 slw
n 5925 4762 m 4725 4762 l 4725 4537 l 5925 4537 l
 cp gs col68 s gr 
% Polyline
1 slj
0.000 slw
n 9300 4125 m 9450 4125 l 9450 5325 l 9300 5325 l
 cp gs col53 0.20 tnt ef gr 
% Polyline
n 9675 4125 m 9900 4125 l 9900 5325 l 9675 5325 l
 cp gs col53 0.40 tnt ef gr 
% Polyline
n 9900 4125 m 10050 4125 l 10050 5325 l 9900 5325 l
 cp gs col53 0.50 tnt ef gr 
% Polyline
2 slj
7.500 slw
n 8034 4387 m 7953 4387 l
 7953 4350 l gs col54 s gr 
% Polyline
0.000 slw
n 10425 5700 m 10575 5925 l 9225 5925 l 9300 5700 l
 cp gs col7 1.00 shd ef gr 
% Polyline
1 slc
15.000 slw
n 8475 5400 m
 8025 5400 l gs col54 s gr 
% Polyline
0 slc
0.000 slw
n 8925 5700 m 9225 5700 l 9150 5925 l 8775 5925 l
 cp gs col7 1.00 shd ef gr 
% Polyline
0 slj
1 slc
15.000 slw
n 5671 4671 m 5673 4671 l gs col0 s gr
% Polyline
n 5627 4671 m 5629 4671 l gs col0 s gr
% Polyline
n 5714 4671 m 5716 4671 l gs col0 s gr
% Polyline
n 6236 4628 m 6238 4628 l gs col0 s gr
% Polyline
n 6545 4628 m 6547 4628 l gs col0 s gr
% Polyline
0 slc
0.000 slw
n 10425 5325 m 10424 5324 l 10421 5321 l 10414 5314 l 10402 5302 l 10387 5287 l
 10373 5273 l 10361 5261 l 10354 5254 l 10351 5251 l 10350 5250 l
 10350 5248 l 10350 5244 l 10350 5236 l 10350 5224 l 10350 5206 l
 10350 5182 l 10350 5153 l 10350 5117 l 10350 5075 l 10350 5027 l
 10350 4974 l 10350 4916 l 10350 4855 l 10350 4790 l 10350 4725 l
 10350 4660 l 10350 4595 l 10350 4534 l 10350 4476 l 10350 4423 l
 10350 4375 l 10350 4333 l 10350 4297 l 10350 4268 l 10350 4244 l
 10350 4226 l 10350 4214 l 10350 4206 l 10350 4202 l 10350 4200 l
 10351 4199 l 10354 4196 l 10361 4189 l 10373 4177 l 10388 4162 l
 10402 4148 l 10414 4136 l 10421 4129 l 10424 4126 l 10425 4125 l
 10425 4127 l 10425 4131 l 10425 4139 l 10425 4150 l 10425 4168 l
 10425 4190 l 10425 4219 l 10425 4254 l 10425 4296 l 10425 4343 l
 10425 4397 l 10425 4456 l 10425 4519 l 10425 4585 l 10425 4655 l
 10425 4725 l 10425 4795 l 10425 4865 l 10425 4931 l 10425 4994 l
 10425 5053 l 10425 5107 l 10425 5154 l 10425 5196 l 10425 5231 l
 10425 5260 l 10425 5282 l 10425 5300 l 10425 5311 l 10425 5319 l
 10425 5323 l
 cp gs col55 1.00 shd ef gr 
% Polyline
n 10350 4200 m 10349 4200 l 10346 4200 l 10341 4199 l 10334 4199 l 10324 4198 l
 10310 4197 l 10294 4195 l 10274 4194 l 10253 4192 l 10229 4191 l
 10202 4189 l 10175 4187 l 10145 4185 l 10115 4183 l 10083 4181 l
 10050 4180 l 10015 4178 l 9978 4176 l 9940 4175 l 9899 4174 l
 9856 4172 l 9810 4171 l 9762 4171 l 9712 4170 l 9660 4170 l
 9604 4170 l 9550 4171 l 9499 4172 l 9452 4173 l 9407 4174 l
 9366 4176 l 9327 4177 l 9291 4179 l 9256 4181 l 9223 4183 l
 9192 4185 l 9162 4187 l 9134 4189 l 9108 4191 l 9084 4193 l
 9063 4195 l 9045 4196 l 9030 4197 l 9018 4198 l 9010 4199 l
 9004 4200 l 9001 4200 l 9000 4200 l 8999 4199 l 8996 4196 l
 8989 4189 l 8977 4177 l 8962 4162 l 8948 4148 l 8936 4136 l
 8929 4129 l 8926 4126 l 8925 4125 l 8927 4125 l 8930 4125 l
 8937 4125 l 8948 4125 l 8964 4125 l 8985 4125 l 9012 4125 l
 9045 4125 l 9084 4125 l 9130 4125 l 9182 4125 l 9239 4125 l
 9303 4125 l 9371 4125 l 9443 4125 l 9519 4125 l 9596 4125 l
 9675 4125 l 9754 4125 l 9831 4125 l 9907 4125 l 9979 4125 l
 10047 4125 l 10111 4125 l 10168 4125 l 10220 4125 l 10266 4125 l
 10305 4125 l 10338 4125 l 10365 4125 l 10386 4125 l 10402 4125 l
 10413 4125 l 10420 4125 l 10423 4125 l 10425 4125 l 10424 4126 l
 10421 4129 l 10414 4136 l 10402 4148 l 10387 4163 l 10373 4177 l
 10361 4189 l 10354 4196 l 10351 4199 l
 cp gs col54 1.00 shd ef gr 
% Polyline
n 8925 5325 m 8926 5324 l 8929 5321 l 8936 5314 l 8948 5302 l 8963 5287 l
 8977 5273 l 8989 5261 l 8996 5254 l 8999 5251 l 9000 5250 l
 9000 5248 l 9000 5244 l 9000 5236 l 9000 5224 l 9000 5206 l
 9000 5182 l 9000 5153 l 9000 5117 l 9000 5075 l 9000 5027 l
 9000 4974 l 9000 4916 l 9000 4855 l 9000 4790 l 9000 4725 l
 9000 4660 l 9000 4595 l 9000 4534 l 9000 4476 l 9000 4423 l
 9000 4375 l 9000 4333 l 9000 4297 l 9000 4268 l 9000 4244 l
 9000 4226 l 9000 4214 l 9000 4206 l 9000 4202 l 9000 4200 l
 8999 4199 l 8996 4196 l 8989 4189 l 8977 4177 l 8962 4162 l
 8948 4148 l 8936 4136 l 8929 4129 l 8926 4126 l 8925 4125 l
 8925 4127 l 8925 4131 l 8925 4139 l 8925 4150 l 8925 4168 l
 8925 4190 l 8925 4219 l 8925 4254 l 8925 4296 l 8925 4343 l
 8925 4397 l 8925 4456 l 8925 4519 l 8925 4585 l 8925 4655 l
 8925 4725 l 8925 4795 l 8925 4865 l 8925 4931 l 8925 4994 l
 8925 5053 l 8925 5107 l 8925 5154 l 8925 5196 l 8925 5231 l
 8925 5260 l 8925 5282 l 8925 5300 l 8925 5311 l 8925 5319 l
 8925 5323 l
 cp gs col55 1.00 shd ef gr 
% Polyline
1 slc
15.000 slw
n 5693 4628 m 5695 4628 l gs col0 s gr
% Polyline
n 5114 4671 m 5116 4671 l gs col0 s gr
% Polyline
n 4961 4628 m 4963 4628 l gs col0 s gr
% Polyline
2 slj
0 slc
0.000 slw
n 10575 5925 m 9225 5925 l 9225 5952 l 10575 5952 l
 cp gs col54 1.00 shd ef gr 
% Polyline
n 10453 5700 m 10575 5925 l 10350 5925 l 10319 5850 l 10371 5850 l 10341 5775 l
 10389 5775 l 10350 5700 l
 cp gs col55 1.00 shd ef gr 
% Polyline
n 9225 5925 m 9450 5925 l 9450 5849 l 9401 5850 l 9409 5775 l 9375 5775 l
 9364 5775 l 9379 5700 l 9286 5700 l
 cp gs col55 1.00 shd ef gr 
% Polyline
0 slj
1 slc
15.000 slw
n 5005 4628 m 5007 4628 l gs col0 s gr
% Polyline
2 slj
0 slc
0.000 slw
n 8775 5925 m 8844 5925 l 8925 5745 l 9211 5745 l 9226 5700 l 8894 5700 l

 cp gs col55 1.00 shd ef gr 
% Polyline
n 9150 5925 m 8775 5925 l 8775 5951 l 9150 5951 l
 cp gs col54 1.00 shd ef gr 
% Polyline
n 9150 5926 m 9151 5953 l 9227 5722 l 9226 5701 l
 cp gs col54 1.00 shd ef gr 
% Polyline
0 slj
1 slc
15.000 slw
n 5071 4671 m 5073 4671 l gs col0 s gr
% Polyline
n 5027 4671 m 5029 4671 l gs col0 s gr
% Polyline
n 4984 4671 m 4986 4671 l gs col0 s gr
% Polyline
n 5137 4628 m 5139 4628 l gs col0 s gr
% Polyline
n 5093 4628 m 5095 4628 l gs col0 s gr
% Polyline
0 slc
0.000 slw
n 10350 5250 m 10349 5250 l 10346 5250 l 10341 5251 l 10334 5251 l 10324 5252 l
 10310 5253 l 10294 5255 l 10274 5256 l 10253 5258 l 10229 5259 l
 10202 5261 l 10175 5263 l 10145 5265 l 10115 5267 l 10083 5269 l
 10050 5270 l 10015 5272 l 9978 5274 l 9940 5275 l 9899 5276 l
 9856 5278 l 9810 5279 l 9762 5279 l 9712 5280 l 9660 5280 l
 9604 5280 l 9550 5279 l 9499 5278 l 9452 5277 l 9407 5276 l
 9366 5274 l 9327 5273 l 9291 5271 l 9256 5269 l 9223 5267 l
 9192 5265 l 9162 5263 l 9134 5261 l 9108 5259 l 9084 5257 l
 9063 5255 l 9045 5254 l 9030 5253 l 9018 5252 l 9010 5251 l
 9004 5250 l 9001 5250 l 9000 5250 l 8999 5251 l 8996 5254 l
 8989 5261 l 8977 5273 l 8962 5288 l 8948 5302 l 8936 5314 l
 8929 5321 l 8926 5324 l 8925 5325 l 8927 5325 l 8930 5325 l
 8937 5325 l 8948 5325 l 8964 5325 l 8985 5325 l 9012 5325 l
 9045 5325 l 9084 5325 l 9130 5325 l 9182 5325 l 9239 5325 l
 9303 5325 l 9371 5325 l 9443 5325 l 9519 5325 l 9596 5325 l
 9675 5325 l 9754 5325 l 9831 5325 l 9907 5325 l 9979 5325 l
 10047 5325 l 10111 5325 l 10168 5325 l 10220 5325 l 10266 5325 l
 10305 5325 l 10338 5325 l 10365 5325 l 10386 5325 l 10402 5325 l
 10413 5325 l 10420 5325 l 10423 5325 l 10425 5325 l 10424 5324 l
 10421 5321 l 10414 5314 l 10402 5302 l 10387 5287 l 10373 5273 l
 10361 5261 l 10354 5254 l 10351 5251 l
 cp gs col7 1.00 shd ef gr 
% Polyline
1 slc
15.000 slw
n 5049 4628 m 5051 4628 l gs col0 s gr
% Polyline
n 6567 4671 m 6569 4671 l gs col0 s gr
% Polyline
n 6523 4671 m 6525 4671 l gs col0 s gr
% Polyline
n 6479 4671 m 6481 4671 l gs col0 s gr
% Polyline
n 6434 4671 m 6436 4671 l gs col0 s gr
% Polyline
n 6589 4628 m 6591 4628 l gs col0 s gr
% Polyline
n 6633 4628 m 6635 4628 l gs col0 s gr
% Polyline
n 5649 4628 m 5651 4628 l gs col0 s gr
0.000 slw
% Ellipse
n 8311 4121 15 15 0 360 DrawEllipse gs col55 1.00 shd ef gr 
% Polyline
15.000 slw
n 6501 4628 m 6503 4628 l gs col0 s gr
% Polyline
n 6456 4628 m 6458 4628 l gs col0 s gr
% Polyline
n 6390 4671 m 6392 4671 l gs col0 s gr
% Polyline
n 6346 4671 m 6348 4671 l gs col0 s gr
% Polyline
n 6302 4671 m 6304 4671 l gs col0 s gr
% Polyline
n 6258 4671 m 6260 4671 l gs col0 s gr
% Polyline
n 6412 4628 m 6414 4628 l gs col0 s gr
% Polyline
n 6368 4628 m 6370 4628 l gs col0 s gr
% Polyline
n 6324 4628 m 6326 4628 l gs col0 s gr
% Polyline
n 6280 4628 m 6282 4628 l gs col0 s gr
% Polyline
n 6699 4671 m 6701 4671 l gs col0 s gr
% Polyline
n 6655 4671 m 6657 4671 l gs col0 s gr
% Polyline
n 6611 4671 m 6613 4671 l gs col0 s gr
% Polyline
n 6722 4628 m 6724 4628 l gs col0 s gr
% Polyline
n 5584 4671 m 5586 4671 l gs col0 s gr
% Polyline
n 6677 4628 m 6679 4628 l gs col0 s gr
% Polyline
n 5737 4628 m 5739 4628 l gs col0 s gr
% Polyline
n 5605 4628 m 5607 4628 l gs col0 s gr
% Polyline
n 5561 4628 m 5563 4628 l gs col0 s gr
0.000 slw
% Ellipse
n 8311 4121 26 26 0 360 DrawEllipse gs col53 1.00 shd ef gr 
% Polyline
0 slc
n 3502 6090 m 3502 6185 l 1320 6450 l 995 6111 l 1003 5972 l 1335 6318 l
 3510 6082 l
 cp gs col7 0.50 shd ef gr 
% Polyline
7.500 slw
n 3502 6059 m 2949 5780 l 1057 5938 l 1003 5972 l 1010 5993 l 1330 6318 l
 3506 6086 l 3506 6056 l
 cp gs col7 0.75 shd ef gr gs col-1 s gr 
% Ellipse
n 1187 5335 31 31 0 360 DrawEllipse gs col1 0.00 shd ef gr gs col-1 s gr

% Polyline
n 1050 5285 m 1585 5105 l 3200 5100 l 3240 5290 l
 cp gs col1 1.00 shd ef gr gs col-1 s gr 
% Polyline
n 1050 5530 m 1050 5280 l 3245 5295 l 3260 5455 l 1060 5530 l
 cp gs col1 0.75 shd ef gr gs col-1 s gr 
% Polyline
n 1075 5540 m 1075 5705 l 3270 5765 l 3260 5465 l 1070 5530 l
 cp gs col1 0.75 shd ef gr gs col-1 s gr 
% Polyline
n 4154 6058 m 4200 6150 l 3926 6150 l 3651 6150 l 3605 6150 l 3331 5967 l
 3331 5921 l 3651 6058 l
 cp gs col7 1.00 shd ef gr gs col-1 s gr 
% Polyline
n 4154 6013 m 3605 6013 l 3651 6058 l 4154 6058 l
 cp gs col7 1.00 shd ef gr gs col-1 s gr 
% Polyline
n 3651 6058 m 3605 5967 l 3376 5829 l 3331 5921 l 3651 6104 l
 cp gs col7 1.00 shd ef gr gs col-1 s gr 
% Polyline
n 3743 5875 m 3880 5875 l 3743 5829 l 3697 5829 l
 cp gs col7 1.00 shd ef gr gs col-1 s gr 
% Polyline
n 3651 5875 m 3559 5829 l 3651 5829 l 3743 5875 l
 cp gs col7 1.00 shd ef gr gs col-1 s gr 
% Polyline
n 3559 5829 m 3651 5875 l 3514 5875 l 3422 5829 l 3514 5829 l
 cp gs col7 1.00 shd ef gr gs col-1 s gr 
% Polyline
n 4154 5967 m 3926 5875 l 3514 5875 l 3422 5829 l 3376 5829 l 3651 6013 l
 4154 6013 l
 cp gs col7 1.00 shd ef gr gs col-1 s gr 
% Polyline
n 1365 3750 m 1330 5135 l 2890 5135 l 2925 3750 l 2890 3750 l
 cp gs col33 1.00 shd ef gr gs col-1 s gr 
% Polyline
n 2515 6171 m 2519 6086 l 2468 6068 l 2389 6072 l 2393 6142 l 2435 6176 l
 2504 6176 l
 cp gs col7 1.00 shd ef gr gs col-1 s gr 
% Polyline
n 3166 6005 m 3171 5920 l 3119 5902 l 3040 5904 l 3044 5974 l 3086 6007 l
 3156 6007 l
 cp gs col7 1.00 shd ef gr gs col-1 s gr 
% Polyline
n 1622 6186 m 1626 6101 l 1575 6082 l 1496 6086 l 1500 6157 l 1541 6190 l
 1610 6190 l
 cp gs col7 1.00 shd ef gr gs col-1 s gr 
% Polyline
n 1529 6194 m 1533 6109 l 1481 6091 l 1405 6095 l 1408 6165 l 1448 6198 l
 1519 6198 l
 cp gs col7 1.00 shd ef gr gs col-1 s gr 
% Polyline
n 2921 6021 m 2925 5937 l 2873 5918 l 2796 5921 l 2800 5990 l 2840 6024 l
 2910 6024 l
 cp gs col7 1.00 shd ef gr gs col-1 s gr 
% Polyline
n 3043 6013 m 3047 5928 l 2995 5910 l 2918 5914 l 2921 5984 l 2962 6017 l
 3032 6017 l
 cp gs col7 1.00 shd ef gr gs col-1 s gr 
% Polyline
n 2785 6024 m 2787 5939 l 2736 5921 l 2659 5924 l 2663 5995 l 2702 6028 l
 2773 6028 l
 cp gs col7 1.00 shd ef gr gs col-1 s gr 
% Polyline
n 1732 6182 m 1736 6097 l 1684 6080 l 1608 6082 l 1610 6153 l 1651 6186 l
 1722 6186 l
 cp gs col7 1.00 shd ef gr gs col-1 s gr 
% Polyline
n 2332 6124 m 2335 6039 l 2284 6020 l 2206 6024 l 2210 6095 l 2251 6128 l
 2320 6128 l
 cp gs col7 1.00 shd ef gr gs col-1 s gr 
% Polyline
n 2237 6131 m 2241 6047 l 2190 6028 l 2113 6031 l 2116 6101 l 2156 6134 l
 2227 6134 l
 cp gs col7 1.00 shd ef gr gs col-1 s gr 
% Polyline
n 2142 6146 m 2146 6062 l 2094 6043 l 2016 6047 l 2020 6115 l 2061 6149 l
 2132 6149 l
 cp gs col7 1.00 shd ef gr gs col-1 s gr 
% Polyline
n 2037 6157 m 2041 6072 l 1989 6053 l 1912 6057 l 1915 6128 l 1956 6161 l
 2026 6161 l
 cp gs col7 1.00 shd ef gr gs col-1 s gr 
% Polyline
n 1949 6163 m 1954 6079 l 1902 6060 l 1825 6064 l 1829 6132 l 1869 6166 l
 1939 6166 l
 cp gs col7 1.00 shd ef gr gs col-1 s gr 
% Polyline
n 1844 6176 m 1846 6091 l 1796 6072 l 1718 6076 l 1722 6146 l 1762 6180 l
 1831 6180 l
 cp gs col7 1.00 shd ef gr gs col-1 s gr 
% Polyline
n 2416 6113 m 2420 6028 l 2368 6010 l 2290 6013 l 2294 6082 l 2335 6115 l
 2404 6115 l
 cp gs col7 1.00 shd ef gr gs col-1 s gr 
% Polyline
30.000 slw
n 1781 3931 m 1802 3928 l 1825 3926 l 1849 3924 l 1875 3923 l 1902 3921 l
 1931 3920 l 1961 3919 l 1993 3918 l 2025 3917 l 2058 3917 l
 2092 3916 l 2127 3916 l 2161 3916 l 2196 3916 l 2230 3916 l
 2264 3917 l 2297 3917 l 2329 3918 l 2360 3919 l 2390 3919 l
 2418 3920 l 2445 3921 l 2471 3922 l 2494 3923 l 2517 3924 l
 2538 3925 l 2573 3927 l 2604 3929 l 2631 3931 l 2656 3933 l
 2677 3936 l 2694 3938 l 2709 3941 l 2721 3944 l 2730 3947 l
 2737 3950 l 2742 3953 l 2746 3956 l 2749 3960 l 2751 3963 l
 2754 3967 l 2756 3972 l 2759 3978 l 2762 3987 l 2765 3997 l
 2767 4010 l 2770 4027 l 2772 4046 l 2774 4068 l 2776 4093 l
 2778 4122 l 2779 4154 l 2780 4172 l 2781 4191 l 2781 4211 l
 2782 4233 l 2782 4256 l 2782 4280 l 2783 4305 l 2783 4331 l
 2783 4358 l 2783 4386 l 2783 4414 l 2783 4443 l 2783 4471 l
 2783 4499 l 2783 4527 l 2783 4554 l 2783 4580 l 2782 4605 l
 2782 4629 l 2782 4652 l 2781 4674 l 2781 4694 l 2780 4713 l
 2779 4731 l 2778 4763 l 2776 4792 l 2774 4817 l 2772 4839 l
 2769 4858 l 2766 4875 l 2763 4888 l 2760 4898 l 2756 4907 l
 2753 4913 l 2749 4918 l 2745 4922 l 2742 4926 l 2738 4929 l
 2732 4932 l 2726 4935 l 2717 4938 l 2707 4941 l 2693 4944 l
 2677 4946 l 2659 4949 l 2637 4951 l 2612 4953 l 2585 4955 l
 2554 4956 l 2520 4957 l 2500 4958 l 2478 4958 l 2456 4959 l
 2431 4959 l 2406 4960 l 2379 4960 l 2350 4960 l 2321 4961 l
 2290 4961 l 2259 4961 l 2227 4961 l 2195 4961 l 2162 4961 l
 2129 4961 l 2097 4961 l 2065 4961 l 2034 4961 l 2003 4961 l
 1974 4960 l 1945 4960 l 1918 4960 l 1893 4959 l 1868 4959 l
 1846 4958 l 1824 4958 l 1804 4957 l 1770 4956 l 1739 4955 l
 1712 4953 l 1687 4951 l 1665 4949 l 1647 4947 l 1631 4945 l
 1617 4942 l 1607 4940 l 1598 4937 l 1592 4935 l 1586 4933 l
 1582 4930 l 1579 4928 l 1575 4925 l 1571 4922 l 1567 4917 l
 1564 4911 l 1560 4903 l 1557 4892 l 1554 4878 l 1551 4861 l
 1549 4841 l 1547 4818 l 1545 4791 l 1544 4760 l 1543 4743 l
 1543 4725 l 1542 4705 l 1542 4684 l 1541 4661 l 1541 4637 l
 1541 4612 l 1540 4586 l 1540 4559 l 1540 4531 l 1540 4503 l
 1540 4474 l 1541 4445 l 1541 4417 l 1541 4388 l 1542 4360 l
 1543 4333 l 1543 4307 l 1544 4282 l 1545 4258 l 1546 4235 l
 1547 4213 l 1548 4192 l 1550 4173 l 1551 4156 l 1552 4139 l
 1554 4124 l 1556 4109 l 1558 4094 l 1561 4081 l 1564 4067 l
 1568 4055 l 1573 4042 l 1578 4031 l 1584 4020 l 1591 4010 l
 1598 4000 l 1607 3991 l 1616 3983 l 1626 3975 l 1637 3969 l
 1649 3962 l 1662 3957 l 1676 3952 l 1691 3947 l 1707 3943 l
 1724 3939 l 1741 3936 l 1760 3933 l
 cp gs col7 1.00 shd ef gr gs col-1 s gr 
% Polyline
7.500 slw
n 1476 6091 m 1476 6050 l 1436 6021 l 1351 6029 l 1351 6040 l 1376 6058 l
 1380 6096 l 1484 6091 l
 cp gs col7 1.00 shd ef gr gs col-1 s gr 
% Polyline
n 1949 6068 m 1949 6028 l 1910 5997 l 1825 6006 l 1825 6016 l 1850 6035 l
 1854 6072 l 1958 6068 l
 cp gs col7 1.00 shd ef gr gs col-1 s gr 
% Polyline
n 2132 6053 m 2132 6013 l 2090 5983 l 2005 5991 l 2005 6002 l 2032 6020 l
 2034 6057 l 2138 6053 l
 cp gs col7 1.00 shd ef gr gs col-1 s gr 
% Polyline
n 2227 6047 m 2227 6006 l 2185 5977 l 2101 5983 l 2101 5995 l 2127 6013 l
 2132 6049 l 2234 6047 l
 cp gs col7 1.00 shd ef gr gs col-1 s gr 
% Polyline
n 2337 6182 m 1618 6271 l 1610 6194 l 2316 6124 l 2341 6157 l 2341 6171 l

 cp gs col7 1.00 shd ef gr gs col-1 s gr 
% Polyline
n 1614 6266 m 1614 6225 l 1575 6196 l 1490 6202 l 1490 6214 l 1515 6232 l
 1519 6268 l 1622 6266 l
 cp gs col7 1.00 shd ef gr gs col-1 s gr 
% Polyline
n 1858 6072 m 1858 6031 l 1817 6002 l 1732 6010 l 1732 6020 l 1759 6039 l
 1762 6076 l 1865 6072 l
 cp gs col7 1.00 shd ef gr gs col-1 s gr 
% Polyline
n 2959 6090 m 2964 6005 l 2912 5987 l 2835 5989 l 2837 6059 l 2879 6092 l
 2949 6092 l
 cp gs col7 1.00 shd ef gr gs col-1 s gr 
% Polyline
n 2841 6115 m 2846 6030 l 2794 6012 l 2717 6016 l 2719 6086 l 2761 6119 l
 2831 6119 l
 cp gs col7 1.00 shd ef gr gs col-1 s gr 
% Polyline
n 3204 6082 m 3206 5997 l 3156 5978 l 3077 5983 l 3082 6053 l 3122 6086 l
 3191 6086 l
 cp gs col7 1.00 shd ef gr gs col-1 s gr 
% Polyline
n 1573 6087 m 1573 6047 l 1532 6017 l 1447 6025 l 1447 6036 l 1474 6054 l
 1476 6091 l 1579 6087 l
 cp gs col7 1.00 shd ef gr gs col-1 s gr 
% Polyline
n 1668 6080 m 1668 6040 l 1627 6011 l 1543 6017 l 1543 6029 l 1569 6047 l
 1573 6083 l 1676 6080 l
 cp gs col7 1.00 shd ef gr gs col-1 s gr 
% Polyline
n 1765 6080 m 1765 6039 l 1726 6010 l 1641 6016 l 1641 6028 l 1666 6047 l
 1670 6082 l 1773 6080 l
 cp gs col7 1.00 shd ef gr gs col-1 s gr 
% Polyline
n 2043 6062 m 2043 6020 l 2001 5991 l 1916 5997 l 1916 6010 l 1943 6028 l
 1947 6064 l 2049 6062 l
 cp gs col7 1.00 shd ef gr gs col-1 s gr 
% Polyline
n 3067 5904 m 3067 5864 l 3026 5835 l 2941 5842 l 2941 5854 l 2968 5871 l
 2970 5908 l 3073 5904 l
 cp gs col7 1.00 shd ef gr gs col-1 s gr 
% Polyline
n 2970 5906 m 2970 5866 l 2930 5837 l 2846 5843 l 2846 5854 l 2870 5872 l
 2875 5910 l 2978 5906 l
 cp gs col7 1.00 shd ef gr gs col-1 s gr 
% Polyline
n 2879 5921 m 2879 5881 l 2837 5852 l 2752 5858 l 2752 5870 l 2779 5887 l
 2783 5924 l 2886 5921 l
 cp gs col7 1.00 shd ef gr gs col-1 s gr 
% Polyline
n 2783 5924 m 2783 5885 l 2742 5854 l 2657 5862 l 2657 5872 l 2684 5891 l
 2686 5928 l 2790 5924 l
 cp gs col7 1.00 shd ef gr gs col-1 s gr 
% Polyline
n 2690 5937 m 2690 5895 l 2650 5866 l 2566 5872 l 2566 5885 l 2583 5941 l
 2624 5964 l 2699 5937 l
 cp gs col7 1.00 shd ef gr gs col-1 s gr 
% Polyline
n 2322 6028 m 2322 5987 l 2283 5958 l 2198 5964 l 2198 5977 l 2223 5995 l
 2227 6031 l 2330 6028 l
 cp gs col7 1.00 shd ef gr gs col-1 s gr 
% Polyline
n 1477 6020 m 1477 5979 l 1438 5950 l 1353 5958 l 1353 5968 l 1378 5987 l
 1382 6024 l 1486 6020 l
 cp gs col7 1.00 shd ef gr gs col-1 s gr 
% Polyline
n 1581 6020 m 1581 5979 l 1541 5950 l 1457 5958 l 1457 5968 l 1481 5987 l
 1486 6024 l 1589 6020 l
 cp gs col7 1.00 shd ef gr gs col-1 s gr 
% Polyline
n 1666 6013 m 1666 5973 l 1626 5944 l 1541 5950 l 1541 5962 l 1566 5979 l
 1570 6016 l 1674 6013 l
 cp gs col7 1.00 shd ef gr gs col-1 s gr 
% Polyline
n 1759 6013 m 1759 5973 l 1718 5944 l 1633 5950 l 1633 5962 l 1660 5979 l
 1662 6016 l 1765 6013 l
 cp gs col7 1.00 shd ef gr gs col-1 s gr 
% Polyline
n 1854 6006 m 1854 5964 l 1813 5935 l 1728 5944 l 1728 5954 l 1755 5973 l
 1759 6010 l 1862 6006 l
 cp gs col7 1.00 shd ef gr gs col-1 s gr 
% Polyline
n 1949 6002 m 1949 5962 l 1910 5931 l 1825 5939 l 1825 5950 l 1850 5968 l
 1854 6006 l 1958 6002 l
 cp gs col7 1.00 shd ef gr gs col-1 s gr 
% Polyline
n 2032 5991 m 2032 5950 l 1991 5921 l 1906 5929 l 1906 5939 l 1931 5958 l
 1935 5995 l 2038 5991 l
 cp gs col7 1.00 shd ef gr gs col-1 s gr 
% Polyline
n 2134 5987 m 2134 5946 l 2094 5917 l 2009 5925 l 2009 5935 l 2034 5954 l
 2038 5991 l 2142 5987 l
 cp gs col7 1.00 shd ef gr gs col-1 s gr 
% Polyline
n 1095 5555 m 1095 5680 l 1595 5695 l 1595 5540 l
 cp gs /PC [[0.00 0.00 1.00] [0.00 0.00 0.00]] def
15.00 15.00 sc P9 [16 0 0 -8 73.00 369.33] PATmp PATsp ef gr PATusp gs col-1 s gr 
% Polyline
n 1060 5390 m 1055 5510 l 1580 5500 l 1585 5390 l 1065 5395 l
 cp gs /PC [[0.00 0.00 1.00] [0.00 0.00 0.00]] def
15.00 15.00 sc P9 [16 0 0 -8 70.33 359.33] PATmp PATsp ef gr PATusp gs col-1 s gr 
% Polyline
n 1515 5304 m 1549 5365 l 1480 5365 l
 cp gs col1 0.00 shd ef gr gs col-1 s gr 
% Polyline
n 1425 5371 m 1459 5310 l 1390 5310 l
 cp gs col1 0.00 shd ef gr gs col-1 s gr 
% Polyline
n 1090 5325 m 1140 5325 l 1140 5345 l 1090 5345 l
 cp gs col2 1.00 shd ef gr gs col2 s gr 
% Polyline
n 2218 5975 m 2218 5934 l 2178 5905 l 2093 5912 l 2093 5923 l 2118 5942 l
 2122 5979 l 2226 5975 l
 cp gs col7 1.00 shd ef gr gs col-1 s gr 
% Polyline
15.000 slw
n 3515 6144 m 1312 6370 l
 1005 6067 l gs col-1 s gr 
% Polyline
7.500 slw
n 2434 6171 m 2434 6131 l 2392 6101 l 2308 6109 l 2308 6120 l 2334 6138 l
 2337 6176 l 2440 6171 l
 cp gs col7 1.00 shd ef gr gs col-1 s gr 
% Polyline
n 2925 3750 m 2890 5135 l 3075 5025 l 3075 3825 l
 cp gs col33 0.50 tnt ef gr gs col-1 s gr 
% Polyline
n 3082 6082 m 3086 5997 l 3034 5978 l 2955 5983 l 2959 6053 l 3001 6086 l
 3071 6086 l
 cp gs col7 1.00 shd ef gr gs col-1 s gr 
% Polyline
1 slj
30.000 slw
gs  clippath
5115 4635 m 4935 4635 l 4935 5075 l 5025 4715 l 5115 5075 l cp
3210 5310 m 3210 5490 l 3650 5490 l 3290 5400 l 3650 5310 l cp
eoclip
n 3225 5400 m 5025 5400 l
 5025 4650 l gs col0 s gr gr

% arrowhead
0 slj
n 3650 5310 m 3290 5400 l 3650 5490 l 3650 5310 l  cp gs 0.00 setgray ef gr  col0 s
% arrowhead
n 5115 5075 m 5025 4715 l 4935 5075 l 5115 5075 l  cp gs 0.00 setgray ef gr  col0 s
% Polyline
1 slj
gs  clippath
7515 5490 m 7515 5310 l 7075 5310 l 7435 5400 l 7075 5490 l cp
5715 4635 m 5535 4635 l 5535 5075 l 5625 4715 l 5715 5075 l cp
eoclip
n 5625 4650 m 5625 5400 l
 7500 5400 l gs col0 s gr gr

% arrowhead
0 slj
n 5715 5075 m 5625 4715 l 5535 5075 l 5715 5075 l  cp gs 0.00 setgray ef gr  col0 s
% arrowhead
n 7075 5490 m 7435 5400 l 7075 5310 l 7075 5490 l  cp gs 0.00 setgray ef gr  col0 s
/Times-Bold ff 270.00 scf sf
5775 4425 m
gs 1 -1 sc (R) col0 sh gr
/Times-Bold ff 270.00 scf sf
2100 4575 m
gs 1 -1 sc (A) col0 sh gr
/Times-Bold ff 270.00 scf sf
8100 4725 m
gs 1 -1 sc (B) col0 sh gr
$F2psEnd
rs
end
