#FIG 3.2
Landscape
Center
Inches
Letter  
100.00
Single
-2
1200 2
0 32 #8e8f8e
0 33 #8e8f8e
0 34 #8e8f8e
0 35 #808080
0 36 #404040
0 37 #808080
0 38 #404040
0 39 #404040
0 40 #404040
0 41 #808080
0 42 #c0c0c0
0 43 #e0e0e0
0 44 #404040
0 45 #808080
0 46 #c0c0c0
0 47 #e0e0e0
0 48 #404040
0 49 #808080
0 50 #c0c0c0
0 51 #e0e0e0
0 52 #8e8f8e
0 53 #404040
0 54 #808080
0 55 #c0c0c0
0 56 #e0e0e0
0 57 #aaaaaa
0 58 #555555
0 59 #404040
0 60 #808080
0 61 #c0c0c0
0 62 #808080
0 63 #c0c0c0
0 64 #e0e0e0
0 65 #c6b797
0 66 #eff8ff
0 67 #dccba6
0 68 #808080
0 69 #c0c0c0
0 70 #e0e0e0
0 71 #8e8e8e
0 72 #444444
0 73 #8e8e8e
0 74 #8e8e8e
0 75 #8e8e8e
0 76 #444444
0 77 #aaaaaa
0 78 #8e8e8e
0 79 #444444
0 80 #aaaaaa
0 81 #555555
0 82 #8e8e8e
0 83 #444444
0 84 #c0c0c0
0 85 #e0e0e0
0 86 #8e8e8e
0 87 #444444
0 88 #8e8e8e
0 89 #444444
0 90 #8e8e8e
0 91 #444444
0 92 #808080
0 93 #c0c0c0
0 94 #e0e0e0
0 95 #c0c0c0
0 96 #e0e0e0
# Network bridge
6 4650 4500 6900 4800
6 4650 4500 6900 4800
6 5475 4575 5850 4725
1 3 0 1 0 0 19 0 -1 0.000 1 0.0000 5497 4650 22 22 5497 4650 5475 4650
1 3 0 1 0 0 19 0 -1 0.000 1 0.0000 5803 4650 22 22 5803 4650 5781 4650
2 1 0 2 0 0 18 0 -1 6.000 0 1 7 0 0 1
	 5562 4628
2 1 0 2 0 0 18 0 -1 6.000 0 1 7 0 0 1
	 5606 4628
2 1 0 2 0 0 18 0 -1 6.000 0 1 7 0 0 1
	 5650 4628
2 1 0 2 0 0 18 0 -1 6.000 0 1 7 0 0 1
	 5694 4628
2 1 0 2 0 0 18 0 -1 6.000 0 1 7 0 0 1
	 5738 4628
2 1 0 2 0 0 18 0 -1 6.000 0 1 7 0 0 1
	 5585 4671
2 1 0 2 0 0 18 0 -1 6.000 0 1 7 0 0 1
	 5628 4671
2 1 0 2 0 0 18 0 -1 6.000 0 1 7 0 0 1
	 5672 4671
2 1 0 2 0 0 18 0 -1 6.000 0 1 7 0 0 1
	 5715 4671
3 5 0 1 0 70 19 0 20 0.000 1 0 0 8
	 5541 4595 5519 4595 5541 4704 5562 4704 5738 4704 5759 4704
	 5781 4595 5759 4595
	 0.000 1.000 1.000 0.000 0.000 1.000 1.000 0.000
-6
6 4725 4537 4875 4762
1 3 0 0 0 14 19 0 20 0.000 1 0.0000 4800 4612 19 19 4800 4612 4819 4612
1 3 0 0 0 14 19 0 20 0.000 1 0.0000 4800 4687 19 19 4800 4687 4819 4687
-6
6 5325 4537 5475 4762
1 3 0 0 0 14 19 0 20 0.000 1 0.0000 5400 4612 19 19 5400 4612 5419 4612
1 3 0 0 0 14 19 0 20 0.000 1 0.0000 5400 4687 19 19 5400 4687 5419 4687
-6
6 6150 4595 6808 4704
6 6222 4613 6738 4686
2 1 0 2 0 0 18 0 -1 6.000 0 1 7 0 0 1
	 6237 4628
2 1 0 2 0 0 18 0 -1 6.000 0 1 7 0 0 1
	 6634 4628
2 1 0 2 0 0 18 0 -1 6.000 0 1 7 0 0 1
	 6678 4628
2 1 0 2 0 0 18 0 -1 6.000 0 1 7 0 0 1
	 6723 4628
2 1 0 2 0 0 18 0 -1 6.000 0 1 7 0 0 1
	 6612 4671
2 1 0 2 0 0 18 0 -1 6.000 0 1 7 0 0 1
	 6656 4671
2 1 0 2 0 0 18 0 -1 6.000 0 1 7 0 0 1
	 6700 4671
2 1 0 2 0 0 18 0 -1 6.000 0 1 7 0 0 1
	 6281 4628
2 1 0 2 0 0 18 0 -1 6.000 0 1 7 0 0 1
	 6325 4628
2 1 0 2 0 0 18 0 -1 6.000 0 1 7 0 0 1
	 6369 4628
2 1 0 2 0 0 18 0 -1 6.000 0 1 7 0 0 1
	 6413 4628
2 1 0 2 0 0 18 0 -1 6.000 0 1 7 0 0 1
	 6259 4671
2 1 0 2 0 0 18 0 -1 6.000 0 1 7 0 0 1
	 6303 4671
2 1 0 2 0 0 18 0 -1 6.000 0 1 7 0 0 1
	 6347 4671
2 1 0 2 0 0 18 0 -1 6.000 0 1 7 0 0 1
	 6391 4671
2 1 0 2 0 0 18 0 -1 6.000 0 1 7 0 0 1
	 6457 4628
2 1 0 2 0 0 18 0 -1 6.000 0 1 7 0 0 1
	 6502 4628
2 1 0 2 0 0 18 0 -1 6.000 0 1 7 0 0 1
	 6546 4628
2 1 0 2 0 0 18 0 -1 6.000 0 1 7 0 0 1
	 6590 4628
2 1 0 2 0 0 18 0 -1 6.000 0 1 7 0 0 1
	 6435 4671
2 1 0 2 0 0 18 0 -1 6.000 0 1 7 0 0 1
	 6480 4671
2 1 0 2 0 0 18 0 -1 6.000 0 1 7 0 0 1
	 6524 4671
2 1 0 2 0 0 18 0 -1 6.000 0 1 7 0 0 1
	 6568 4671
-6
1 3 0 1 0 0 19 0 -1 0.000 1 0.0000 6172 4650 22 22 6172 4650 6150 4650
1 3 0 1 0 0 19 0 -1 0.000 1 0.0000 6786 4650 22 22 6786 4650 6764 4650
3 5 0 1 0 70 19 0 20 0.000 1 0 0 8
	 6216 4595 6194 4595 6216 4704 6237 4704 6709 4704 6739 4704
	 6771 4595 6742 4595
	 0.000 1.000 1.000 0.000 0.000 1.000 1.000 0.000
-6
6 4875 4575 5250 4725
1 3 0 1 0 0 19 0 -1 0.000 1 0.0000 4897 4650 22 22 4897 4650 4875 4650
1 3 0 1 0 0 19 0 -1 0.000 1 0.0000 5203 4650 22 22 5203 4650 5181 4650
2 1 0 2 0 0 18 0 -1 6.000 0 1 7 0 0 1
	 4962 4628
2 1 0 2 0 0 18 0 -1 6.000 0 1 7 0 0 1
	 5006 4628
2 1 0 2 0 0 18 0 -1 6.000 0 1 7 0 0 1
	 5050 4628
2 1 0 2 0 0 18 0 -1 6.000 0 1 7 0 0 1
	 5094 4628
2 1 0 2 0 0 18 0 -1 6.000 0 1 7 0 0 1
	 5138 4628
2 1 0 2 0 0 18 0 -1 6.000 0 1 7 0 0 1
	 4985 4671
2 1 0 2 0 0 18 0 -1 6.000 0 1 7 0 0 1
	 5028 4671
2 1 0 2 0 0 18 0 -1 6.000 0 1 7 0 0 1
	 5072 4671
2 1 0 2 0 0 18 0 -1 6.000 0 1 7 0 0 1
	 5115 4671
3 5 0 1 0 70 19 0 20 0.000 1 0 0 8
	 4941 4595 4919 4595 4941 4704 4962 4704 5138 4704 5159 4704
	 5181 4595 5159 4595
	 0.000 1.000 1.000 0.000 0.000 1.000 1.000 0.000
-6
2 2 0 1 0 69 20 0 20 0.000 0 1 -1 0 0 5
	 4650 4500 6900 4500 6900 4800 4650 4800 4650 4500
2 2 0 1 68 14 19 0 -1 0.000 0 0 5 0 0 5
	 5925 4762 4725 4762 4725 4537 5925 4537 5925 4762
-6
-6
# Mini-tower computer
6 7500 3750 10725 6075
6 8775 3975 10575 5625
2 2 0 1 0 56 20 0 20 0.000 2 0 7 0 0 5
	 10575 3975 8775 3975 8775 5475 10575 5475 10575 3975
2 2 0 0 0 53 19 0 22 0.000 1 0 -1 0 0 5
	 9150 4125 9300 4125 9300 5325 9150 5325 9150 4125
2 2 0 0 0 53 19 0 24 0.000 1 0 -1 0 0 5
	 9300 4125 9450 4125 9450 5325 9300 5325 9300 4125
2 2 0 0 0 53 19 0 26 0.000 1 0 -1 0 0 5
	 9450 4125 9675 4125 9675 5325 9450 5325 9450 4125
2 2 0 0 0 53 19 0 28 0.000 1 0 -1 0 0 5
	 9675 4125 9900 4125 9900 5325 9675 5325 9675 4125
2 2 0 0 0 53 19 0 30 0.000 1 0 -1 0 0 5
	 9900 4125 10050 4125 10050 5325 9900 5325 9900 4125
2 2 0 0 0 53 19 0 33 0.000 1 0 -1 0 0 5
	 10050 4125 10200 4125 10200 5325 10050 5325 10050 4125
2 2 0 0 0 53 19 0 33 0.000 1 0 -1 0 0 5
	 10200 4125 10350 4125 10350 5325 10200 5325 10200 4125
2 2 0 0 0 53 19 0 20 0.000 1 0 7 0 0 5
	 9000 4125 9150 4125 9150 5325 9000 5325 9000 4125
2 2 0 1 0 54 20 0 20 0.000 2 0 7 0 0 5
	 10050 5475 9300 5475 9300 5550 10050 5550 10050 5475
2 2 0 1 0 54 20 0 20 0.000 2 0 -1 0 0 5
	 10125 5550 9225 5550 9225 5625 10125 5625 10125 5550
3 5 0 0 0 7 18 0 20 0.000 0 0 0 5
	 10425 5325 10350 5250 9660 5280 9000 5250 8925 5325
	 0.000 0.000 -1.000 0.000 0.000
3 5 0 0 0 55 18 0 20 0.000 0 0 0 4
	 10425 4125 10425 5325 10350 5250 10350 4200
	 0.000 0.000 0.000 0.000
3 5 0 0 0 54 18 0 20 0.000 0 0 0 5
	 10425 4125 10350 4200 9660 4170 9000 4200 8925 4125
	 0.000 0.000 -1.000 0.000 0.000
3 5 0 0 0 55 18 0 20 0.000 0 0 0 4
	 8925 4125 8925 5325 9000 5250 9000 4200
	 0.000 0.000 0.000 0.000
-6
6 8625 5625 10725 6075
2 3 0 1 0 56 20 0 20 0.000 2 0 7 0 0 7
	 10500 5625 8850 5625 8625 6000 8625 6075 10725 6075 10725 6000
	 10500 5625
2 1 0 1 0 55 19 0 20 0.000 2 0 -1 0 0 4
	 10725 6000 10725 6075 8625 6075 8625 6000
2 3 0 0 0 7 19 0 20 0.000 2 0 -1 0 0 5
	 10425 5700 10575 5925 9225 5925 9300 5700 10425 5700
2 2 0 0 0 54 18 0 20 0.000 2 0 -1 0 0 5
	 10575 5925 9225 5925 9225 5952 10575 5952 10575 5925
2 3 0 0 0 55 18 0 20 0.000 2 0 -1 0 0 9
	 10453 5700 10575 5925 10350 5925 10319 5850 10371 5850 10341 5775
	 10389 5775 10350 5700 10453 5700
2 3 0 0 0 55 18 0 20 0.000 2 0 -1 0 0 10
	 9225 5925 9450 5925 9450 5849 9401 5850 9409 5775 9375 5775
	 9364 5775 9379 5700 9286 5700 9225 5925
2 3 0 0 0 7 19 0 20 0.000 2 0 -1 0 0 5
	 8925 5700 9225 5700 9150 5925 8775 5925 8925 5700
2 3 0 0 0 55 18 0 20 0.000 2 0 -1 0 0 7
	 8775 5925 8844 5925 8925 5745 9211 5745 9226 5700 8894 5700
	 8775 5925
2 2 0 0 0 54 18 0 20 0.000 2 0 -1 0 0 5
	 9150 5925 8775 5925 8775 5951 9150 5951 9150 5925
2 3 0 0 0 54 18 0 20 0.000 2 0 -1 0 0 5
	 9150 5926 9151 5953 9227 5722 9226 5701 9150 5926
-6
6 7500 3750 8550 5700
6 7575 3900 8475 4425
6 7913 4237 8438 4387
2 1 0 1 54 -1 19 0 -1 0.000 2 0 -1 0 0 5
	 8438 4312 8438 4274 8276 4274 8276 4237 8075 4237
2 1 0 1 54 -1 19 0 -1 0.000 2 0 -1 0 0 3
	 8276 4387 8276 4312 8075 4312
2 1 0 1 54 -1 19 0 -1 0.000 2 0 -1 0 0 2
	 8075 4274 7913 4274
2 1 0 1 7 -1 19 0 -1 0.000 2 0 -1 0 0 2
	 8075 4237 8075 4274
2 1 0 1 7 -1 19 0 -1 0.000 2 0 -1 0 0 2
	 8438 4312 8276 4312
2 1 0 1 7 -1 19 0 -1 0.000 2 0 -1 0 0 5
	 8276 4387 8075 4387 8075 4312 7913 4312 7913 4274
2 1 0 1 54 -1 19 0 -1 0.000 2 0 -1 0 0 3
	 8034 4387 7953 4387 7953 4350
2 1 0 1 7 -1 19 0 -1 0.000 2 0 -1 0 0 3
	 8034 4387 8034 4350 7953 4350
-6
6 7680 4095 8337 4147
6 7680 4102 7756 4140
2 1 0 1 7 54 19 0 -1 0.000 2 0 -1 0 0 3
	 7756 4140 7756 4102 7680 4102
2 1 0 1 54 -1 19 0 -1 0.000 2 0 -1 0 0 3
	 7756 4140 7680 4140 7680 4102
-6
6 8107 4103 8219 4139
2 2 0 0 54 55 19 0 20 0.000 2 0 -1 0 0 5
	 8182 4103 8144 4103 8144 4139 8182 4139 8182 4103
2 2 0 0 54 53 19 0 20 0.000 2 0 -1 0 0 5
	 8144 4103 8107 4103 8107 4139 8144 4139 8144 4103
2 2 0 0 54 55 19 0 20 0.000 2 0 -1 0 0 5
	 8182 4103 8219 4103 8219 4139 8182 4139 8182 4103
-6
6 8285 4095 8337 4147
1 3 0 0 0 53 18 0 20 0.000 0 -0.0000 8311 4121 26 26 8311 4121 8311 4147
1 3 0 0 54 55 18 0 20 0.000 0 -0.0000 8311 4121 15 15 8311 4121 8307 4135
-6
2 2 0 0 54 7 19 0 20 0.000 2 0 -1 0 0 3
	 7800 4121 7875 4121 7800 4121
2 2 0 0 54 55 19 0 20 0.000 2 0 -1 0 0 5
	 7805 4134 7854 4134 7854 4107 7805 4107 7805 4134
-6
6 7650 3933 8400 4050
2 1 0 1 7 54 19 0 -1 0.000 2 0 -1 0 0 3
	 8400 4050 8400 3933 7650 3933
2 1 0 1 54 -1 19 0 -1 0.000 2 0 -1 0 0 3
	 8400 4050 7650 4050 7650 3933
-6
2 1 0 1 7 7 19 0 -1 0.000 2 0 -1 0 0 5
	 8475 4425 7875 4425 7875 4200 7575 4200 7575 3900
2 1 0 1 54 7 19 0 -1 0.000 2 0 -1 0 0 3
	 8475 4425 8475 3900 7575 3900
-6
6 7575 4500 7800 4725
5 1 0 1 7 7 19 0 -1 0.000 0 1 0 0 7712.000 4650.000 7765 4703 7765 4597 7659 4597
5 1 0 1 54 7 19 0 -1 0.000 0 0 0 0 7712.000 4650.000 7765 4703 7659 4703 7659 4597
-6
6 7950 4800 8550 5550
2 1 0 2 54 7 19 0 -1 0.000 2 1 -1 0 0 2
	 8475 4875 8025 4875
2 1 0 2 54 7 19 0 -1 0.000 2 1 -1 0 0 2
	 8475 4950 8025 4950
2 1 0 2 54 7 19 0 -1 0.000 2 1 -1 0 0 2
	 8475 5025 8025 5025
2 1 0 2 54 7 19 0 -1 0.000 2 1 -1 0 0 2
	 8475 5100 8025 5100
2 1 0 2 54 7 19 0 -1 0.000 2 1 -1 0 0 2
	 8475 5175 8025 5175
2 1 0 2 54 7 19 0 -1 0.000 2 1 -1 0 0 2
	 8475 5250 8025 5250
2 1 0 2 54 7 19 0 -1 0.000 2 1 -1 0 0 2
	 8475 5325 8025 5325
2 1 0 2 54 7 19 0 -1 0.000 2 1 -1 0 0 2
	 8475 5400 8025 5400
2 1 0 2 54 7 19 0 -1 0.000 2 1 -1 0 0 2
	 8475 5475 8025 5475
-6
2 2 0 1 0 53 20 0 20 0.000 2 0 -1 0 0 5
	 8550 5700 8325 5700 8325 5661 8550 5661 8550 5700
2 2 0 1 0 53 20 0 20 0.000 2 0 -1 0 0 5
	 7725 5700 7500 5700 7500 5661 7725 5661 7725 5700
2 2 0 1 0 56 20 0 20 0.000 2 0 -1 0 0 5
	 8550 5657 7500 5657 7500 3750 8550 3750 8550 5657
-6
-6
# Desktop computer
6 975 3750 4200 6450
6 975 5775 3600 6450
2 1 0 2 -1 7 0 0 -1 0.000 0 0 -1 0 0 3
	 3515 6144 1312 6370 1005 6067
2 3 0 0 -1 7 5 0 10 0.000 0 0 -1 0 0 8
	 3502 6090 3502 6185 1320 6450 995 6111 1003 5972 1335 6318
	 3510 6082 3502 6090
2 3 0 1 -1 7 5 0 15 0.000 0 0 -1 0 0 9
	 3502 6059 2949 5780 1057 5938 1003 5972 1010 5993 1330 6318
	 3506 6086 3506 6056 3502 6059
2 3 0 1 -1 7 0 0 20 0.000 0 0 -1 0 0 9
	 2218 5975 2218 5934 2178 5905 2093 5912 2093 5923 2118 5942
	 2122 5979 2226 5975 2218 5975
2 3 0 1 -1 7 0 0 20 0.000 0 0 -1 0 0 9
	 2134 5987 2134 5946 2094 5917 2009 5925 2009 5935 2034 5954
	 2038 5991 2142 5987 2134 5987
2 3 0 1 -1 7 0 0 20 0.000 0 0 -1 0 0 9
	 2032 5991 2032 5950 1991 5921 1906 5929 1906 5939 1931 5958
	 1935 5995 2038 5991 2032 5991
2 3 0 1 -1 7 0 0 20 0.000 0 0 -1 0 0 9
	 1949 6002 1949 5962 1910 5931 1825 5939 1825 5950 1850 5968
	 1854 6006 1958 6002 1949 6002
2 3 0 1 -1 7 0 0 20 0.000 0 0 -1 0 0 9
	 1854 6006 1854 5964 1813 5935 1728 5944 1728 5954 1755 5973
	 1759 6010 1862 6006 1854 6006
2 3 0 1 -1 7 0 0 20 0.000 0 0 -1 0 0 9
	 1759 6013 1759 5973 1718 5944 1633 5950 1633 5962 1660 5979
	 1662 6016 1765 6013 1759 6013
2 3 0 1 -1 7 0 0 20 0.000 0 0 -1 0 0 9
	 1666 6013 1666 5973 1626 5944 1541 5950 1541 5962 1566 5979
	 1570 6016 1674 6013 1666 6013
2 3 0 1 -1 7 0 0 20 0.000 0 0 -1 0 0 9
	 1581 6020 1581 5979 1541 5950 1457 5958 1457 5968 1481 5987
	 1486 6024 1589 6020 1581 6020
2 3 0 1 -1 7 0 0 20 0.000 0 0 -1 0 0 9
	 1477 6020 1477 5979 1438 5950 1353 5958 1353 5968 1378 5987
	 1382 6024 1486 6020 1477 6020
2 3 0 1 -1 7 0 0 20 0.000 0 0 -1 0 0 9
	 2322 6028 2322 5987 2283 5958 2198 5964 2198 5977 2223 5995
	 2227 6031 2330 6028 2322 6028
2 3 0 1 -1 7 0 0 20 0.000 0 0 -1 0 0 9
	 2227 6047 2227 6006 2185 5977 2101 5983 2101 5995 2127 6013
	 2132 6049 2234 6047 2227 6047
2 3 0 1 -1 7 0 0 20 0.000 0 0 -1 0 0 9
	 2132 6053 2132 6013 2090 5983 2005 5991 2005 6002 2032 6020
	 2034 6057 2138 6053 2132 6053
2 3 0 1 -1 7 0 0 20 0.000 0 0 -1 0 0 9
	 2043 6062 2043 6020 2001 5991 1916 5997 1916 6010 1943 6028
	 1947 6064 2049 6062 2043 6062
2 3 0 1 -1 7 0 0 20 0.000 0 0 -1 0 0 9
	 1949 6068 1949 6028 1910 5997 1825 6006 1825 6016 1850 6035
	 1854 6072 1958 6068 1949 6068
2 3 0 1 -1 7 0 0 20 0.000 0 0 -1 0 0 9
	 1858 6072 1858 6031 1817 6002 1732 6010 1732 6020 1759 6039
	 1762 6076 1865 6072 1858 6072
2 3 0 1 -1 7 0 0 20 0.000 0 0 -1 0 0 9
	 1765 6080 1765 6039 1726 6010 1641 6016 1641 6028 1666 6047
	 1670 6082 1773 6080 1765 6080
2 3 0 1 -1 7 0 0 20 0.000 0 0 -1 0 0 9
	 1668 6080 1668 6040 1627 6011 1543 6017 1543 6029 1569 6047
	 1573 6083 1676 6080 1668 6080
2 3 0 1 -1 7 0 0 20 0.000 0 0 -1 0 0 9
	 1573 6087 1573 6047 1532 6017 1447 6025 1447 6036 1474 6054
	 1476 6091 1579 6087 1573 6087
2 3 0 1 -1 7 0 0 20 0.000 0 0 -1 0 0 9
	 1476 6091 1476 6050 1436 6021 1351 6029 1351 6040 1376 6058
	 1380 6096 1484 6091 1476 6091
2 3 0 1 -1 7 1 0 20 0.000 0 0 -1 0 0 8
	 2332 6124 2335 6039 2284 6020 2206 6024 2210 6095 2251 6128
	 2320 6128 2332 6124
2 3 0 1 -1 7 1 0 20 0.000 0 0 -1 0 0 8
	 2237 6131 2241 6047 2190 6028 2113 6031 2116 6101 2156 6134
	 2227 6134 2237 6131
2 3 0 1 -1 7 1 0 20 0.000 0 0 -1 0 0 8
	 2142 6146 2146 6062 2094 6043 2016 6047 2020 6115 2061 6149
	 2132 6149 2142 6146
2 3 0 1 -1 7 1 0 20 0.000 0 0 -1 0 0 8
	 2037 6157 2041 6072 1989 6053 1912 6057 1915 6128 1956 6161
	 2026 6161 2037 6157
2 3 0 1 -1 7 1 0 20 0.000 0 0 -1 0 0 8
	 1949 6163 1954 6079 1902 6060 1825 6064 1829 6132 1869 6166
	 1939 6166 1949 6163
2 3 0 1 -1 7 1 0 20 0.000 0 0 -1 0 0 8
	 1844 6176 1846 6091 1796 6072 1718 6076 1722 6146 1762 6180
	 1831 6180 1844 6176
2 3 0 1 -1 7 1 0 20 0.000 0 0 -1 0 0 8
	 1732 6182 1736 6097 1684 6080 1608 6082 1610 6153 1651 6186
	 1722 6186 1732 6182
2 3 0 1 -1 7 1 0 20 0.000 0 0 -1 0 0 8
	 1622 6186 1626 6101 1575 6082 1496 6086 1500 6157 1541 6190
	 1610 6190 1622 6186
2 3 0 1 -1 7 1 0 20 0.000 0 0 -1 0 0 8
	 1529 6194 1533 6109 1481 6091 1405 6095 1408 6165 1448 6198
	 1519 6198 1529 6194
2 3 0 1 -1 7 1 0 20 0.000 0 0 -1 0 0 8
	 2416 6113 2420 6028 2368 6010 2290 6013 2294 6082 2335 6115
	 2404 6115 2416 6113
2 3 0 1 -1 7 1 0 20 0.000 0 0 -1 0 0 8
	 2515 6171 2519 6086 2468 6068 2389 6072 2393 6142 2435 6176
	 2504 6176 2515 6171
2 3 0 1 -1 7 0 0 20 0.000 0 0 -1 0 0 9
	 2434 6171 2434 6131 2392 6101 2308 6109 2308 6120 2334 6138
	 2337 6176 2440 6171 2434 6171
2 3 0 1 -1 7 0 0 20 0.000 0 0 -1 0 0 7
	 2337 6182 1618 6271 1610 6194 2316 6124 2341 6157 2341 6171
	 2337 6182
2 3 0 1 -1 7 0 0 20 0.000 0 0 -1 0 0 9
	 1614 6266 1614 6225 1575 6196 1490 6202 1490 6214 1515 6232
	 1519 6268 1622 6266 1614 6266
2 3 0 1 -1 7 0 0 20 0.000 0 0 -1 0 0 8
	 3082 6082 3086 5997 3034 5978 2955 5983 2959 6053 3001 6086
	 3071 6086 3082 6082
2 3 0 1 -1 7 0 0 20 0.000 0 0 -1 0 0 8
	 2959 6090 2964 6005 2912 5987 2835 5989 2837 6059 2879 6092
	 2949 6092 2959 6090
2 3 0 1 -1 7 0 0 20 0.000 0 0 -1 0 0 8
	 2841 6115 2846 6030 2794 6012 2717 6016 2719 6086 2761 6119
	 2831 6119 2841 6115
2 3 0 1 -1 7 0 0 20 0.000 0 0 -1 0 0 8
	 3204 6082 3206 5997 3156 5978 3077 5983 3082 6053 3122 6086
	 3191 6086 3204 6082
2 3 0 1 -1 7 1 0 20 0.000 0 0 -1 0 0 8
	 3166 6005 3171 5920 3119 5902 3040 5904 3044 5974 3086 6007
	 3156 6007 3166 6005
2 3 0 1 -1 7 1 0 20 0.000 0 0 -1 0 0 8
	 3043 6013 3047 5928 2995 5910 2918 5914 2921 5984 2962 6017
	 3032 6017 3043 6013
2 3 0 1 -1 7 1 0 20 0.000 0 0 -1 0 0 8
	 2921 6021 2925 5937 2873 5918 2796 5921 2800 5990 2840 6024
	 2910 6024 2921 6021
2 3 0 1 -1 7 1 0 20 0.000 0 0 -1 0 0 8
	 2785 6024 2787 5939 2736 5921 2659 5924 2663 5995 2702 6028
	 2773 6028 2785 6024
2 3 0 1 -1 7 0 0 20 0.000 0 0 -1 0 0 9
	 3067 5904 3067 5864 3026 5835 2941 5842 2941 5854 2968 5871
	 2970 5908 3073 5904 3067 5904
2 3 0 1 -1 7 0 0 20 0.000 0 0 -1 0 0 9
	 2970 5906 2970 5866 2930 5837 2846 5843 2846 5854 2870 5872
	 2875 5910 2978 5906 2970 5906
2 3 0 1 -1 7 0 0 20 0.000 0 0 -1 0 0 9
	 2879 5921 2879 5881 2837 5852 2752 5858 2752 5870 2779 5887
	 2783 5924 2886 5921 2879 5921
2 3 0 1 -1 7 0 0 20 0.000 0 0 -1 0 0 9
	 2783 5924 2783 5885 2742 5854 2657 5862 2657 5872 2684 5891
	 2686 5928 2790 5924 2783 5924
2 3 0 1 -1 7 0 0 20 0.000 0 0 -1 0 0 9
	 2690 5937 2690 5895 2650 5866 2566 5872 2566 5885 2583 5941
	 2624 5964 2699 5937 2690 5937
-6
6 3331 5829 4200 6150
2 3 0 1 -1 7 2 0 20 0.000 0 0 -1 0 0 8
	 4154 5967 3926 5875 3514 5875 3422 5829 3376 5829 3651 6013
	 4154 6013 4154 5967
2 3 0 1 -1 7 2 0 20 0.000 0 0 -1 0 0 6
	 3559 5829 3651 5875 3514 5875 3422 5829 3514 5829 3559 5829
2 3 0 1 -1 7 2 0 20 0.000 0 0 -1 0 0 5
	 3651 5875 3559 5829 3651 5829 3743 5875 3651 5875
2 3 0 1 -1 7 2 0 20 0.000 0 0 -1 0 0 5
	 3743 5875 3880 5875 3743 5829 3697 5829 3743 5875
2 3 0 1 -1 7 2 0 20 0.000 0 0 -1 0 0 6
	 3651 6058 3605 5967 3376 5829 3331 5921 3651 6104 3651 6058
2 3 0 1 -1 7 2 0 20 0.000 0 0 -1 0 0 5
	 4154 6013 3605 6013 3651 6058 4154 6058 4154 6013
2 3 0 1 -1 7 2 0 20 0.000 0 0 -1 0 0 9
	 4154 6058 4200 6150 3926 6150 3651 6150 3605 6150 3331 5967
	 3331 5921 3651 6058 4154 6058
-6
6 1050 5100 3270 5765
1 4 0 1 -1 1 4 0 0 0.000 1 0.0000 1187 5335 31 31 1170 5310 1205 5360
2 3 0 1 -1 1 2 0 15 0.000 0 0 -1 0 0 6
	 1075 5540 1075 5705 3270 5765 3260 5465 1070 5530 1075 5540
2 3 0 1 -1 1 0 0 49 0.000 0 0 -1 0 0 5
	 1095 5555 1095 5680 1595 5695 1595 5540 1095 5555
2 3 0 1 -1 1 0 0 49 0.000 0 0 -1 0 0 6
	 1060 5390 1055 5510 1580 5500 1585 5390 1065 5395 1060 5390
2 3 0 1 -1 1 0 0 0 0.000 0 0 0 0 0 4
	 1515 5304 1549 5365 1480 5365 1515 5304
2 3 0 1 -1 1 0 0 0 0.000 0 0 0 0 0 4
	 1425 5371 1459 5310 1390 5310 1425 5371
2 2 0 1 2 2 0 0 20 0.000 0 0 -1 0 0 5
	 1090 5325 1140 5325 1140 5345 1090 5345 1090 5325
2 3 0 1 -1 1 3 0 15 0.000 0 0 -1 0 0 6
	 1050 5530 1050 5280 3245 5295 3260 5455 1060 5530 1050 5530
2 3 0 1 -1 1 3 0 20 0.000 0 0 -1 0 0 5
	 1050 5285 1585 5105 3200 5100 3240 5290 1050 5285
-6
6 1275 3750 3075 5175
2 3 0 1 -1 33 2 0 20 0.000 0 0 -1 0 0 6
	 1365 3750 1330 5135 2890 5135 2925 3750 2890 3750 1365 3750
2 3 0 1 -1 33 0 0 30 0.000 0 0 -1 0 0 5
	 2925 3750 2890 5135 3075 5025 3075 3825 2925 3750
3 1 0 3 -1 7 1 0 20 0.000 0 0 0 11
	 1538 4061 1607 3900 2717 3923 2751 3957 2785 4027 2785 4858
	 2751 4928 2682 4963 1642 4963 1573 4928 1538 4893
	 1.000 1.000 1.000 1.000 1.000 1.000 1.000 1.000
	 1.000 1.000 1.000
-6
-6
2 1 0 3 0 7 0 0 -1 0.000 1 0 -1 1 1 3
	1 1 3.00 180.00 360.00
	1 1 3.00 180.00 360.00
	 3225 5400 5025 5400 5025 4650
2 1 0 3 0 7 0 0 -1 0.000 1 0 -1 1 1 3
	1 1 3.00 180.00 360.00
	1 1 3.00 180.00 360.00
	 5625 4650 5625 5400 7500 5400
4 0 0 0 0 2 18 0.0000 4 180 195 5775 4425 R\001
4 0 0 0 0 2 18 0.0000 4 180 195 2100 4575 A\001
4 0 0 0 0 2 18 0.0000 4 180 180 8100 4725 B\001
