#FIG 3.2
Landscape
Center
Inches
Letter  
100.00
Single
-2
1200 2
2 4 0 1 0 7 50 0 13 0.000 0 0 7 0 0 5
	 3750 3900 3750 3450 2550 3450 2550 3900 3750 3900
2 1 0 1 0 7 50 0 13 0.000 0 0 -1 1 0 3
	0 0 1.00 60.00 120.00
	 3750 3675 4200 3675 4275 3675
2 4 0 1 0 7 50 0 13 0.000 0 0 7 0 0 5
	 6750 3900 6750 3450 5550 3450 5550 3900 6750 3900
2 1 0 1 0 7 50 0 13 0.000 0 0 -1 1 0 3
	0 0 1.00 60.00 120.00
	 6750 3675 7200 3675 7275 3675
2 2 0 1 0 7 50 0 -1 0.000 0 0 -1 0 0 5
	 2400 2700 3900 2700 3900 4200 2400 4200 2400 2700
2 2 0 1 0 7 50 0 -1 0.000 0 0 -1 0 0 5
	 5400 2700 6900 2700 6900 4200 5400 4200 5400 2700
4 1 0 50 0 16 14 0.0000 4 165 675 3150 3750 Sensor\001
4 0 0 50 0 16 14 0.0000 4 165 645 4350 3750 Values\001
4 1 0 50 0 16 14 0.0000 4 165 810 6150 3750 Detector\001
4 0 0 50 0 16 14 0.0000 4 165 540 7350 3750 Alerts\001
4 1 0 50 0 16 14 0.0000 4 210 825 3150 3000 Program\001
4 1 0 50 0 16 14 0.0000 4 210 825 6150 3000 Program\001
