%!PS-Adobe-2.0 EPSF-2.0
%%Title: values-alerts.eps
%%Creator: fig2dev Version 3.2.3 Patchlevel 
%%CreationDate: Mon Jun 25 20:48:34 2001
%%For: zamboni@basm (Diego Zamboni)
%%BoundingBox: 0 0 332 92
%%Magnification: 1.0000
%%EndComments
/$F2psDict 200 dict def
$F2psDict begin
$F2psDict /mtrx matrix put
/col-1 {0 setgray} bind def
/col0 {0.000 0.000 0.000 srgb} bind def
/col1 {0.000 0.000 1.000 srgb} bind def
/col2 {0.000 1.000 0.000 srgb} bind def
/col3 {0.000 1.000 1.000 srgb} bind def
/col4 {1.000 0.000 0.000 srgb} bind def
/col5 {1.000 0.000 1.000 srgb} bind def
/col6 {1.000 1.000 0.000 srgb} bind def
/col7 {1.000 1.000 1.000 srgb} bind def
/col8 {0.000 0.000 0.560 srgb} bind def
/col9 {0.000 0.000 0.690 srgb} bind def
/col10 {0.000 0.000 0.820 srgb} bind def
/col11 {0.530 0.810 1.000 srgb} bind def
/col12 {0.000 0.560 0.000 srgb} bind def
/col13 {0.000 0.690 0.000 srgb} bind def
/col14 {0.000 0.820 0.000 srgb} bind def
/col15 {0.000 0.560 0.560 srgb} bind def
/col16 {0.000 0.690 0.690 srgb} bind def
/col17 {0.000 0.820 0.820 srgb} bind def
/col18 {0.560 0.000 0.000 srgb} bind def
/col19 {0.690 0.000 0.000 srgb} bind def
/col20 {0.820 0.000 0.000 srgb} bind def
/col21 {0.560 0.000 0.560 srgb} bind def
/col22 {0.690 0.000 0.690 srgb} bind def
/col23 {0.820 0.000 0.820 srgb} bind def
/col24 {0.500 0.190 0.000 srgb} bind def
/col25 {0.630 0.250 0.000 srgb} bind def
/col26 {0.750 0.380 0.000 srgb} bind def
/col27 {1.000 0.500 0.500 srgb} bind def
/col28 {1.000 0.630 0.630 srgb} bind def
/col29 {1.000 0.750 0.750 srgb} bind def
/col30 {1.000 0.880 0.880 srgb} bind def
/col31 {1.000 0.840 0.000 srgb} bind def

end
save
newpath 0 92 moveto 0 0 lineto 332 0 lineto 332 92 lineto closepath clip newpath
-143.0 253.0 translate
1 -1 scale

/cp {closepath} bind def
/ef {eofill} bind def
/gr {grestore} bind def
/gs {gsave} bind def
/sa {save} bind def
/rs {restore} bind def
/l {lineto} bind def
/m {moveto} bind def
/rm {rmoveto} bind def
/n {newpath} bind def
/s {stroke} bind def
/sh {show} bind def
/slc {setlinecap} bind def
/slj {setlinejoin} bind def
/slw {setlinewidth} bind def
/srgb {setrgbcolor} bind def
/rot {rotate} bind def
/sc {scale} bind def
/sd {setdash} bind def
/ff {findfont} bind def
/sf {setfont} bind def
/scf {scalefont} bind def
/sw {stringwidth} bind def
/tr {translate} bind def
/tnt {dup dup currentrgbcolor
  4 -2 roll dup 1 exch sub 3 -1 roll mul add
  4 -2 roll dup 1 exch sub 3 -1 roll mul add
  4 -2 roll dup 1 exch sub 3 -1 roll mul add srgb}
  bind def
/shd {dup dup currentrgbcolor 4 -2 roll mul 4 -2 roll mul
  4 -2 roll mul srgb} bind def
/$F2psBegin {$F2psDict begin /$F2psEnteredState save def} def
/$F2psEnd {$F2psEnteredState restore end} def

$F2psBegin
%%Page: 1 1
10 setmiterlimit
 0.06000 0.06000 sc
% Polyline
7.500 slw
n 2655 3450 m 2550 3450 2550 3795 105 arcto 4 {pop} repeat
  2550 3900 3645 3900 105 arcto 4 {pop} repeat
  3750 3900 3750 3555 105 arcto 4 {pop} repeat
  3750 3450 2655 3450 105 arcto 4 {pop} repeat
 cp gs col7 0.65 shd ef gr gs col0 s gr 
% Polyline
gs  clippath
4290 3705 m 4290 3645 l 4138 3645 l 4258 3675 l 4138 3705 l cp
eoclip
n 3750 3675 m 4200 3675 l
 4275 3675 l gs col7 0.65 shd ef gr gs col0 s gr gr

% arrowhead
n 4138 3705 m 4258 3675 l 4138 3645 l  col0 s
% Polyline
n 5655 3450 m 5550 3450 5550 3795 105 arcto 4 {pop} repeat
  5550 3900 6645 3900 105 arcto 4 {pop} repeat
  6750 3900 6750 3555 105 arcto 4 {pop} repeat
  6750 3450 5655 3450 105 arcto 4 {pop} repeat
 cp gs col7 0.65 shd ef gr gs col0 s gr 
% Polyline
gs  clippath
7290 3705 m 7290 3645 l 7138 3645 l 7258 3675 l 7138 3705 l cp
eoclip
n 6750 3675 m 7200 3675 l
 7275 3675 l gs col7 0.65 shd ef gr gs col0 s gr gr

% arrowhead
n 7138 3705 m 7258 3675 l 7138 3645 l  col0 s
% Polyline
n 2400 2700 m 3900 2700 l 3900 4200 l 2400 4200 l
 cp gs col0 s gr 
% Polyline
n 5400 2700 m 6900 2700 l 6900 4200 l 5400 4200 l
 cp gs col0 s gr 
/Helvetica ff 210.00 scf sf
3150 3750 m
gs 1 -1 sc (Sensor) dup sw pop 2 div neg 0 rm  col0 sh gr
/Helvetica ff 210.00 scf sf
4350 3750 m
gs 1 -1 sc (Values) col0 sh gr
/Helvetica ff 210.00 scf sf
6150 3750 m
gs 1 -1 sc (Detector) dup sw pop 2 div neg 0 rm  col0 sh gr
/Helvetica ff 210.00 scf sf
7350 3750 m
gs 1 -1 sc (Alerts) col0 sh gr
/Helvetica ff 210.00 scf sf
3150 3000 m
gs 1 -1 sc (Program) dup sw pop 2 div neg 0 rm  col0 sh gr
/Helvetica ff 210.00 scf sf
6150 3000 m
gs 1 -1 sc (Program) dup sw pop 2 div neg 0 rm  col0 sh gr
$F2psEnd
rs
